test/saida15.out
VCD info: dumpfile saida.vcd opened for output.
Iniciando Testbench...
WARNING: tb.v:32: $readmemh(teste.txt): Not enough words in the file for the requested range [0:512].
=== OK  [0] OP:f RS1:00000000 RS2:00000000 => RD:00000000 (esperado)
=== OK  [1] OP:f RS1:00000000 RS2:ffffffff => RD:00000001 (esperado)
=== OK  [2] OP:f RS1:00000000 RS2:7fffffff => RD:00000001 (esperado)
=== OK  [3] OP:f RS1:00000000 RS2:80000000 => RD:00000001 (esperado)
=== OK  [4] OP:f RS1:00000000 RS2:00000001 => RD:00000001 (esperado)
=== OK  [5] OP:f RS1:00000000 RS2:fffffffe => RD:00000001 (esperado)
=== OK  [6] OP:f RS1:00000000 RS2:00000002 => RD:00000001 (esperado)
=== OK  [7] OP:f RS1:00000000 RS2:fffffffd => RD:00000001 (esperado)
=== OK  [8] OP:f RS1:00000000 RS2:00000003 => RD:00000001 (esperado)
=== OK  [9] OP:f RS1:00000000 RS2:fffffffc => RD:00000001 (esperado)
=== OK  [10] OP:f RS1:00000000 RS2:a5a5a5a5 => RD:00000001 (esperado)
=== OK  [11] OP:f RS1:00000000 RS2:5a5a5a5a => RD:00000001 (esperado)
=== OK  [12] OP:f RS1:00000000 RS2:12345678 => RD:00000001 (esperado)
=== OK  [13] OP:f RS1:00000000 RS2:87654321 => RD:00000001 (esperado)
=== OK  [14] OP:f RS1:00000000 RS2:0000000f => RD:00000001 (esperado)
=== OK  [15] OP:f RS1:00000000 RS2:000000f0 => RD:00000001 (esperado)
=== OK  [16] OP:f RS1:00000000 RS2:000000ff => RD:00000001 (esperado)
=== OK  [17] OP:f RS1:00000000 RS2:00000010 => RD:00000001 (esperado)
=== OK  [18] OP:f RS1:ffffffff RS2:00000000 => RD:00000000 (esperado)
=== OK  [19] OP:f RS1:ffffffff RS2:ffffffff => RD:00000000 (esperado)
=== OK  [20] OP:f RS1:ffffffff RS2:7fffffff => RD:00000000 (esperado)
=== OK  [21] OP:f RS1:ffffffff RS2:80000000 => RD:00000000 (esperado)
=== OK  [22] OP:f RS1:ffffffff RS2:00000001 => RD:00000000 (esperado)
=== OK  [23] OP:f RS1:ffffffff RS2:fffffffe => RD:00000000 (esperado)
=== OK  [24] OP:f RS1:ffffffff RS2:00000002 => RD:00000000 (esperado)
=== OK  [25] OP:f RS1:ffffffff RS2:fffffffd => RD:00000000 (esperado)
=== OK  [26] OP:f RS1:ffffffff RS2:00000003 => RD:00000000 (esperado)
=== OK  [27] OP:f RS1:ffffffff RS2:fffffffc => RD:00000000 (esperado)
=== OK  [28] OP:f RS1:ffffffff RS2:a5a5a5a5 => RD:00000000 (esperado)
=== OK  [29] OP:f RS1:ffffffff RS2:5a5a5a5a => RD:00000000 (esperado)
=== OK  [30] OP:f RS1:ffffffff RS2:12345678 => RD:00000000 (esperado)
=== OK  [31] OP:f RS1:ffffffff RS2:87654321 => RD:00000000 (esperado)
=== OK  [32] OP:f RS1:ffffffff RS2:0000000f => RD:00000000 (esperado)
=== OK  [33] OP:f RS1:ffffffff RS2:000000f0 => RD:00000000 (esperado)
=== OK  [34] OP:f RS1:ffffffff RS2:000000ff => RD:00000000 (esperado)
=== OK  [35] OP:f RS1:ffffffff RS2:00000010 => RD:00000000 (esperado)
=== OK  [36] OP:f RS1:7fffffff RS2:00000000 => RD:00000000 (esperado)
=== OK  [37] OP:f RS1:7fffffff RS2:ffffffff => RD:00000001 (esperado)
=== OK  [38] OP:f RS1:7fffffff RS2:7fffffff => RD:00000000 (esperado)
=== OK  [39] OP:f RS1:7fffffff RS2:80000000 => RD:00000001 (esperado)
=== OK  [40] OP:f RS1:7fffffff RS2:00000001 => RD:00000000 (esperado)
=== OK  [41] OP:f RS1:7fffffff RS2:fffffffe => RD:00000001 (esperado)
=== OK  [42] OP:f RS1:7fffffff RS2:00000002 => RD:00000000 (esperado)
=== OK  [43] OP:f RS1:7fffffff RS2:fffffffd => RD:00000001 (esperado)
=== OK  [44] OP:f RS1:7fffffff RS2:00000003 => RD:00000000 (esperado)
=== OK  [45] OP:f RS1:7fffffff RS2:fffffffc => RD:00000001 (esperado)
=== OK  [46] OP:f RS1:7fffffff RS2:a5a5a5a5 => RD:00000001 (esperado)
=== OK  [47] OP:f RS1:7fffffff RS2:5a5a5a5a => RD:00000000 (esperado)
=== OK  [48] OP:f RS1:7fffffff RS2:12345678 => RD:00000000 (esperado)
=== OK  [49] OP:f RS1:7fffffff RS2:87654321 => RD:00000001 (esperado)
=== OK  [50] OP:f RS1:7fffffff RS2:0000000f => RD:00000000 (esperado)
=== OK  [51] OP:f RS1:7fffffff RS2:000000f0 => RD:00000000 (esperado)
=== OK  [52] OP:f RS1:7fffffff RS2:000000ff => RD:00000000 (esperado)
=== OK  [53] OP:f RS1:7fffffff RS2:00000010 => RD:00000000 (esperado)
=== OK  [54] OP:f RS1:80000000 RS2:00000000 => RD:00000000 (esperado)
=== OK  [55] OP:f RS1:80000000 RS2:ffffffff => RD:00000001 (esperado)
=== OK  [56] OP:f RS1:80000000 RS2:7fffffff => RD:00000000 (esperado)
=== OK  [57] OP:f RS1:80000000 RS2:80000000 => RD:00000000 (esperado)
=== OK  [58] OP:f RS1:80000000 RS2:00000001 => RD:00000000 (esperado)
=== OK  [59] OP:f RS1:80000000 RS2:fffffffe => RD:00000001 (esperado)
=== OK  [60] OP:f RS1:80000000 RS2:00000002 => RD:00000000 (esperado)
=== OK  [61] OP:f RS1:80000000 RS2:fffffffd => RD:00000001 (esperado)
=== OK  [62] OP:f RS1:80000000 RS2:00000003 => RD:00000000 (esperado)
=== OK  [63] OP:f RS1:80000000 RS2:fffffffc => RD:00000001 (esperado)
=== OK  [64] OP:f RS1:80000000 RS2:a5a5a5a5 => RD:00000001 (esperado)
=== OK  [65] OP:f RS1:80000000 RS2:5a5a5a5a => RD:00000000 (esperado)
=== OK  [66] OP:f RS1:80000000 RS2:12345678 => RD:00000000 (esperado)
=== OK  [67] OP:f RS1:80000000 RS2:87654321 => RD:00000001 (esperado)
=== OK  [68] OP:f RS1:80000000 RS2:0000000f => RD:00000000 (esperado)
=== OK  [69] OP:f RS1:80000000 RS2:000000f0 => RD:00000000 (esperado)
=== OK  [70] OP:f RS1:80000000 RS2:000000ff => RD:00000000 (esperado)
=== OK  [71] OP:f RS1:80000000 RS2:00000010 => RD:00000000 (esperado)
=== OK  [72] OP:f RS1:00000001 RS2:00000000 => RD:00000000 (esperado)
=== OK  [73] OP:f RS1:00000001 RS2:ffffffff => RD:00000001 (esperado)
=== OK  [74] OP:f RS1:00000001 RS2:7fffffff => RD:00000001 (esperado)
=== OK  [75] OP:f RS1:00000001 RS2:80000000 => RD:00000001 (esperado)
=== OK  [76] OP:f RS1:00000001 RS2:00000001 => RD:00000000 (esperado)
=== OK  [77] OP:f RS1:00000001 RS2:fffffffe => RD:00000001 (esperado)
=== OK  [78] OP:f RS1:00000001 RS2:00000002 => RD:00000001 (esperado)
=== OK  [79] OP:f RS1:00000001 RS2:fffffffd => RD:00000001 (esperado)
=== OK  [80] OP:f RS1:00000001 RS2:00000003 => RD:00000001 (esperado)
=== OK  [81] OP:f RS1:00000001 RS2:fffffffc => RD:00000001 (esperado)
=== OK  [82] OP:f RS1:00000001 RS2:a5a5a5a5 => RD:00000001 (esperado)
=== OK  [83] OP:f RS1:00000001 RS2:5a5a5a5a => RD:00000001 (esperado)
=== OK  [84] OP:f RS1:00000001 RS2:12345678 => RD:00000001 (esperado)
=== OK  [85] OP:f RS1:00000001 RS2:87654321 => RD:00000001 (esperado)
=== OK  [86] OP:f RS1:00000001 RS2:0000000f => RD:00000001 (esperado)
=== OK  [87] OP:f RS1:00000001 RS2:000000f0 => RD:00000001 (esperado)
=== OK  [88] OP:f RS1:00000001 RS2:000000ff => RD:00000001 (esperado)
=== OK  [89] OP:f RS1:00000001 RS2:00000010 => RD:00000001 (esperado)
=== OK  [90] OP:f RS1:fffffffe RS2:00000000 => RD:00000000 (esperado)
=== OK  [91] OP:f RS1:fffffffe RS2:ffffffff => RD:00000001 (esperado)
=== OK  [92] OP:f RS1:fffffffe RS2:7fffffff => RD:00000000 (esperado)
=== OK  [93] OP:f RS1:fffffffe RS2:80000000 => RD:00000000 (esperado)
=== OK  [94] OP:f RS1:fffffffe RS2:00000001 => RD:00000000 (esperado)
=== OK  [95] OP:f RS1:fffffffe RS2:fffffffe => RD:00000000 (esperado)
=== OK  [96] OP:f RS1:fffffffe RS2:00000002 => RD:00000000 (esperado)
=== OK  [97] OP:f RS1:fffffffe RS2:fffffffd => RD:00000000 (esperado)
=== OK  [98] OP:f RS1:fffffffe RS2:00000003 => RD:00000000 (esperado)
=== OK  [99] OP:f RS1:fffffffe RS2:fffffffc => RD:00000000 (esperado)
=== OK  [100] OP:f RS1:fffffffe RS2:a5a5a5a5 => RD:00000000 (esperado)
=== OK  [101] OP:f RS1:fffffffe RS2:5a5a5a5a => RD:00000000 (esperado)
=== OK  [102] OP:f RS1:fffffffe RS2:12345678 => RD:00000000 (esperado)
=== OK  [103] OP:f RS1:fffffffe RS2:87654321 => RD:00000000 (esperado)
=== OK  [104] OP:f RS1:fffffffe RS2:0000000f => RD:00000000 (esperado)
=== OK  [105] OP:f RS1:fffffffe RS2:000000f0 => RD:00000000 (esperado)
=== OK  [106] OP:f RS1:fffffffe RS2:000000ff => RD:00000000 (esperado)
=== OK  [107] OP:f RS1:fffffffe RS2:00000010 => RD:00000000 (esperado)
=== OK  [108] OP:f RS1:00000002 RS2:00000000 => RD:00000000 (esperado)
=== OK  [109] OP:f RS1:00000002 RS2:ffffffff => RD:00000001 (esperado)
=== OK  [110] OP:f RS1:00000002 RS2:7fffffff => RD:00000001 (esperado)
=== OK  [111] OP:f RS1:00000002 RS2:80000000 => RD:00000001 (esperado)
=== OK  [112] OP:f RS1:00000002 RS2:00000001 => RD:00000000 (esperado)
=== OK  [113] OP:f RS1:00000002 RS2:fffffffe => RD:00000001 (esperado)
=== OK  [114] OP:f RS1:00000002 RS2:00000002 => RD:00000000 (esperado)
=== OK  [115] OP:f RS1:00000002 RS2:fffffffd => RD:00000001 (esperado)
=== OK  [116] OP:f RS1:00000002 RS2:00000003 => RD:00000001 (esperado)
=== OK  [117] OP:f RS1:00000002 RS2:fffffffc => RD:00000001 (esperado)
=== OK  [118] OP:f RS1:00000002 RS2:a5a5a5a5 => RD:00000001 (esperado)
=== OK  [119] OP:f RS1:00000002 RS2:5a5a5a5a => RD:00000001 (esperado)
=== OK  [120] OP:f RS1:00000002 RS2:12345678 => RD:00000001 (esperado)
=== OK  [121] OP:f RS1:00000002 RS2:87654321 => RD:00000001 (esperado)
=== OK  [122] OP:f RS1:00000002 RS2:0000000f => RD:00000001 (esperado)
=== OK  [123] OP:f RS1:00000002 RS2:000000f0 => RD:00000001 (esperado)
=== OK  [124] OP:f RS1:00000002 RS2:000000ff => RD:00000001 (esperado)
=== OK  [125] OP:f RS1:00000002 RS2:00000010 => RD:00000001 (esperado)
=== OK  [126] OP:f RS1:fffffffd RS2:00000000 => RD:00000000 (esperado)
=== OK  [127] OP:f RS1:fffffffd RS2:ffffffff => RD:00000001 (esperado)
=== OK  [128] OP:f RS1:fffffffd RS2:7fffffff => RD:00000000 (esperado)
=== OK  [129] OP:f RS1:fffffffd RS2:80000000 => RD:00000000 (esperado)
=== OK  [130] OP:f RS1:fffffffd RS2:00000001 => RD:00000000 (esperado)
=== OK  [131] OP:f RS1:fffffffd RS2:fffffffe => RD:00000001 (esperado)
=== OK  [132] OP:f RS1:fffffffd RS2:00000002 => RD:00000000 (esperado)
=== OK  [133] OP:f RS1:fffffffd RS2:fffffffd => RD:00000000 (esperado)
=== OK  [134] OP:f RS1:fffffffd RS2:00000003 => RD:00000000 (esperado)
=== OK  [135] OP:f RS1:fffffffd RS2:fffffffc => RD:00000000 (esperado)
=== OK  [136] OP:f RS1:fffffffd RS2:a5a5a5a5 => RD:00000000 (esperado)
=== OK  [137] OP:f RS1:fffffffd RS2:5a5a5a5a => RD:00000000 (esperado)
=== OK  [138] OP:f RS1:fffffffd RS2:12345678 => RD:00000000 (esperado)
=== OK  [139] OP:f RS1:fffffffd RS2:87654321 => RD:00000000 (esperado)
=== OK  [140] OP:f RS1:fffffffd RS2:0000000f => RD:00000000 (esperado)
=== OK  [141] OP:f RS1:fffffffd RS2:000000f0 => RD:00000000 (esperado)
=== OK  [142] OP:f RS1:fffffffd RS2:000000ff => RD:00000000 (esperado)
=== OK  [143] OP:f RS1:fffffffd RS2:00000010 => RD:00000000 (esperado)
=== OK  [144] OP:f RS1:00000003 RS2:00000000 => RD:00000000 (esperado)
=== OK  [145] OP:f RS1:00000003 RS2:ffffffff => RD:00000001 (esperado)
=== OK  [146] OP:f RS1:00000003 RS2:7fffffff => RD:00000001 (esperado)
=== OK  [147] OP:f RS1:00000003 RS2:80000000 => RD:00000001 (esperado)
=== OK  [148] OP:f RS1:00000003 RS2:00000001 => RD:00000000 (esperado)
=== OK  [149] OP:f RS1:00000003 RS2:fffffffe => RD:00000001 (esperado)
=== OK  [150] OP:f RS1:00000003 RS2:00000002 => RD:00000000 (esperado)
=== OK  [151] OP:f RS1:00000003 RS2:fffffffd => RD:00000001 (esperado)
=== OK  [152] OP:f RS1:00000003 RS2:00000003 => RD:00000000 (esperado)
=== OK  [153] OP:f RS1:00000003 RS2:fffffffc => RD:00000001 (esperado)
=== OK  [154] OP:f RS1:00000003 RS2:a5a5a5a5 => RD:00000001 (esperado)
=== OK  [155] OP:f RS1:00000003 RS2:5a5a5a5a => RD:00000001 (esperado)
=== OK  [156] OP:f RS1:00000003 RS2:12345678 => RD:00000001 (esperado)
=== OK  [157] OP:f RS1:00000003 RS2:87654321 => RD:00000001 (esperado)
=== OK  [158] OP:f RS1:00000003 RS2:0000000f => RD:00000001 (esperado)
=== OK  [159] OP:f RS1:00000003 RS2:000000f0 => RD:00000001 (esperado)
=== OK  [160] OP:f RS1:00000003 RS2:000000ff => RD:00000001 (esperado)
=== OK  [161] OP:f RS1:00000003 RS2:00000010 => RD:00000001 (esperado)
=== OK  [162] OP:f RS1:fffffffc RS2:00000000 => RD:00000000 (esperado)
=== OK  [163] OP:f RS1:fffffffc RS2:ffffffff => RD:00000001 (esperado)
=== OK  [164] OP:f RS1:fffffffc RS2:7fffffff => RD:00000000 (esperado)
=== OK  [165] OP:f RS1:fffffffc RS2:80000000 => RD:00000000 (esperado)
=== OK  [166] OP:f RS1:fffffffc RS2:00000001 => RD:00000000 (esperado)
=== OK  [167] OP:f RS1:fffffffc RS2:fffffffe => RD:00000001 (esperado)
=== OK  [168] OP:f RS1:fffffffc RS2:00000002 => RD:00000000 (esperado)
=== OK  [169] OP:f RS1:fffffffc RS2:fffffffd => RD:00000001 (esperado)
=== OK  [170] OP:f RS1:fffffffc RS2:00000003 => RD:00000000 (esperado)
=== OK  [171] OP:f RS1:fffffffc RS2:fffffffc => RD:00000000 (esperado)
=== OK  [172] OP:f RS1:fffffffc RS2:a5a5a5a5 => RD:00000000 (esperado)
=== OK  [173] OP:f RS1:fffffffc RS2:5a5a5a5a => RD:00000000 (esperado)
=== OK  [174] OP:f RS1:fffffffc RS2:12345678 => RD:00000000 (esperado)
=== OK  [175] OP:f RS1:fffffffc RS2:87654321 => RD:00000000 (esperado)
=== OK  [176] OP:f RS1:fffffffc RS2:0000000f => RD:00000000 (esperado)
=== OK  [177] OP:f RS1:fffffffc RS2:000000f0 => RD:00000000 (esperado)
=== OK  [178] OP:f RS1:fffffffc RS2:000000ff => RD:00000000 (esperado)
=== OK  [179] OP:f RS1:fffffffc RS2:00000010 => RD:00000000 (esperado)
=== OK  [180] OP:f RS1:a5a5a5a5 RS2:00000000 => RD:00000000 (esperado)
=== OK  [181] OP:f RS1:a5a5a5a5 RS2:ffffffff => RD:00000001 (esperado)
=== OK  [182] OP:f RS1:a5a5a5a5 RS2:7fffffff => RD:00000000 (esperado)
=== OK  [183] OP:f RS1:a5a5a5a5 RS2:80000000 => RD:00000000 (esperado)
=== OK  [184] OP:f RS1:a5a5a5a5 RS2:00000001 => RD:00000000 (esperado)
=== OK  [185] OP:f RS1:a5a5a5a5 RS2:fffffffe => RD:00000001 (esperado)
=== OK  [186] OP:f RS1:a5a5a5a5 RS2:00000002 => RD:00000000 (esperado)
=== OK  [187] OP:f RS1:a5a5a5a5 RS2:fffffffd => RD:00000001 (esperado)
=== OK  [188] OP:f RS1:a5a5a5a5 RS2:00000003 => RD:00000000 (esperado)
=== OK  [189] OP:f RS1:a5a5a5a5 RS2:fffffffc => RD:00000001 (esperado)
=== OK  [190] OP:f RS1:a5a5a5a5 RS2:a5a5a5a5 => RD:00000000 (esperado)
=== OK  [191] OP:f RS1:a5a5a5a5 RS2:5a5a5a5a => RD:00000000 (esperado)
=== OK  [192] OP:f RS1:a5a5a5a5 RS2:12345678 => RD:00000000 (esperado)
=== OK  [193] OP:f RS1:a5a5a5a5 RS2:87654321 => RD:00000000 (esperado)
=== OK  [194] OP:f RS1:a5a5a5a5 RS2:0000000f => RD:00000000 (esperado)
=== OK  [195] OP:f RS1:a5a5a5a5 RS2:000000f0 => RD:00000000 (esperado)
=== OK  [196] OP:f RS1:a5a5a5a5 RS2:000000ff => RD:00000000 (esperado)
=== OK  [197] OP:f RS1:a5a5a5a5 RS2:00000010 => RD:00000000 (esperado)
=== OK  [198] OP:f RS1:5a5a5a5a RS2:00000000 => RD:00000000 (esperado)
=== OK  [199] OP:f RS1:5a5a5a5a RS2:ffffffff => RD:00000001 (esperado)
=== OK  [200] OP:f RS1:5a5a5a5a RS2:7fffffff => RD:00000001 (esperado)
=== OK  [201] OP:f RS1:5a5a5a5a RS2:80000000 => RD:00000001 (esperado)
=== OK  [202] OP:f RS1:5a5a5a5a RS2:00000001 => RD:00000000 (esperado)
=== OK  [203] OP:f RS1:5a5a5a5a RS2:fffffffe => RD:00000001 (esperado)
=== OK  [204] OP:f RS1:5a5a5a5a RS2:00000002 => RD:00000000 (esperado)
=== OK  [205] OP:f RS1:5a5a5a5a RS2:fffffffd => RD:00000001 (esperado)
=== OK  [206] OP:f RS1:5a5a5a5a RS2:00000003 => RD:00000000 (esperado)
=== OK  [207] OP:f RS1:5a5a5a5a RS2:fffffffc => RD:00000001 (esperado)
=== OK  [208] OP:f RS1:5a5a5a5a RS2:a5a5a5a5 => RD:00000001 (esperado)
=== OK  [209] OP:f RS1:5a5a5a5a RS2:5a5a5a5a => RD:00000000 (esperado)
=== OK  [210] OP:f RS1:5a5a5a5a RS2:12345678 => RD:00000000 (esperado)
=== OK  [211] OP:f RS1:5a5a5a5a RS2:87654321 => RD:00000001 (esperado)
=== OK  [212] OP:f RS1:5a5a5a5a RS2:0000000f => RD:00000000 (esperado)
=== OK  [213] OP:f RS1:5a5a5a5a RS2:000000f0 => RD:00000000 (esperado)
=== OK  [214] OP:f RS1:5a5a5a5a RS2:000000ff => RD:00000000 (esperado)
=== OK  [215] OP:f RS1:5a5a5a5a RS2:00000010 => RD:00000000 (esperado)
=== OK  [216] OP:f RS1:12345678 RS2:00000000 => RD:00000000 (esperado)
=== OK  [217] OP:f RS1:12345678 RS2:ffffffff => RD:00000001 (esperado)
=== OK  [218] OP:f RS1:12345678 RS2:7fffffff => RD:00000001 (esperado)
=== OK  [219] OP:f RS1:12345678 RS2:80000000 => RD:00000001 (esperado)
=== OK  [220] OP:f RS1:12345678 RS2:00000001 => RD:00000000 (esperado)
=== OK  [221] OP:f RS1:12345678 RS2:fffffffe => RD:00000001 (esperado)
=== OK  [222] OP:f RS1:12345678 RS2:00000002 => RD:00000000 (esperado)
=== OK  [223] OP:f RS1:12345678 RS2:fffffffd => RD:00000001 (esperado)
=== OK  [224] OP:f RS1:12345678 RS2:00000003 => RD:00000000 (esperado)
=== OK  [225] OP:f RS1:12345678 RS2:fffffffc => RD:00000001 (esperado)
=== OK  [226] OP:f RS1:12345678 RS2:a5a5a5a5 => RD:00000001 (esperado)
=== OK  [227] OP:f RS1:12345678 RS2:5a5a5a5a => RD:00000001 (esperado)
=== OK  [228] OP:f RS1:12345678 RS2:12345678 => RD:00000000 (esperado)
=== OK  [229] OP:f RS1:12345678 RS2:87654321 => RD:00000001 (esperado)
=== OK  [230] OP:f RS1:12345678 RS2:0000000f => RD:00000000 (esperado)
=== OK  [231] OP:f RS1:12345678 RS2:000000f0 => RD:00000000 (esperado)
=== OK  [232] OP:f RS1:12345678 RS2:000000ff => RD:00000000 (esperado)
=== OK  [233] OP:f RS1:12345678 RS2:00000010 => RD:00000000 (esperado)
=== OK  [234] OP:f RS1:87654321 RS2:00000000 => RD:00000000 (esperado)
=== OK  [235] OP:f RS1:87654321 RS2:ffffffff => RD:00000001 (esperado)
=== OK  [236] OP:f RS1:87654321 RS2:7fffffff => RD:00000000 (esperado)
=== OK  [237] OP:f RS1:87654321 RS2:80000000 => RD:00000000 (esperado)
=== OK  [238] OP:f RS1:87654321 RS2:00000001 => RD:00000000 (esperado)
=== OK  [239] OP:f RS1:87654321 RS2:fffffffe => RD:00000001 (esperado)
=== OK  [240] OP:f RS1:87654321 RS2:00000002 => RD:00000000 (esperado)
=== OK  [241] OP:f RS1:87654321 RS2:fffffffd => RD:00000001 (esperado)
=== OK  [242] OP:f RS1:87654321 RS2:00000003 => RD:00000000 (esperado)
=== OK  [243] OP:f RS1:87654321 RS2:fffffffc => RD:00000001 (esperado)
=== OK  [244] OP:f RS1:87654321 RS2:a5a5a5a5 => RD:00000001 (esperado)
=== OK  [245] OP:f RS1:87654321 RS2:5a5a5a5a => RD:00000000 (esperado)
=== OK  [246] OP:f RS1:87654321 RS2:12345678 => RD:00000000 (esperado)
=== OK  [247] OP:f RS1:87654321 RS2:87654321 => RD:00000000 (esperado)
=== OK  [248] OP:f RS1:87654321 RS2:0000000f => RD:00000000 (esperado)
=== OK  [249] OP:f RS1:87654321 RS2:000000f0 => RD:00000000 (esperado)
=== OK  [250] OP:f RS1:87654321 RS2:000000ff => RD:00000000 (esperado)
=== OK  [251] OP:f RS1:87654321 RS2:00000010 => RD:00000000 (esperado)
=== OK  [252] OP:f RS1:0000000f RS2:00000000 => RD:00000000 (esperado)
=== OK  [253] OP:f RS1:0000000f RS2:ffffffff => RD:00000001 (esperado)
=== OK  [254] OP:f RS1:0000000f RS2:7fffffff => RD:00000001 (esperado)
=== OK  [255] OP:f RS1:0000000f RS2:80000000 => RD:00000001 (esperado)
=== OK  [256] OP:f RS1:0000000f RS2:00000001 => RD:00000000 (esperado)
=== OK  [257] OP:f RS1:0000000f RS2:fffffffe => RD:00000001 (esperado)
=== OK  [258] OP:f RS1:0000000f RS2:00000002 => RD:00000000 (esperado)
=== OK  [259] OP:f RS1:0000000f RS2:fffffffd => RD:00000001 (esperado)
=== OK  [260] OP:f RS1:0000000f RS2:00000003 => RD:00000000 (esperado)
=== OK  [261] OP:f RS1:0000000f RS2:fffffffc => RD:00000001 (esperado)
=== OK  [262] OP:f RS1:0000000f RS2:a5a5a5a5 => RD:00000001 (esperado)
=== OK  [263] OP:f RS1:0000000f RS2:5a5a5a5a => RD:00000001 (esperado)
=== OK  [264] OP:f RS1:0000000f RS2:12345678 => RD:00000001 (esperado)
=== OK  [265] OP:f RS1:0000000f RS2:87654321 => RD:00000001 (esperado)
=== OK  [266] OP:f RS1:0000000f RS2:0000000f => RD:00000000 (esperado)
=== OK  [267] OP:f RS1:0000000f RS2:000000f0 => RD:00000001 (esperado)
=== OK  [268] OP:f RS1:0000000f RS2:000000ff => RD:00000001 (esperado)
=== OK  [269] OP:f RS1:0000000f RS2:00000010 => RD:00000001 (esperado)
=== OK  [270] OP:f RS1:000000f0 RS2:00000000 => RD:00000000 (esperado)
=== OK  [271] OP:f RS1:000000f0 RS2:ffffffff => RD:00000001 (esperado)
=== OK  [272] OP:f RS1:000000f0 RS2:7fffffff => RD:00000001 (esperado)
=== OK  [273] OP:f RS1:000000f0 RS2:80000000 => RD:00000001 (esperado)
=== OK  [274] OP:f RS1:000000f0 RS2:00000001 => RD:00000000 (esperado)
=== OK  [275] OP:f RS1:000000f0 RS2:fffffffe => RD:00000001 (esperado)
=== OK  [276] OP:f RS1:000000f0 RS2:00000002 => RD:00000000 (esperado)
=== OK  [277] OP:f RS1:000000f0 RS2:fffffffd => RD:00000001 (esperado)
=== OK  [278] OP:f RS1:000000f0 RS2:00000003 => RD:00000000 (esperado)
=== OK  [279] OP:f RS1:000000f0 RS2:fffffffc => RD:00000001 (esperado)
=== OK  [280] OP:f RS1:000000f0 RS2:a5a5a5a5 => RD:00000001 (esperado)
=== OK  [281] OP:f RS1:000000f0 RS2:5a5a5a5a => RD:00000001 (esperado)
=== OK  [282] OP:f RS1:000000f0 RS2:12345678 => RD:00000001 (esperado)
=== OK  [283] OP:f RS1:000000f0 RS2:87654321 => RD:00000001 (esperado)
=== OK  [284] OP:f RS1:000000f0 RS2:0000000f => RD:00000000 (esperado)
=== OK  [285] OP:f RS1:000000f0 RS2:000000f0 => RD:00000000 (esperado)
=== OK  [286] OP:f RS1:000000f0 RS2:000000ff => RD:00000001 (esperado)
=== OK  [287] OP:f RS1:000000f0 RS2:00000010 => RD:00000000 (esperado)
=== OK  [288] OP:f RS1:000000ff RS2:00000000 => RD:00000000 (esperado)
=== OK  [289] OP:f RS1:000000ff RS2:ffffffff => RD:00000001 (esperado)
=== OK  [290] OP:f RS1:000000ff RS2:7fffffff => RD:00000001 (esperado)
=== OK  [291] OP:f RS1:000000ff RS2:80000000 => RD:00000001 (esperado)
=== OK  [292] OP:f RS1:000000ff RS2:00000001 => RD:00000000 (esperado)
=== OK  [293] OP:f RS1:000000ff RS2:fffffffe => RD:00000001 (esperado)
=== OK  [294] OP:f RS1:000000ff RS2:00000002 => RD:00000000 (esperado)
=== OK  [295] OP:f RS1:000000ff RS2:fffffffd => RD:00000001 (esperado)
=== OK  [296] OP:f RS1:000000ff RS2:00000003 => RD:00000000 (esperado)
=== OK  [297] OP:f RS1:000000ff RS2:fffffffc => RD:00000001 (esperado)
=== OK  [298] OP:f RS1:000000ff RS2:a5a5a5a5 => RD:00000001 (esperado)
=== OK  [299] OP:f RS1:000000ff RS2:5a5a5a5a => RD:00000001 (esperado)
=== OK  [300] OP:f RS1:000000ff RS2:12345678 => RD:00000001 (esperado)
=== OK  [301] OP:f RS1:000000ff RS2:87654321 => RD:00000001 (esperado)
=== OK  [302] OP:f RS1:000000ff RS2:0000000f => RD:00000000 (esperado)
=== OK  [303] OP:f RS1:000000ff RS2:000000f0 => RD:00000000 (esperado)
=== OK  [304] OP:f RS1:000000ff RS2:000000ff => RD:00000000 (esperado)
=== OK  [305] OP:f RS1:000000ff RS2:00000010 => RD:00000000 (esperado)
=== OK  [306] OP:f RS1:00000010 RS2:00000000 => RD:00000000 (esperado)
=== OK  [307] OP:f RS1:00000010 RS2:ffffffff => RD:00000001 (esperado)
=== OK  [308] OP:f RS1:00000010 RS2:7fffffff => RD:00000001 (esperado)
=== OK  [309] OP:f RS1:00000010 RS2:80000000 => RD:00000001 (esperado)
=== OK  [310] OP:f RS1:00000010 RS2:00000001 => RD:00000000 (esperado)
=== OK  [311] OP:f RS1:00000010 RS2:fffffffe => RD:00000001 (esperado)
=== OK  [312] OP:f RS1:00000010 RS2:00000002 => RD:00000000 (esperado)
=== OK  [313] OP:f RS1:00000010 RS2:fffffffd => RD:00000001 (esperado)
=== OK  [314] OP:f RS1:00000010 RS2:00000003 => RD:00000000 (esperado)
=== OK  [315] OP:f RS1:00000010 RS2:fffffffc => RD:00000001 (esperado)
=== OK  [316] OP:f RS1:00000010 RS2:a5a5a5a5 => RD:00000001 (esperado)
=== OK  [317] OP:f RS1:00000010 RS2:5a5a5a5a => RD:00000001 (esperado)
=== OK  [318] OP:f RS1:00000010 RS2:12345678 => RD:00000001 (esperado)
=== OK  [319] OP:f RS1:00000010 RS2:87654321 => RD:00000001 (esperado)
=== OK  [320] OP:f RS1:00000010 RS2:0000000f => RD:00000000 (esperado)
=== OK  [321] OP:f RS1:00000010 RS2:000000f0 => RD:00000001 (esperado)
=== OK  [322] OP:f RS1:00000010 RS2:000000ff => RD:00000001 (esperado)
=== OK  [323] OP:f RS1:00000010 RS2:00000010 => RD:00000000 (esperado)
Testbench finalizado com sucesso.
