test/saida7.out
VCD info: dumpfile saida.vcd opened for output.
Iniciando Testbench...
WARNING: tb.v:32: $readmemh(teste.txt): Not enough words in the file for the requested range [0:512].
=== OK  [0] OP:7 RS1:00000000 RS2:00000000 => RD:00000000 (esperado)
=== OK  [1] OP:7 RS1:00000000 RS2:ffffffff => RD:00000000 (esperado)
=== OK  [2] OP:7 RS1:00000000 RS2:7fffffff => RD:00000000 (esperado)
=== OK  [3] OP:7 RS1:00000000 RS2:80000000 => RD:00000000 (esperado)
=== OK  [4] OP:7 RS1:00000000 RS2:00000001 => RD:00000000 (esperado)
=== OK  [5] OP:7 RS1:00000000 RS2:fffffffe => RD:00000000 (esperado)
=== OK  [6] OP:7 RS1:00000000 RS2:00000002 => RD:00000000 (esperado)
=== OK  [7] OP:7 RS1:00000000 RS2:fffffffd => RD:00000000 (esperado)
=== OK  [8] OP:7 RS1:00000000 RS2:00000003 => RD:00000000 (esperado)
=== OK  [9] OP:7 RS1:00000000 RS2:fffffffc => RD:00000000 (esperado)
=== OK  [10] OP:7 RS1:00000000 RS2:a5a5a5a5 => RD:00000000 (esperado)
=== OK  [11] OP:7 RS1:00000000 RS2:5a5a5a5a => RD:00000000 (esperado)
=== OK  [12] OP:7 RS1:00000000 RS2:12345678 => RD:00000000 (esperado)
=== OK  [13] OP:7 RS1:00000000 RS2:87654321 => RD:00000000 (esperado)
=== OK  [14] OP:7 RS1:00000000 RS2:0000000f => RD:00000000 (esperado)
=== OK  [15] OP:7 RS1:00000000 RS2:000000f0 => RD:00000000 (esperado)
=== OK  [16] OP:7 RS1:00000000 RS2:000000ff => RD:00000000 (esperado)
=== OK  [17] OP:7 RS1:00000000 RS2:00000010 => RD:00000000 (esperado)
=== OK  [18] OP:7 RS1:ffffffff RS2:00000000 => RD:ffffffff (esperado)
=== OK  [19] OP:7 RS1:ffffffff RS2:ffffffff => RD:ffffffff (esperado)
=== OK  [20] OP:7 RS1:ffffffff RS2:7fffffff => RD:ffffffff (esperado)
=== OK  [21] OP:7 RS1:ffffffff RS2:80000000 => RD:ffffffff (esperado)
=== OK  [22] OP:7 RS1:ffffffff RS2:00000001 => RD:ffffffff (esperado)
=== OK  [23] OP:7 RS1:ffffffff RS2:fffffffe => RD:ffffffff (esperado)
=== OK  [24] OP:7 RS1:ffffffff RS2:00000002 => RD:ffffffff (esperado)
=== OK  [25] OP:7 RS1:ffffffff RS2:fffffffd => RD:ffffffff (esperado)
=== OK  [26] OP:7 RS1:ffffffff RS2:00000003 => RD:ffffffff (esperado)
=== OK  [27] OP:7 RS1:ffffffff RS2:fffffffc => RD:ffffffff (esperado)
=== OK  [28] OP:7 RS1:ffffffff RS2:a5a5a5a5 => RD:ffffffff (esperado)
=== OK  [29] OP:7 RS1:ffffffff RS2:5a5a5a5a => RD:ffffffff (esperado)
=== OK  [30] OP:7 RS1:ffffffff RS2:12345678 => RD:ffffffff (esperado)
=== OK  [31] OP:7 RS1:ffffffff RS2:87654321 => RD:ffffffff (esperado)
=== OK  [32] OP:7 RS1:ffffffff RS2:0000000f => RD:ffffffff (esperado)
=== OK  [33] OP:7 RS1:ffffffff RS2:000000f0 => RD:ffffffff (esperado)
=== OK  [34] OP:7 RS1:ffffffff RS2:000000ff => RD:ffffffff (esperado)
=== OK  [35] OP:7 RS1:ffffffff RS2:00000010 => RD:ffffffff (esperado)
=== OK  [36] OP:7 RS1:7fffffff RS2:00000000 => RD:7fffffff (esperado)
=== OK  [37] OP:7 RS1:7fffffff RS2:ffffffff => RD:00000000 (esperado)
=== OK  [38] OP:7 RS1:7fffffff RS2:7fffffff => RD:00000000 (esperado)
=== OK  [39] OP:7 RS1:7fffffff RS2:80000000 => RD:7fffffff (esperado)
=== OK  [40] OP:7 RS1:7fffffff RS2:00000001 => RD:3fffffff (esperado)
=== OK  [41] OP:7 RS1:7fffffff RS2:fffffffe => RD:00000001 (esperado)
=== OK  [42] OP:7 RS1:7fffffff RS2:00000002 => RD:1fffffff (esperado)
=== OK  [43] OP:7 RS1:7fffffff RS2:fffffffd => RD:00000003 (esperado)
=== OK  [44] OP:7 RS1:7fffffff RS2:00000003 => RD:0fffffff (esperado)
=== OK  [45] OP:7 RS1:7fffffff RS2:fffffffc => RD:00000007 (esperado)
=== OK  [46] OP:7 RS1:7fffffff RS2:a5a5a5a5 => RD:03ffffff (esperado)
=== OK  [47] OP:7 RS1:7fffffff RS2:5a5a5a5a => RD:0000001f (esperado)
=== OK  [48] OP:7 RS1:7fffffff RS2:12345678 => RD:0000007f (esperado)
=== OK  [49] OP:7 RS1:7fffffff RS2:87654321 => RD:3fffffff (esperado)
=== OK  [50] OP:7 RS1:7fffffff RS2:0000000f => RD:0000ffff (esperado)
=== OK  [51] OP:7 RS1:7fffffff RS2:000000f0 => RD:00007fff (esperado)
=== OK  [52] OP:7 RS1:7fffffff RS2:000000ff => RD:00000000 (esperado)
=== OK  [53] OP:7 RS1:7fffffff RS2:00000010 => RD:00007fff (esperado)
=== OK  [54] OP:7 RS1:80000000 RS2:00000000 => RD:80000000 (esperado)
=== OK  [55] OP:7 RS1:80000000 RS2:ffffffff => RD:ffffffff (esperado)
=== OK  [56] OP:7 RS1:80000000 RS2:7fffffff => RD:ffffffff (esperado)
=== OK  [57] OP:7 RS1:80000000 RS2:80000000 => RD:80000000 (esperado)
=== OK  [58] OP:7 RS1:80000000 RS2:00000001 => RD:c0000000 (esperado)
=== OK  [59] OP:7 RS1:80000000 RS2:fffffffe => RD:fffffffe (esperado)
=== OK  [60] OP:7 RS1:80000000 RS2:00000002 => RD:e0000000 (esperado)
=== OK  [61] OP:7 RS1:80000000 RS2:fffffffd => RD:fffffffc (esperado)
=== OK  [62] OP:7 RS1:80000000 RS2:00000003 => RD:f0000000 (esperado)
=== OK  [63] OP:7 RS1:80000000 RS2:fffffffc => RD:fffffff8 (esperado)
=== OK  [64] OP:7 RS1:80000000 RS2:a5a5a5a5 => RD:fc000000 (esperado)
=== OK  [65] OP:7 RS1:80000000 RS2:5a5a5a5a => RD:ffffffe0 (esperado)
=== OK  [66] OP:7 RS1:80000000 RS2:12345678 => RD:ffffff80 (esperado)
=== OK  [67] OP:7 RS1:80000000 RS2:87654321 => RD:c0000000 (esperado)
=== OK  [68] OP:7 RS1:80000000 RS2:0000000f => RD:ffff0000 (esperado)
=== OK  [69] OP:7 RS1:80000000 RS2:000000f0 => RD:ffff8000 (esperado)
=== OK  [70] OP:7 RS1:80000000 RS2:000000ff => RD:ffffffff (esperado)
=== OK  [71] OP:7 RS1:80000000 RS2:00000010 => RD:ffff8000 (esperado)
=== OK  [72] OP:7 RS1:00000001 RS2:00000000 => RD:00000001 (esperado)
=== OK  [73] OP:7 RS1:00000001 RS2:ffffffff => RD:00000000 (esperado)
=== OK  [74] OP:7 RS1:00000001 RS2:7fffffff => RD:00000000 (esperado)
=== OK  [75] OP:7 RS1:00000001 RS2:80000000 => RD:00000001 (esperado)
=== OK  [76] OP:7 RS1:00000001 RS2:00000001 => RD:00000000 (esperado)
=== OK  [77] OP:7 RS1:00000001 RS2:fffffffe => RD:00000000 (esperado)
=== OK  [78] OP:7 RS1:00000001 RS2:00000002 => RD:00000000 (esperado)
=== OK  [79] OP:7 RS1:00000001 RS2:fffffffd => RD:00000000 (esperado)
=== OK  [80] OP:7 RS1:00000001 RS2:00000003 => RD:00000000 (esperado)
=== OK  [81] OP:7 RS1:00000001 RS2:fffffffc => RD:00000000 (esperado)
=== OK  [82] OP:7 RS1:00000001 RS2:a5a5a5a5 => RD:00000000 (esperado)
=== OK  [83] OP:7 RS1:00000001 RS2:5a5a5a5a => RD:00000000 (esperado)
=== OK  [84] OP:7 RS1:00000001 RS2:12345678 => RD:00000000 (esperado)
=== OK  [85] OP:7 RS1:00000001 RS2:87654321 => RD:00000000 (esperado)
=== OK  [86] OP:7 RS1:00000001 RS2:0000000f => RD:00000000 (esperado)
=== OK  [87] OP:7 RS1:00000001 RS2:000000f0 => RD:00000000 (esperado)
=== OK  [88] OP:7 RS1:00000001 RS2:000000ff => RD:00000000 (esperado)
=== OK  [89] OP:7 RS1:00000001 RS2:00000010 => RD:00000000 (esperado)
=== OK  [90] OP:7 RS1:fffffffe RS2:00000000 => RD:fffffffe (esperado)
=== OK  [91] OP:7 RS1:fffffffe RS2:ffffffff => RD:ffffffff (esperado)
=== OK  [92] OP:7 RS1:fffffffe RS2:7fffffff => RD:ffffffff (esperado)
=== OK  [93] OP:7 RS1:fffffffe RS2:80000000 => RD:fffffffe (esperado)
=== OK  [94] OP:7 RS1:fffffffe RS2:00000001 => RD:ffffffff (esperado)
=== OK  [95] OP:7 RS1:fffffffe RS2:fffffffe => RD:ffffffff (esperado)
=== OK  [96] OP:7 RS1:fffffffe RS2:00000002 => RD:ffffffff (esperado)
=== OK  [97] OP:7 RS1:fffffffe RS2:fffffffd => RD:ffffffff (esperado)
=== OK  [98] OP:7 RS1:fffffffe RS2:00000003 => RD:ffffffff (esperado)
=== OK  [99] OP:7 RS1:fffffffe RS2:fffffffc => RD:ffffffff (esperado)
=== OK  [100] OP:7 RS1:fffffffe RS2:a5a5a5a5 => RD:ffffffff (esperado)
=== OK  [101] OP:7 RS1:fffffffe RS2:5a5a5a5a => RD:ffffffff (esperado)
=== OK  [102] OP:7 RS1:fffffffe RS2:12345678 => RD:ffffffff (esperado)
=== OK  [103] OP:7 RS1:fffffffe RS2:87654321 => RD:ffffffff (esperado)
=== OK  [104] OP:7 RS1:fffffffe RS2:0000000f => RD:ffffffff (esperado)
=== OK  [105] OP:7 RS1:fffffffe RS2:000000f0 => RD:ffffffff (esperado)
=== OK  [106] OP:7 RS1:fffffffe RS2:000000ff => RD:ffffffff (esperado)
=== OK  [107] OP:7 RS1:fffffffe RS2:00000010 => RD:ffffffff (esperado)
=== OK  [108] OP:7 RS1:00000002 RS2:00000000 => RD:00000002 (esperado)
=== OK  [109] OP:7 RS1:00000002 RS2:ffffffff => RD:00000000 (esperado)
=== OK  [110] OP:7 RS1:00000002 RS2:7fffffff => RD:00000000 (esperado)
=== OK  [111] OP:7 RS1:00000002 RS2:80000000 => RD:00000002 (esperado)
=== OK  [112] OP:7 RS1:00000002 RS2:00000001 => RD:00000001 (esperado)
=== OK  [113] OP:7 RS1:00000002 RS2:fffffffe => RD:00000000 (esperado)
=== OK  [114] OP:7 RS1:00000002 RS2:00000002 => RD:00000000 (esperado)
=== OK  [115] OP:7 RS1:00000002 RS2:fffffffd => RD:00000000 (esperado)
=== OK  [116] OP:7 RS1:00000002 RS2:00000003 => RD:00000000 (esperado)
=== OK  [117] OP:7 RS1:00000002 RS2:fffffffc => RD:00000000 (esperado)
=== OK  [118] OP:7 RS1:00000002 RS2:a5a5a5a5 => RD:00000000 (esperado)
=== OK  [119] OP:7 RS1:00000002 RS2:5a5a5a5a => RD:00000000 (esperado)
=== OK  [120] OP:7 RS1:00000002 RS2:12345678 => RD:00000000 (esperado)
=== OK  [121] OP:7 RS1:00000002 RS2:87654321 => RD:00000001 (esperado)
=== OK  [122] OP:7 RS1:00000002 RS2:0000000f => RD:00000000 (esperado)
=== OK  [123] OP:7 RS1:00000002 RS2:000000f0 => RD:00000000 (esperado)
=== OK  [124] OP:7 RS1:00000002 RS2:000000ff => RD:00000000 (esperado)
=== OK  [125] OP:7 RS1:00000002 RS2:00000010 => RD:00000000 (esperado)
=== OK  [126] OP:7 RS1:fffffffd RS2:00000000 => RD:fffffffd (esperado)
=== OK  [127] OP:7 RS1:fffffffd RS2:ffffffff => RD:ffffffff (esperado)
=== OK  [128] OP:7 RS1:fffffffd RS2:7fffffff => RD:ffffffff (esperado)
=== OK  [129] OP:7 RS1:fffffffd RS2:80000000 => RD:fffffffd (esperado)
=== OK  [130] OP:7 RS1:fffffffd RS2:00000001 => RD:fffffffe (esperado)
=== OK  [131] OP:7 RS1:fffffffd RS2:fffffffe => RD:ffffffff (esperado)
=== OK  [132] OP:7 RS1:fffffffd RS2:00000002 => RD:ffffffff (esperado)
=== OK  [133] OP:7 RS1:fffffffd RS2:fffffffd => RD:ffffffff (esperado)
=== OK  [134] OP:7 RS1:fffffffd RS2:00000003 => RD:ffffffff (esperado)
=== OK  [135] OP:7 RS1:fffffffd RS2:fffffffc => RD:ffffffff (esperado)
=== OK  [136] OP:7 RS1:fffffffd RS2:a5a5a5a5 => RD:ffffffff (esperado)
=== OK  [137] OP:7 RS1:fffffffd RS2:5a5a5a5a => RD:ffffffff (esperado)
=== OK  [138] OP:7 RS1:fffffffd RS2:12345678 => RD:ffffffff (esperado)
=== OK  [139] OP:7 RS1:fffffffd RS2:87654321 => RD:fffffffe (esperado)
=== OK  [140] OP:7 RS1:fffffffd RS2:0000000f => RD:ffffffff (esperado)
=== OK  [141] OP:7 RS1:fffffffd RS2:000000f0 => RD:ffffffff (esperado)
=== OK  [142] OP:7 RS1:fffffffd RS2:000000ff => RD:ffffffff (esperado)
=== OK  [143] OP:7 RS1:fffffffd RS2:00000010 => RD:ffffffff (esperado)
=== OK  [144] OP:7 RS1:00000003 RS2:00000000 => RD:00000003 (esperado)
=== OK  [145] OP:7 RS1:00000003 RS2:ffffffff => RD:00000000 (esperado)
=== OK  [146] OP:7 RS1:00000003 RS2:7fffffff => RD:00000000 (esperado)
=== OK  [147] OP:7 RS1:00000003 RS2:80000000 => RD:00000003 (esperado)
=== OK  [148] OP:7 RS1:00000003 RS2:00000001 => RD:00000001 (esperado)
=== OK  [149] OP:7 RS1:00000003 RS2:fffffffe => RD:00000000 (esperado)
=== OK  [150] OP:7 RS1:00000003 RS2:00000002 => RD:00000000 (esperado)
=== OK  [151] OP:7 RS1:00000003 RS2:fffffffd => RD:00000000 (esperado)
=== OK  [152] OP:7 RS1:00000003 RS2:00000003 => RD:00000000 (esperado)
=== OK  [153] OP:7 RS1:00000003 RS2:fffffffc => RD:00000000 (esperado)
=== OK  [154] OP:7 RS1:00000003 RS2:a5a5a5a5 => RD:00000000 (esperado)
=== OK  [155] OP:7 RS1:00000003 RS2:5a5a5a5a => RD:00000000 (esperado)
=== OK  [156] OP:7 RS1:00000003 RS2:12345678 => RD:00000000 (esperado)
=== OK  [157] OP:7 RS1:00000003 RS2:87654321 => RD:00000001 (esperado)
=== OK  [158] OP:7 RS1:00000003 RS2:0000000f => RD:00000000 (esperado)
=== OK  [159] OP:7 RS1:00000003 RS2:000000f0 => RD:00000000 (esperado)
=== OK  [160] OP:7 RS1:00000003 RS2:000000ff => RD:00000000 (esperado)
=== OK  [161] OP:7 RS1:00000003 RS2:00000010 => RD:00000000 (esperado)
=== OK  [162] OP:7 RS1:fffffffc RS2:00000000 => RD:fffffffc (esperado)
=== OK  [163] OP:7 RS1:fffffffc RS2:ffffffff => RD:ffffffff (esperado)
=== OK  [164] OP:7 RS1:fffffffc RS2:7fffffff => RD:ffffffff (esperado)
=== OK  [165] OP:7 RS1:fffffffc RS2:80000000 => RD:fffffffc (esperado)
=== OK  [166] OP:7 RS1:fffffffc RS2:00000001 => RD:fffffffe (esperado)
=== OK  [167] OP:7 RS1:fffffffc RS2:fffffffe => RD:ffffffff (esperado)
=== OK  [168] OP:7 RS1:fffffffc RS2:00000002 => RD:ffffffff (esperado)
=== OK  [169] OP:7 RS1:fffffffc RS2:fffffffd => RD:ffffffff (esperado)
=== OK  [170] OP:7 RS1:fffffffc RS2:00000003 => RD:ffffffff (esperado)
=== OK  [171] OP:7 RS1:fffffffc RS2:fffffffc => RD:ffffffff (esperado)
=== OK  [172] OP:7 RS1:fffffffc RS2:a5a5a5a5 => RD:ffffffff (esperado)
=== OK  [173] OP:7 RS1:fffffffc RS2:5a5a5a5a => RD:ffffffff (esperado)
=== OK  [174] OP:7 RS1:fffffffc RS2:12345678 => RD:ffffffff (esperado)
=== OK  [175] OP:7 RS1:fffffffc RS2:87654321 => RD:fffffffe (esperado)
=== OK  [176] OP:7 RS1:fffffffc RS2:0000000f => RD:ffffffff (esperado)
=== OK  [177] OP:7 RS1:fffffffc RS2:000000f0 => RD:ffffffff (esperado)
=== OK  [178] OP:7 RS1:fffffffc RS2:000000ff => RD:ffffffff (esperado)
=== OK  [179] OP:7 RS1:fffffffc RS2:00000010 => RD:ffffffff (esperado)
=== OK  [180] OP:7 RS1:a5a5a5a5 RS2:00000000 => RD:a5a5a5a5 (esperado)
=== OK  [181] OP:7 RS1:a5a5a5a5 RS2:ffffffff => RD:ffffffff (esperado)
=== OK  [182] OP:7 RS1:a5a5a5a5 RS2:7fffffff => RD:ffffffff (esperado)
=== OK  [183] OP:7 RS1:a5a5a5a5 RS2:80000000 => RD:a5a5a5a5 (esperado)
=== OK  [184] OP:7 RS1:a5a5a5a5 RS2:00000001 => RD:d2d2d2d2 (esperado)
=== OK  [185] OP:7 RS1:a5a5a5a5 RS2:fffffffe => RD:fffffffe (esperado)
=== OK  [186] OP:7 RS1:a5a5a5a5 RS2:00000002 => RD:e9696969 (esperado)
=== OK  [187] OP:7 RS1:a5a5a5a5 RS2:fffffffd => RD:fffffffd (esperado)
=== OK  [188] OP:7 RS1:a5a5a5a5 RS2:00000003 => RD:f4b4b4b4 (esperado)
=== OK  [189] OP:7 RS1:a5a5a5a5 RS2:fffffffc => RD:fffffffa (esperado)
=== OK  [190] OP:7 RS1:a5a5a5a5 RS2:a5a5a5a5 => RD:fd2d2d2d (esperado)
=== OK  [191] OP:7 RS1:a5a5a5a5 RS2:5a5a5a5a => RD:ffffffe9 (esperado)
=== OK  [192] OP:7 RS1:a5a5a5a5 RS2:12345678 => RD:ffffffa5 (esperado)
=== OK  [193] OP:7 RS1:a5a5a5a5 RS2:87654321 => RD:d2d2d2d2 (esperado)
=== OK  [194] OP:7 RS1:a5a5a5a5 RS2:0000000f => RD:ffff4b4b (esperado)
=== OK  [195] OP:7 RS1:a5a5a5a5 RS2:000000f0 => RD:ffffa5a5 (esperado)
=== OK  [196] OP:7 RS1:a5a5a5a5 RS2:000000ff => RD:ffffffff (esperado)
=== OK  [197] OP:7 RS1:a5a5a5a5 RS2:00000010 => RD:ffffa5a5 (esperado)
=== OK  [198] OP:7 RS1:5a5a5a5a RS2:00000000 => RD:5a5a5a5a (esperado)
=== OK  [199] OP:7 RS1:5a5a5a5a RS2:ffffffff => RD:00000000 (esperado)
=== OK  [200] OP:7 RS1:5a5a5a5a RS2:7fffffff => RD:00000000 (esperado)
=== OK  [201] OP:7 RS1:5a5a5a5a RS2:80000000 => RD:5a5a5a5a (esperado)
=== OK  [202] OP:7 RS1:5a5a5a5a RS2:00000001 => RD:2d2d2d2d (esperado)
=== OK  [203] OP:7 RS1:5a5a5a5a RS2:fffffffe => RD:00000001 (esperado)
=== OK  [204] OP:7 RS1:5a5a5a5a RS2:00000002 => RD:16969696 (esperado)
=== OK  [205] OP:7 RS1:5a5a5a5a RS2:fffffffd => RD:00000002 (esperado)
=== OK  [206] OP:7 RS1:5a5a5a5a RS2:00000003 => RD:0b4b4b4b (esperado)
=== OK  [207] OP:7 RS1:5a5a5a5a RS2:fffffffc => RD:00000005 (esperado)
=== OK  [208] OP:7 RS1:5a5a5a5a RS2:a5a5a5a5 => RD:02d2d2d2 (esperado)
=== OK  [209] OP:7 RS1:5a5a5a5a RS2:5a5a5a5a => RD:00000016 (esperado)
=== OK  [210] OP:7 RS1:5a5a5a5a RS2:12345678 => RD:0000005a (esperado)
=== OK  [211] OP:7 RS1:5a5a5a5a RS2:87654321 => RD:2d2d2d2d (esperado)
=== OK  [212] OP:7 RS1:5a5a5a5a RS2:0000000f => RD:0000b4b4 (esperado)
=== OK  [213] OP:7 RS1:5a5a5a5a RS2:000000f0 => RD:00005a5a (esperado)
=== OK  [214] OP:7 RS1:5a5a5a5a RS2:000000ff => RD:00000000 (esperado)
=== OK  [215] OP:7 RS1:5a5a5a5a RS2:00000010 => RD:00005a5a (esperado)
=== OK  [216] OP:7 RS1:12345678 RS2:00000000 => RD:12345678 (esperado)
=== OK  [217] OP:7 RS1:12345678 RS2:ffffffff => RD:00000000 (esperado)
=== OK  [218] OP:7 RS1:12345678 RS2:7fffffff => RD:00000000 (esperado)
=== OK  [219] OP:7 RS1:12345678 RS2:80000000 => RD:12345678 (esperado)
=== OK  [220] OP:7 RS1:12345678 RS2:00000001 => RD:091a2b3c (esperado)
=== OK  [221] OP:7 RS1:12345678 RS2:fffffffe => RD:00000000 (esperado)
=== OK  [222] OP:7 RS1:12345678 RS2:00000002 => RD:048d159e (esperado)
=== OK  [223] OP:7 RS1:12345678 RS2:fffffffd => RD:00000000 (esperado)
=== OK  [224] OP:7 RS1:12345678 RS2:00000003 => RD:02468acf (esperado)
=== OK  [225] OP:7 RS1:12345678 RS2:fffffffc => RD:00000001 (esperado)
=== OK  [226] OP:7 RS1:12345678 RS2:a5a5a5a5 => RD:0091a2b3 (esperado)
=== OK  [227] OP:7 RS1:12345678 RS2:5a5a5a5a => RD:00000004 (esperado)
=== OK  [228] OP:7 RS1:12345678 RS2:12345678 => RD:00000012 (esperado)
=== OK  [229] OP:7 RS1:12345678 RS2:87654321 => RD:091a2b3c (esperado)
=== OK  [230] OP:7 RS1:12345678 RS2:0000000f => RD:00002468 (esperado)
=== OK  [231] OP:7 RS1:12345678 RS2:000000f0 => RD:00001234 (esperado)
=== OK  [232] OP:7 RS1:12345678 RS2:000000ff => RD:00000000 (esperado)
=== OK  [233] OP:7 RS1:12345678 RS2:00000010 => RD:00001234 (esperado)
=== OK  [234] OP:7 RS1:87654321 RS2:00000000 => RD:87654321 (esperado)
=== OK  [235] OP:7 RS1:87654321 RS2:ffffffff => RD:ffffffff (esperado)
=== OK  [236] OP:7 RS1:87654321 RS2:7fffffff => RD:ffffffff (esperado)
=== OK  [237] OP:7 RS1:87654321 RS2:80000000 => RD:87654321 (esperado)
=== OK  [238] OP:7 RS1:87654321 RS2:00000001 => RD:c3b2a190 (esperado)
=== OK  [239] OP:7 RS1:87654321 RS2:fffffffe => RD:fffffffe (esperado)
=== OK  [240] OP:7 RS1:87654321 RS2:00000002 => RD:e1d950c8 (esperado)
=== OK  [241] OP:7 RS1:87654321 RS2:fffffffd => RD:fffffffc (esperado)
=== OK  [242] OP:7 RS1:87654321 RS2:00000003 => RD:f0eca864 (esperado)
=== OK  [243] OP:7 RS1:87654321 RS2:fffffffc => RD:fffffff8 (esperado)
=== OK  [244] OP:7 RS1:87654321 RS2:a5a5a5a5 => RD:fc3b2a19 (esperado)
=== OK  [245] OP:7 RS1:87654321 RS2:5a5a5a5a => RD:ffffffe1 (esperado)
=== OK  [246] OP:7 RS1:87654321 RS2:12345678 => RD:ffffff87 (esperado)
=== OK  [247] OP:7 RS1:87654321 RS2:87654321 => RD:c3b2a190 (esperado)
=== OK  [248] OP:7 RS1:87654321 RS2:0000000f => RD:ffff0eca (esperado)
=== OK  [249] OP:7 RS1:87654321 RS2:000000f0 => RD:ffff8765 (esperado)
=== OK  [250] OP:7 RS1:87654321 RS2:000000ff => RD:ffffffff (esperado)
=== OK  [251] OP:7 RS1:87654321 RS2:00000010 => RD:ffff8765 (esperado)
=== OK  [252] OP:7 RS1:0000000f RS2:00000000 => RD:0000000f (esperado)
=== OK  [253] OP:7 RS1:0000000f RS2:ffffffff => RD:00000000 (esperado)
=== OK  [254] OP:7 RS1:0000000f RS2:7fffffff => RD:00000000 (esperado)
=== OK  [255] OP:7 RS1:0000000f RS2:80000000 => RD:0000000f (esperado)
=== OK  [256] OP:7 RS1:0000000f RS2:00000001 => RD:00000007 (esperado)
=== OK  [257] OP:7 RS1:0000000f RS2:fffffffe => RD:00000000 (esperado)
=== OK  [258] OP:7 RS1:0000000f RS2:00000002 => RD:00000003 (esperado)
=== OK  [259] OP:7 RS1:0000000f RS2:fffffffd => RD:00000000 (esperado)
=== OK  [260] OP:7 RS1:0000000f RS2:00000003 => RD:00000001 (esperado)
=== OK  [261] OP:7 RS1:0000000f RS2:fffffffc => RD:00000000 (esperado)
=== OK  [262] OP:7 RS1:0000000f RS2:a5a5a5a5 => RD:00000000 (esperado)
=== OK  [263] OP:7 RS1:0000000f RS2:5a5a5a5a => RD:00000000 (esperado)
=== OK  [264] OP:7 RS1:0000000f RS2:12345678 => RD:00000000 (esperado)
=== OK  [265] OP:7 RS1:0000000f RS2:87654321 => RD:00000007 (esperado)
=== OK  [266] OP:7 RS1:0000000f RS2:0000000f => RD:00000000 (esperado)
=== OK  [267] OP:7 RS1:0000000f RS2:000000f0 => RD:00000000 (esperado)
=== OK  [268] OP:7 RS1:0000000f RS2:000000ff => RD:00000000 (esperado)
=== OK  [269] OP:7 RS1:0000000f RS2:00000010 => RD:00000000 (esperado)
=== OK  [270] OP:7 RS1:000000f0 RS2:00000000 => RD:000000f0 (esperado)
=== OK  [271] OP:7 RS1:000000f0 RS2:ffffffff => RD:00000000 (esperado)
=== OK  [272] OP:7 RS1:000000f0 RS2:7fffffff => RD:00000000 (esperado)
=== OK  [273] OP:7 RS1:000000f0 RS2:80000000 => RD:000000f0 (esperado)
=== OK  [274] OP:7 RS1:000000f0 RS2:00000001 => RD:00000078 (esperado)
=== OK  [275] OP:7 RS1:000000f0 RS2:fffffffe => RD:00000000 (esperado)
=== OK  [276] OP:7 RS1:000000f0 RS2:00000002 => RD:0000003c (esperado)
=== OK  [277] OP:7 RS1:000000f0 RS2:fffffffd => RD:00000000 (esperado)
=== OK  [278] OP:7 RS1:000000f0 RS2:00000003 => RD:0000001e (esperado)
=== OK  [279] OP:7 RS1:000000f0 RS2:fffffffc => RD:00000000 (esperado)
=== OK  [280] OP:7 RS1:000000f0 RS2:a5a5a5a5 => RD:00000007 (esperado)
=== OK  [281] OP:7 RS1:000000f0 RS2:5a5a5a5a => RD:00000000 (esperado)
=== OK  [282] OP:7 RS1:000000f0 RS2:12345678 => RD:00000000 (esperado)
=== OK  [283] OP:7 RS1:000000f0 RS2:87654321 => RD:00000078 (esperado)
=== OK  [284] OP:7 RS1:000000f0 RS2:0000000f => RD:00000000 (esperado)
=== OK  [285] OP:7 RS1:000000f0 RS2:000000f0 => RD:00000000 (esperado)
=== OK  [286] OP:7 RS1:000000f0 RS2:000000ff => RD:00000000 (esperado)
=== OK  [287] OP:7 RS1:000000f0 RS2:00000010 => RD:00000000 (esperado)
=== OK  [288] OP:7 RS1:000000ff RS2:00000000 => RD:000000ff (esperado)
=== OK  [289] OP:7 RS1:000000ff RS2:ffffffff => RD:00000000 (esperado)
=== OK  [290] OP:7 RS1:000000ff RS2:7fffffff => RD:00000000 (esperado)
=== OK  [291] OP:7 RS1:000000ff RS2:80000000 => RD:000000ff (esperado)
=== OK  [292] OP:7 RS1:000000ff RS2:00000001 => RD:0000007f (esperado)
=== OK  [293] OP:7 RS1:000000ff RS2:fffffffe => RD:00000000 (esperado)
=== OK  [294] OP:7 RS1:000000ff RS2:00000002 => RD:0000003f (esperado)
=== OK  [295] OP:7 RS1:000000ff RS2:fffffffd => RD:00000000 (esperado)
=== OK  [296] OP:7 RS1:000000ff RS2:00000003 => RD:0000001f (esperado)
=== OK  [297] OP:7 RS1:000000ff RS2:fffffffc => RD:00000000 (esperado)
=== OK  [298] OP:7 RS1:000000ff RS2:a5a5a5a5 => RD:00000007 (esperado)
=== OK  [299] OP:7 RS1:000000ff RS2:5a5a5a5a => RD:00000000 (esperado)
=== OK  [300] OP:7 RS1:000000ff RS2:12345678 => RD:00000000 (esperado)
=== OK  [301] OP:7 RS1:000000ff RS2:87654321 => RD:0000007f (esperado)
=== OK  [302] OP:7 RS1:000000ff RS2:0000000f => RD:00000000 (esperado)
=== OK  [303] OP:7 RS1:000000ff RS2:000000f0 => RD:00000000 (esperado)
=== OK  [304] OP:7 RS1:000000ff RS2:000000ff => RD:00000000 (esperado)
=== OK  [305] OP:7 RS1:000000ff RS2:00000010 => RD:00000000 (esperado)
=== OK  [306] OP:7 RS1:00000010 RS2:00000000 => RD:00000010 (esperado)
=== OK  [307] OP:7 RS1:00000010 RS2:ffffffff => RD:00000000 (esperado)
=== OK  [308] OP:7 RS1:00000010 RS2:7fffffff => RD:00000000 (esperado)
=== OK  [309] OP:7 RS1:00000010 RS2:80000000 => RD:00000010 (esperado)
=== OK  [310] OP:7 RS1:00000010 RS2:00000001 => RD:00000008 (esperado)
=== OK  [311] OP:7 RS1:00000010 RS2:fffffffe => RD:00000000 (esperado)
=== OK  [312] OP:7 RS1:00000010 RS2:00000002 => RD:00000004 (esperado)
=== OK  [313] OP:7 RS1:00000010 RS2:fffffffd => RD:00000000 (esperado)
=== OK  [314] OP:7 RS1:00000010 RS2:00000003 => RD:00000002 (esperado)
=== OK  [315] OP:7 RS1:00000010 RS2:fffffffc => RD:00000000 (esperado)
=== OK  [316] OP:7 RS1:00000010 RS2:a5a5a5a5 => RD:00000000 (esperado)
=== OK  [317] OP:7 RS1:00000010 RS2:5a5a5a5a => RD:00000000 (esperado)
=== OK  [318] OP:7 RS1:00000010 RS2:12345678 => RD:00000000 (esperado)
=== OK  [319] OP:7 RS1:00000010 RS2:87654321 => RD:00000008 (esperado)
=== OK  [320] OP:7 RS1:00000010 RS2:0000000f => RD:00000000 (esperado)
=== OK  [321] OP:7 RS1:00000010 RS2:000000f0 => RD:00000000 (esperado)
=== OK  [322] OP:7 RS1:00000010 RS2:000000ff => RD:00000000 (esperado)
=== OK  [323] OP:7 RS1:00000010 RS2:00000010 => RD:00000000 (esperado)
Testbench finalizado com sucesso.
