test/saida1.out
VCD info: dumpfile saida.vcd opened for output.
Iniciando Testbench...
WARNING: tb.v:32: $readmemh(teste.txt): Not enough words in the file for the requested range [0:512].
=== OK  [0] OP:1 RS1:00000000 RS2:00000000 => RD:00000000 (esperado)
=== OK  [1] OP:1 RS1:00000000 RS2:ffffffff => RD:ffffffff (esperado)
=== OK  [2] OP:1 RS1:00000000 RS2:7fffffff => RD:7fffffff (esperado)
=== OK  [3] OP:1 RS1:00000000 RS2:80000000 => RD:80000000 (esperado)
=== OK  [4] OP:1 RS1:00000000 RS2:00000001 => RD:00000001 (esperado)
=== OK  [5] OP:1 RS1:00000000 RS2:fffffffe => RD:fffffffe (esperado)
=== OK  [6] OP:1 RS1:00000000 RS2:00000002 => RD:00000002 (esperado)
=== OK  [7] OP:1 RS1:00000000 RS2:fffffffd => RD:fffffffd (esperado)
=== OK  [8] OP:1 RS1:00000000 RS2:00000003 => RD:00000003 (esperado)
=== OK  [9] OP:1 RS1:00000000 RS2:fffffffc => RD:fffffffc (esperado)
=== OK  [10] OP:1 RS1:00000000 RS2:a5a5a5a5 => RD:a5a5a5a5 (esperado)
=== OK  [11] OP:1 RS1:00000000 RS2:5a5a5a5a => RD:5a5a5a5a (esperado)
=== OK  [12] OP:1 RS1:00000000 RS2:12345678 => RD:12345678 (esperado)
=== OK  [13] OP:1 RS1:00000000 RS2:87654321 => RD:87654321 (esperado)
=== OK  [14] OP:1 RS1:00000000 RS2:0000000f => RD:0000000f (esperado)
=== OK  [15] OP:1 RS1:00000000 RS2:000000f0 => RD:000000f0 (esperado)
=== OK  [16] OP:1 RS1:00000000 RS2:000000ff => RD:000000ff (esperado)
=== OK  [17] OP:1 RS1:00000000 RS2:00000010 => RD:00000010 (esperado)
=== OK  [18] OP:1 RS1:ffffffff RS2:00000000 => RD:ffffffff (esperado)
=== OK  [19] OP:1 RS1:ffffffff RS2:ffffffff => RD:ffffffff (esperado)
=== OK  [20] OP:1 RS1:ffffffff RS2:7fffffff => RD:ffffffff (esperado)
=== OK  [21] OP:1 RS1:ffffffff RS2:80000000 => RD:ffffffff (esperado)
=== OK  [22] OP:1 RS1:ffffffff RS2:00000001 => RD:ffffffff (esperado)
=== OK  [23] OP:1 RS1:ffffffff RS2:fffffffe => RD:ffffffff (esperado)
=== OK  [24] OP:1 RS1:ffffffff RS2:00000002 => RD:ffffffff (esperado)
=== OK  [25] OP:1 RS1:ffffffff RS2:fffffffd => RD:ffffffff (esperado)
=== OK  [26] OP:1 RS1:ffffffff RS2:00000003 => RD:ffffffff (esperado)
=== OK  [27] OP:1 RS1:ffffffff RS2:fffffffc => RD:ffffffff (esperado)
=== OK  [28] OP:1 RS1:ffffffff RS2:a5a5a5a5 => RD:ffffffff (esperado)
=== OK  [29] OP:1 RS1:ffffffff RS2:5a5a5a5a => RD:ffffffff (esperado)
=== OK  [30] OP:1 RS1:ffffffff RS2:12345678 => RD:ffffffff (esperado)
=== OK  [31] OP:1 RS1:ffffffff RS2:87654321 => RD:ffffffff (esperado)
=== OK  [32] OP:1 RS1:ffffffff RS2:0000000f => RD:ffffffff (esperado)
=== OK  [33] OP:1 RS1:ffffffff RS2:000000f0 => RD:ffffffff (esperado)
=== OK  [34] OP:1 RS1:ffffffff RS2:000000ff => RD:ffffffff (esperado)
=== OK  [35] OP:1 RS1:ffffffff RS2:00000010 => RD:ffffffff (esperado)
=== OK  [36] OP:1 RS1:7fffffff RS2:00000000 => RD:7fffffff (esperado)
=== OK  [37] OP:1 RS1:7fffffff RS2:ffffffff => RD:ffffffff (esperado)
=== OK  [38] OP:1 RS1:7fffffff RS2:7fffffff => RD:7fffffff (esperado)
=== OK  [39] OP:1 RS1:7fffffff RS2:80000000 => RD:ffffffff (esperado)
=== OK  [40] OP:1 RS1:7fffffff RS2:00000001 => RD:7fffffff (esperado)
=== OK  [41] OP:1 RS1:7fffffff RS2:fffffffe => RD:ffffffff (esperado)
=== OK  [42] OP:1 RS1:7fffffff RS2:00000002 => RD:7fffffff (esperado)
=== OK  [43] OP:1 RS1:7fffffff RS2:fffffffd => RD:ffffffff (esperado)
=== OK  [44] OP:1 RS1:7fffffff RS2:00000003 => RD:7fffffff (esperado)
=== OK  [45] OP:1 RS1:7fffffff RS2:fffffffc => RD:ffffffff (esperado)
=== OK  [46] OP:1 RS1:7fffffff RS2:a5a5a5a5 => RD:ffffffff (esperado)
=== OK  [47] OP:1 RS1:7fffffff RS2:5a5a5a5a => RD:7fffffff (esperado)
=== OK  [48] OP:1 RS1:7fffffff RS2:12345678 => RD:7fffffff (esperado)
=== OK  [49] OP:1 RS1:7fffffff RS2:87654321 => RD:ffffffff (esperado)
=== OK  [50] OP:1 RS1:7fffffff RS2:0000000f => RD:7fffffff (esperado)
=== OK  [51] OP:1 RS1:7fffffff RS2:000000f0 => RD:7fffffff (esperado)
=== OK  [52] OP:1 RS1:7fffffff RS2:000000ff => RD:7fffffff (esperado)
=== OK  [53] OP:1 RS1:7fffffff RS2:00000010 => RD:7fffffff (esperado)
=== OK  [54] OP:1 RS1:80000000 RS2:00000000 => RD:80000000 (esperado)
=== OK  [55] OP:1 RS1:80000000 RS2:ffffffff => RD:ffffffff (esperado)
=== OK  [56] OP:1 RS1:80000000 RS2:7fffffff => RD:ffffffff (esperado)
=== OK  [57] OP:1 RS1:80000000 RS2:80000000 => RD:80000000 (esperado)
=== OK  [58] OP:1 RS1:80000000 RS2:00000001 => RD:80000001 (esperado)
=== OK  [59] OP:1 RS1:80000000 RS2:fffffffe => RD:fffffffe (esperado)
=== OK  [60] OP:1 RS1:80000000 RS2:00000002 => RD:80000002 (esperado)
=== OK  [61] OP:1 RS1:80000000 RS2:fffffffd => RD:fffffffd (esperado)
=== OK  [62] OP:1 RS1:80000000 RS2:00000003 => RD:80000003 (esperado)
=== OK  [63] OP:1 RS1:80000000 RS2:fffffffc => RD:fffffffc (esperado)
=== OK  [64] OP:1 RS1:80000000 RS2:a5a5a5a5 => RD:a5a5a5a5 (esperado)
=== OK  [65] OP:1 RS1:80000000 RS2:5a5a5a5a => RD:da5a5a5a (esperado)
=== OK  [66] OP:1 RS1:80000000 RS2:12345678 => RD:92345678 (esperado)
=== OK  [67] OP:1 RS1:80000000 RS2:87654321 => RD:87654321 (esperado)
=== OK  [68] OP:1 RS1:80000000 RS2:0000000f => RD:8000000f (esperado)
=== OK  [69] OP:1 RS1:80000000 RS2:000000f0 => RD:800000f0 (esperado)
=== OK  [70] OP:1 RS1:80000000 RS2:000000ff => RD:800000ff (esperado)
=== OK  [71] OP:1 RS1:80000000 RS2:00000010 => RD:80000010 (esperado)
=== OK  [72] OP:1 RS1:00000001 RS2:00000000 => RD:00000001 (esperado)
=== OK  [73] OP:1 RS1:00000001 RS2:ffffffff => RD:ffffffff (esperado)
=== OK  [74] OP:1 RS1:00000001 RS2:7fffffff => RD:7fffffff (esperado)
=== OK  [75] OP:1 RS1:00000001 RS2:80000000 => RD:80000001 (esperado)
=== OK  [76] OP:1 RS1:00000001 RS2:00000001 => RD:00000001 (esperado)
=== OK  [77] OP:1 RS1:00000001 RS2:fffffffe => RD:ffffffff (esperado)
=== OK  [78] OP:1 RS1:00000001 RS2:00000002 => RD:00000003 (esperado)
=== OK  [79] OP:1 RS1:00000001 RS2:fffffffd => RD:fffffffd (esperado)
=== OK  [80] OP:1 RS1:00000001 RS2:00000003 => RD:00000003 (esperado)
=== OK  [81] OP:1 RS1:00000001 RS2:fffffffc => RD:fffffffd (esperado)
=== OK  [82] OP:1 RS1:00000001 RS2:a5a5a5a5 => RD:a5a5a5a5 (esperado)
=== OK  [83] OP:1 RS1:00000001 RS2:5a5a5a5a => RD:5a5a5a5b (esperado)
=== OK  [84] OP:1 RS1:00000001 RS2:12345678 => RD:12345679 (esperado)
=== OK  [85] OP:1 RS1:00000001 RS2:87654321 => RD:87654321 (esperado)
=== OK  [86] OP:1 RS1:00000001 RS2:0000000f => RD:0000000f (esperado)
=== OK  [87] OP:1 RS1:00000001 RS2:000000f0 => RD:000000f1 (esperado)
=== OK  [88] OP:1 RS1:00000001 RS2:000000ff => RD:000000ff (esperado)
=== OK  [89] OP:1 RS1:00000001 RS2:00000010 => RD:00000011 (esperado)
=== OK  [90] OP:1 RS1:fffffffe RS2:00000000 => RD:fffffffe (esperado)
=== OK  [91] OP:1 RS1:fffffffe RS2:ffffffff => RD:ffffffff (esperado)
=== OK  [92] OP:1 RS1:fffffffe RS2:7fffffff => RD:ffffffff (esperado)
=== OK  [93] OP:1 RS1:fffffffe RS2:80000000 => RD:fffffffe (esperado)
=== OK  [94] OP:1 RS1:fffffffe RS2:00000001 => RD:ffffffff (esperado)
=== OK  [95] OP:1 RS1:fffffffe RS2:fffffffe => RD:fffffffe (esperado)
=== OK  [96] OP:1 RS1:fffffffe RS2:00000002 => RD:fffffffe (esperado)
=== OK  [97] OP:1 RS1:fffffffe RS2:fffffffd => RD:ffffffff (esperado)
=== OK  [98] OP:1 RS1:fffffffe RS2:00000003 => RD:ffffffff (esperado)
=== OK  [99] OP:1 RS1:fffffffe RS2:fffffffc => RD:fffffffe (esperado)
=== OK  [100] OP:1 RS1:fffffffe RS2:a5a5a5a5 => RD:ffffffff (esperado)
=== OK  [101] OP:1 RS1:fffffffe RS2:5a5a5a5a => RD:fffffffe (esperado)
=== OK  [102] OP:1 RS1:fffffffe RS2:12345678 => RD:fffffffe (esperado)
=== OK  [103] OP:1 RS1:fffffffe RS2:87654321 => RD:ffffffff (esperado)
=== OK  [104] OP:1 RS1:fffffffe RS2:0000000f => RD:ffffffff (esperado)
=== OK  [105] OP:1 RS1:fffffffe RS2:000000f0 => RD:fffffffe (esperado)
=== OK  [106] OP:1 RS1:fffffffe RS2:000000ff => RD:ffffffff (esperado)
=== OK  [107] OP:1 RS1:fffffffe RS2:00000010 => RD:fffffffe (esperado)
=== OK  [108] OP:1 RS1:00000002 RS2:00000000 => RD:00000002 (esperado)
=== OK  [109] OP:1 RS1:00000002 RS2:ffffffff => RD:ffffffff (esperado)
=== OK  [110] OP:1 RS1:00000002 RS2:7fffffff => RD:7fffffff (esperado)
=== OK  [111] OP:1 RS1:00000002 RS2:80000000 => RD:80000002 (esperado)
=== OK  [112] OP:1 RS1:00000002 RS2:00000001 => RD:00000003 (esperado)
=== OK  [113] OP:1 RS1:00000002 RS2:fffffffe => RD:fffffffe (esperado)
=== OK  [114] OP:1 RS1:00000002 RS2:00000002 => RD:00000002 (esperado)
=== OK  [115] OP:1 RS1:00000002 RS2:fffffffd => RD:ffffffff (esperado)
=== OK  [116] OP:1 RS1:00000002 RS2:00000003 => RD:00000003 (esperado)
=== OK  [117] OP:1 RS1:00000002 RS2:fffffffc => RD:fffffffe (esperado)
=== OK  [118] OP:1 RS1:00000002 RS2:a5a5a5a5 => RD:a5a5a5a7 (esperado)
=== OK  [119] OP:1 RS1:00000002 RS2:5a5a5a5a => RD:5a5a5a5a (esperado)
=== OK  [120] OP:1 RS1:00000002 RS2:12345678 => RD:1234567a (esperado)
=== OK  [121] OP:1 RS1:00000002 RS2:87654321 => RD:87654323 (esperado)
=== OK  [122] OP:1 RS1:00000002 RS2:0000000f => RD:0000000f (esperado)
=== OK  [123] OP:1 RS1:00000002 RS2:000000f0 => RD:000000f2 (esperado)
=== OK  [124] OP:1 RS1:00000002 RS2:000000ff => RD:000000ff (esperado)
=== OK  [125] OP:1 RS1:00000002 RS2:00000010 => RD:00000012 (esperado)
=== OK  [126] OP:1 RS1:fffffffd RS2:00000000 => RD:fffffffd (esperado)
=== OK  [127] OP:1 RS1:fffffffd RS2:ffffffff => RD:ffffffff (esperado)
=== OK  [128] OP:1 RS1:fffffffd RS2:7fffffff => RD:ffffffff (esperado)
=== OK  [129] OP:1 RS1:fffffffd RS2:80000000 => RD:fffffffd (esperado)
=== OK  [130] OP:1 RS1:fffffffd RS2:00000001 => RD:fffffffd (esperado)
=== OK  [131] OP:1 RS1:fffffffd RS2:fffffffe => RD:ffffffff (esperado)
=== OK  [132] OP:1 RS1:fffffffd RS2:00000002 => RD:ffffffff (esperado)
=== OK  [133] OP:1 RS1:fffffffd RS2:fffffffd => RD:fffffffd (esperado)
=== OK  [134] OP:1 RS1:fffffffd RS2:00000003 => RD:ffffffff (esperado)
=== OK  [135] OP:1 RS1:fffffffd RS2:fffffffc => RD:fffffffd (esperado)
=== OK  [136] OP:1 RS1:fffffffd RS2:a5a5a5a5 => RD:fffffffd (esperado)
=== OK  [137] OP:1 RS1:fffffffd RS2:5a5a5a5a => RD:ffffffff (esperado)
=== OK  [138] OP:1 RS1:fffffffd RS2:12345678 => RD:fffffffd (esperado)
=== OK  [139] OP:1 RS1:fffffffd RS2:87654321 => RD:fffffffd (esperado)
=== OK  [140] OP:1 RS1:fffffffd RS2:0000000f => RD:ffffffff (esperado)
=== OK  [141] OP:1 RS1:fffffffd RS2:000000f0 => RD:fffffffd (esperado)
=== OK  [142] OP:1 RS1:fffffffd RS2:000000ff => RD:ffffffff (esperado)
=== OK  [143] OP:1 RS1:fffffffd RS2:00000010 => RD:fffffffd (esperado)
=== OK  [144] OP:1 RS1:00000003 RS2:00000000 => RD:00000003 (esperado)
=== OK  [145] OP:1 RS1:00000003 RS2:ffffffff => RD:ffffffff (esperado)
=== OK  [146] OP:1 RS1:00000003 RS2:7fffffff => RD:7fffffff (esperado)
=== OK  [147] OP:1 RS1:00000003 RS2:80000000 => RD:80000003 (esperado)
=== OK  [148] OP:1 RS1:00000003 RS2:00000001 => RD:00000003 (esperado)
=== OK  [149] OP:1 RS1:00000003 RS2:fffffffe => RD:ffffffff (esperado)
=== OK  [150] OP:1 RS1:00000003 RS2:00000002 => RD:00000003 (esperado)
=== OK  [151] OP:1 RS1:00000003 RS2:fffffffd => RD:ffffffff (esperado)
=== OK  [152] OP:1 RS1:00000003 RS2:00000003 => RD:00000003 (esperado)
=== OK  [153] OP:1 RS1:00000003 RS2:fffffffc => RD:ffffffff (esperado)
=== OK  [154] OP:1 RS1:00000003 RS2:a5a5a5a5 => RD:a5a5a5a7 (esperado)
=== OK  [155] OP:1 RS1:00000003 RS2:5a5a5a5a => RD:5a5a5a5b (esperado)
=== OK  [156] OP:1 RS1:00000003 RS2:12345678 => RD:1234567b (esperado)
=== OK  [157] OP:1 RS1:00000003 RS2:87654321 => RD:87654323 (esperado)
=== OK  [158] OP:1 RS1:00000003 RS2:0000000f => RD:0000000f (esperado)
=== OK  [159] OP:1 RS1:00000003 RS2:000000f0 => RD:000000f3 (esperado)
=== OK  [160] OP:1 RS1:00000003 RS2:000000ff => RD:000000ff (esperado)
=== OK  [161] OP:1 RS1:00000003 RS2:00000010 => RD:00000013 (esperado)
=== OK  [162] OP:1 RS1:fffffffc RS2:00000000 => RD:fffffffc (esperado)
=== OK  [163] OP:1 RS1:fffffffc RS2:ffffffff => RD:ffffffff (esperado)
=== OK  [164] OP:1 RS1:fffffffc RS2:7fffffff => RD:ffffffff (esperado)
=== OK  [165] OP:1 RS1:fffffffc RS2:80000000 => RD:fffffffc (esperado)
=== OK  [166] OP:1 RS1:fffffffc RS2:00000001 => RD:fffffffd (esperado)
=== OK  [167] OP:1 RS1:fffffffc RS2:fffffffe => RD:fffffffe (esperado)
=== OK  [168] OP:1 RS1:fffffffc RS2:00000002 => RD:fffffffe (esperado)
=== OK  [169] OP:1 RS1:fffffffc RS2:fffffffd => RD:fffffffd (esperado)
=== OK  [170] OP:1 RS1:fffffffc RS2:00000003 => RD:ffffffff (esperado)
=== OK  [171] OP:1 RS1:fffffffc RS2:fffffffc => RD:fffffffc (esperado)
=== OK  [172] OP:1 RS1:fffffffc RS2:a5a5a5a5 => RD:fffffffd (esperado)
=== OK  [173] OP:1 RS1:fffffffc RS2:5a5a5a5a => RD:fffffffe (esperado)
=== OK  [174] OP:1 RS1:fffffffc RS2:12345678 => RD:fffffffc (esperado)
=== OK  [175] OP:1 RS1:fffffffc RS2:87654321 => RD:fffffffd (esperado)
=== OK  [176] OP:1 RS1:fffffffc RS2:0000000f => RD:ffffffff (esperado)
=== OK  [177] OP:1 RS1:fffffffc RS2:000000f0 => RD:fffffffc (esperado)
=== OK  [178] OP:1 RS1:fffffffc RS2:000000ff => RD:ffffffff (esperado)
=== OK  [179] OP:1 RS1:fffffffc RS2:00000010 => RD:fffffffc (esperado)
=== OK  [180] OP:1 RS1:a5a5a5a5 RS2:00000000 => RD:a5a5a5a5 (esperado)
=== OK  [181] OP:1 RS1:a5a5a5a5 RS2:ffffffff => RD:ffffffff (esperado)
=== OK  [182] OP:1 RS1:a5a5a5a5 RS2:7fffffff => RD:ffffffff (esperado)
=== OK  [183] OP:1 RS1:a5a5a5a5 RS2:80000000 => RD:a5a5a5a5 (esperado)
=== OK  [184] OP:1 RS1:a5a5a5a5 RS2:00000001 => RD:a5a5a5a5 (esperado)
=== OK  [185] OP:1 RS1:a5a5a5a5 RS2:fffffffe => RD:ffffffff (esperado)
=== OK  [186] OP:1 RS1:a5a5a5a5 RS2:00000002 => RD:a5a5a5a7 (esperado)
=== OK  [187] OP:1 RS1:a5a5a5a5 RS2:fffffffd => RD:fffffffd (esperado)
=== OK  [188] OP:1 RS1:a5a5a5a5 RS2:00000003 => RD:a5a5a5a7 (esperado)
=== OK  [189] OP:1 RS1:a5a5a5a5 RS2:fffffffc => RD:fffffffd (esperado)
=== OK  [190] OP:1 RS1:a5a5a5a5 RS2:a5a5a5a5 => RD:a5a5a5a5 (esperado)
=== OK  [191] OP:1 RS1:a5a5a5a5 RS2:5a5a5a5a => RD:ffffffff (esperado)
=== OK  [192] OP:1 RS1:a5a5a5a5 RS2:12345678 => RD:b7b5f7fd (esperado)
=== OK  [193] OP:1 RS1:a5a5a5a5 RS2:87654321 => RD:a7e5e7a5 (esperado)
=== OK  [194] OP:1 RS1:a5a5a5a5 RS2:0000000f => RD:a5a5a5af (esperado)
=== OK  [195] OP:1 RS1:a5a5a5a5 RS2:000000f0 => RD:a5a5a5f5 (esperado)
=== OK  [196] OP:1 RS1:a5a5a5a5 RS2:000000ff => RD:a5a5a5ff (esperado)
=== OK  [197] OP:1 RS1:a5a5a5a5 RS2:00000010 => RD:a5a5a5b5 (esperado)
=== OK  [198] OP:1 RS1:5a5a5a5a RS2:00000000 => RD:5a5a5a5a (esperado)
=== OK  [199] OP:1 RS1:5a5a5a5a RS2:ffffffff => RD:ffffffff (esperado)
=== OK  [200] OP:1 RS1:5a5a5a5a RS2:7fffffff => RD:7fffffff (esperado)
=== OK  [201] OP:1 RS1:5a5a5a5a RS2:80000000 => RD:da5a5a5a (esperado)
=== OK  [202] OP:1 RS1:5a5a5a5a RS2:00000001 => RD:5a5a5a5b (esperado)
=== OK  [203] OP:1 RS1:5a5a5a5a RS2:fffffffe => RD:fffffffe (esperado)
=== OK  [204] OP:1 RS1:5a5a5a5a RS2:00000002 => RD:5a5a5a5a (esperado)
=== OK  [205] OP:1 RS1:5a5a5a5a RS2:fffffffd => RD:ffffffff (esperado)
=== OK  [206] OP:1 RS1:5a5a5a5a RS2:00000003 => RD:5a5a5a5b (esperado)
=== OK  [207] OP:1 RS1:5a5a5a5a RS2:fffffffc => RD:fffffffe (esperado)
=== OK  [208] OP:1 RS1:5a5a5a5a RS2:a5a5a5a5 => RD:ffffffff (esperado)
=== OK  [209] OP:1 RS1:5a5a5a5a RS2:5a5a5a5a => RD:5a5a5a5a (esperado)
=== OK  [210] OP:1 RS1:5a5a5a5a RS2:12345678 => RD:5a7e5e7a (esperado)
=== OK  [211] OP:1 RS1:5a5a5a5a RS2:87654321 => RD:df7f5b7b (esperado)
=== OK  [212] OP:1 RS1:5a5a5a5a RS2:0000000f => RD:5a5a5a5f (esperado)
=== OK  [213] OP:1 RS1:5a5a5a5a RS2:000000f0 => RD:5a5a5afa (esperado)
=== OK  [214] OP:1 RS1:5a5a5a5a RS2:000000ff => RD:5a5a5aff (esperado)
=== OK  [215] OP:1 RS1:5a5a5a5a RS2:00000010 => RD:5a5a5a5a (esperado)
=== OK  [216] OP:1 RS1:12345678 RS2:00000000 => RD:12345678 (esperado)
=== OK  [217] OP:1 RS1:12345678 RS2:ffffffff => RD:ffffffff (esperado)
=== OK  [218] OP:1 RS1:12345678 RS2:7fffffff => RD:7fffffff (esperado)
=== OK  [219] OP:1 RS1:12345678 RS2:80000000 => RD:92345678 (esperado)
=== OK  [220] OP:1 RS1:12345678 RS2:00000001 => RD:12345679 (esperado)
=== OK  [221] OP:1 RS1:12345678 RS2:fffffffe => RD:fffffffe (esperado)
=== OK  [222] OP:1 RS1:12345678 RS2:00000002 => RD:1234567a (esperado)
=== OK  [223] OP:1 RS1:12345678 RS2:fffffffd => RD:fffffffd (esperado)
=== OK  [224] OP:1 RS1:12345678 RS2:00000003 => RD:1234567b (esperado)
=== OK  [225] OP:1 RS1:12345678 RS2:fffffffc => RD:fffffffc (esperado)
=== OK  [226] OP:1 RS1:12345678 RS2:a5a5a5a5 => RD:b7b5f7fd (esperado)
=== OK  [227] OP:1 RS1:12345678 RS2:5a5a5a5a => RD:5a7e5e7a (esperado)
=== OK  [228] OP:1 RS1:12345678 RS2:12345678 => RD:12345678 (esperado)
=== OK  [229] OP:1 RS1:12345678 RS2:87654321 => RD:97755779 (esperado)
=== OK  [230] OP:1 RS1:12345678 RS2:0000000f => RD:1234567f (esperado)
=== OK  [231] OP:1 RS1:12345678 RS2:000000f0 => RD:123456f8 (esperado)
=== OK  [232] OP:1 RS1:12345678 RS2:000000ff => RD:123456ff (esperado)
=== OK  [233] OP:1 RS1:12345678 RS2:00000010 => RD:12345678 (esperado)
=== OK  [234] OP:1 RS1:87654321 RS2:00000000 => RD:87654321 (esperado)
=== OK  [235] OP:1 RS1:87654321 RS2:ffffffff => RD:ffffffff (esperado)
=== OK  [236] OP:1 RS1:87654321 RS2:7fffffff => RD:ffffffff (esperado)
=== OK  [237] OP:1 RS1:87654321 RS2:80000000 => RD:87654321 (esperado)
=== OK  [238] OP:1 RS1:87654321 RS2:00000001 => RD:87654321 (esperado)
=== OK  [239] OP:1 RS1:87654321 RS2:fffffffe => RD:ffffffff (esperado)
=== OK  [240] OP:1 RS1:87654321 RS2:00000002 => RD:87654323 (esperado)
=== OK  [241] OP:1 RS1:87654321 RS2:fffffffd => RD:fffffffd (esperado)
=== OK  [242] OP:1 RS1:87654321 RS2:00000003 => RD:87654323 (esperado)
=== OK  [243] OP:1 RS1:87654321 RS2:fffffffc => RD:fffffffd (esperado)
=== OK  [244] OP:1 RS1:87654321 RS2:a5a5a5a5 => RD:a7e5e7a5 (esperado)
=== OK  [245] OP:1 RS1:87654321 RS2:5a5a5a5a => RD:df7f5b7b (esperado)
=== OK  [246] OP:1 RS1:87654321 RS2:12345678 => RD:97755779 (esperado)
=== OK  [247] OP:1 RS1:87654321 RS2:87654321 => RD:87654321 (esperado)
=== OK  [248] OP:1 RS1:87654321 RS2:0000000f => RD:8765432f (esperado)
=== OK  [249] OP:1 RS1:87654321 RS2:000000f0 => RD:876543f1 (esperado)
=== OK  [250] OP:1 RS1:87654321 RS2:000000ff => RD:876543ff (esperado)
=== OK  [251] OP:1 RS1:87654321 RS2:00000010 => RD:87654331 (esperado)
=== OK  [252] OP:1 RS1:0000000f RS2:00000000 => RD:0000000f (esperado)
=== OK  [253] OP:1 RS1:0000000f RS2:ffffffff => RD:ffffffff (esperado)
=== OK  [254] OP:1 RS1:0000000f RS2:7fffffff => RD:7fffffff (esperado)
=== OK  [255] OP:1 RS1:0000000f RS2:80000000 => RD:8000000f (esperado)
=== OK  [256] OP:1 RS1:0000000f RS2:00000001 => RD:0000000f (esperado)
=== OK  [257] OP:1 RS1:0000000f RS2:fffffffe => RD:ffffffff (esperado)
=== OK  [258] OP:1 RS1:0000000f RS2:00000002 => RD:0000000f (esperado)
=== OK  [259] OP:1 RS1:0000000f RS2:fffffffd => RD:ffffffff (esperado)
=== OK  [260] OP:1 RS1:0000000f RS2:00000003 => RD:0000000f (esperado)
=== OK  [261] OP:1 RS1:0000000f RS2:fffffffc => RD:ffffffff (esperado)
=== OK  [262] OP:1 RS1:0000000f RS2:a5a5a5a5 => RD:a5a5a5af (esperado)
=== OK  [263] OP:1 RS1:0000000f RS2:5a5a5a5a => RD:5a5a5a5f (esperado)
=== OK  [264] OP:1 RS1:0000000f RS2:12345678 => RD:1234567f (esperado)
=== OK  [265] OP:1 RS1:0000000f RS2:87654321 => RD:8765432f (esperado)
=== OK  [266] OP:1 RS1:0000000f RS2:0000000f => RD:0000000f (esperado)
=== OK  [267] OP:1 RS1:0000000f RS2:000000f0 => RD:000000ff (esperado)
=== OK  [268] OP:1 RS1:0000000f RS2:000000ff => RD:000000ff (esperado)
=== OK  [269] OP:1 RS1:0000000f RS2:00000010 => RD:0000001f (esperado)
=== OK  [270] OP:1 RS1:000000f0 RS2:00000000 => RD:000000f0 (esperado)
=== OK  [271] OP:1 RS1:000000f0 RS2:ffffffff => RD:ffffffff (esperado)
=== OK  [272] OP:1 RS1:000000f0 RS2:7fffffff => RD:7fffffff (esperado)
=== OK  [273] OP:1 RS1:000000f0 RS2:80000000 => RD:800000f0 (esperado)
=== OK  [274] OP:1 RS1:000000f0 RS2:00000001 => RD:000000f1 (esperado)
=== OK  [275] OP:1 RS1:000000f0 RS2:fffffffe => RD:fffffffe (esperado)
=== OK  [276] OP:1 RS1:000000f0 RS2:00000002 => RD:000000f2 (esperado)
=== OK  [277] OP:1 RS1:000000f0 RS2:fffffffd => RD:fffffffd (esperado)
=== OK  [278] OP:1 RS1:000000f0 RS2:00000003 => RD:000000f3 (esperado)
=== OK  [279] OP:1 RS1:000000f0 RS2:fffffffc => RD:fffffffc (esperado)
=== OK  [280] OP:1 RS1:000000f0 RS2:a5a5a5a5 => RD:a5a5a5f5 (esperado)
=== OK  [281] OP:1 RS1:000000f0 RS2:5a5a5a5a => RD:5a5a5afa (esperado)
=== OK  [282] OP:1 RS1:000000f0 RS2:12345678 => RD:123456f8 (esperado)
=== OK  [283] OP:1 RS1:000000f0 RS2:87654321 => RD:876543f1 (esperado)
=== OK  [284] OP:1 RS1:000000f0 RS2:0000000f => RD:000000ff (esperado)
=== OK  [285] OP:1 RS1:000000f0 RS2:000000f0 => RD:000000f0 (esperado)
=== OK  [286] OP:1 RS1:000000f0 RS2:000000ff => RD:000000ff (esperado)
=== OK  [287] OP:1 RS1:000000f0 RS2:00000010 => RD:000000f0 (esperado)
=== OK  [288] OP:1 RS1:000000ff RS2:00000000 => RD:000000ff (esperado)
=== OK  [289] OP:1 RS1:000000ff RS2:ffffffff => RD:ffffffff (esperado)
=== OK  [290] OP:1 RS1:000000ff RS2:7fffffff => RD:7fffffff (esperado)
=== OK  [291] OP:1 RS1:000000ff RS2:80000000 => RD:800000ff (esperado)
=== OK  [292] OP:1 RS1:000000ff RS2:00000001 => RD:000000ff (esperado)
=== OK  [293] OP:1 RS1:000000ff RS2:fffffffe => RD:ffffffff (esperado)
=== OK  [294] OP:1 RS1:000000ff RS2:00000002 => RD:000000ff (esperado)
=== OK  [295] OP:1 RS1:000000ff RS2:fffffffd => RD:ffffffff (esperado)
=== OK  [296] OP:1 RS1:000000ff RS2:00000003 => RD:000000ff (esperado)
=== OK  [297] OP:1 RS1:000000ff RS2:fffffffc => RD:ffffffff (esperado)
=== OK  [298] OP:1 RS1:000000ff RS2:a5a5a5a5 => RD:a5a5a5ff (esperado)
=== OK  [299] OP:1 RS1:000000ff RS2:5a5a5a5a => RD:5a5a5aff (esperado)
=== OK  [300] OP:1 RS1:000000ff RS2:12345678 => RD:123456ff (esperado)
=== OK  [301] OP:1 RS1:000000ff RS2:87654321 => RD:876543ff (esperado)
=== OK  [302] OP:1 RS1:000000ff RS2:0000000f => RD:000000ff (esperado)
=== OK  [303] OP:1 RS1:000000ff RS2:000000f0 => RD:000000ff (esperado)
=== OK  [304] OP:1 RS1:000000ff RS2:000000ff => RD:000000ff (esperado)
=== OK  [305] OP:1 RS1:000000ff RS2:00000010 => RD:000000ff (esperado)
=== OK  [306] OP:1 RS1:00000010 RS2:00000000 => RD:00000010 (esperado)
=== OK  [307] OP:1 RS1:00000010 RS2:ffffffff => RD:ffffffff (esperado)
=== OK  [308] OP:1 RS1:00000010 RS2:7fffffff => RD:7fffffff (esperado)
=== OK  [309] OP:1 RS1:00000010 RS2:80000000 => RD:80000010 (esperado)
=== OK  [310] OP:1 RS1:00000010 RS2:00000001 => RD:00000011 (esperado)
=== OK  [311] OP:1 RS1:00000010 RS2:fffffffe => RD:fffffffe (esperado)
=== OK  [312] OP:1 RS1:00000010 RS2:00000002 => RD:00000012 (esperado)
=== OK  [313] OP:1 RS1:00000010 RS2:fffffffd => RD:fffffffd (esperado)
=== OK  [314] OP:1 RS1:00000010 RS2:00000003 => RD:00000013 (esperado)
=== OK  [315] OP:1 RS1:00000010 RS2:fffffffc => RD:fffffffc (esperado)
=== OK  [316] OP:1 RS1:00000010 RS2:a5a5a5a5 => RD:a5a5a5b5 (esperado)
=== OK  [317] OP:1 RS1:00000010 RS2:5a5a5a5a => RD:5a5a5a5a (esperado)
=== OK  [318] OP:1 RS1:00000010 RS2:12345678 => RD:12345678 (esperado)
=== OK  [319] OP:1 RS1:00000010 RS2:87654321 => RD:87654331 (esperado)
=== OK  [320] OP:1 RS1:00000010 RS2:0000000f => RD:0000001f (esperado)
=== OK  [321] OP:1 RS1:00000010 RS2:000000f0 => RD:000000f0 (esperado)
=== OK  [322] OP:1 RS1:00000010 RS2:000000ff => RD:000000ff (esperado)
=== OK  [323] OP:1 RS1:00000010 RS2:00000010 => RD:00000010 (esperado)
Testbench finalizado com sucesso.
