test/saida12.out
VCD info: dumpfile saida.vcd opened for output.
Iniciando Testbench...
WARNING: tb.v:32: $readmemh(teste.txt): Not enough words in the file for the requested range [0:512].
=== OK  [0] OP:c RS1:00000000 RS2:00000000 => RD:00000001 (esperado)
=== OK  [1] OP:c RS1:00000000 RS2:ffffffff => RD:00000000 (esperado)
=== OK  [2] OP:c RS1:00000000 RS2:7fffffff => RD:00000000 (esperado)
=== OK  [3] OP:c RS1:00000000 RS2:80000000 => RD:00000000 (esperado)
=== OK  [4] OP:c RS1:00000000 RS2:00000001 => RD:00000000 (esperado)
=== OK  [5] OP:c RS1:00000000 RS2:fffffffe => RD:00000000 (esperado)
=== OK  [6] OP:c RS1:00000000 RS2:00000002 => RD:00000000 (esperado)
=== OK  [7] OP:c RS1:00000000 RS2:fffffffd => RD:00000000 (esperado)
=== OK  [8] OP:c RS1:00000000 RS2:00000003 => RD:00000000 (esperado)
=== OK  [9] OP:c RS1:00000000 RS2:fffffffc => RD:00000000 (esperado)
=== OK  [10] OP:c RS1:00000000 RS2:a5a5a5a5 => RD:00000000 (esperado)
=== OK  [11] OP:c RS1:00000000 RS2:5a5a5a5a => RD:00000000 (esperado)
=== OK  [12] OP:c RS1:00000000 RS2:12345678 => RD:00000000 (esperado)
=== OK  [13] OP:c RS1:00000000 RS2:87654321 => RD:00000000 (esperado)
=== OK  [14] OP:c RS1:00000000 RS2:0000000f => RD:00000000 (esperado)
=== OK  [15] OP:c RS1:00000000 RS2:000000f0 => RD:00000000 (esperado)
=== OK  [16] OP:c RS1:00000000 RS2:000000ff => RD:00000000 (esperado)
=== OK  [17] OP:c RS1:00000000 RS2:00000010 => RD:00000000 (esperado)
=== OK  [18] OP:c RS1:ffffffff RS2:00000000 => RD:00000001 (esperado)
=== OK  [19] OP:c RS1:ffffffff RS2:ffffffff => RD:00000001 (esperado)
=== OK  [20] OP:c RS1:ffffffff RS2:7fffffff => RD:00000001 (esperado)
=== OK  [21] OP:c RS1:ffffffff RS2:80000000 => RD:00000001 (esperado)
=== OK  [22] OP:c RS1:ffffffff RS2:00000001 => RD:00000001 (esperado)
=== OK  [23] OP:c RS1:ffffffff RS2:fffffffe => RD:00000001 (esperado)
=== OK  [24] OP:c RS1:ffffffff RS2:00000002 => RD:00000001 (esperado)
=== OK  [25] OP:c RS1:ffffffff RS2:fffffffd => RD:00000001 (esperado)
=== OK  [26] OP:c RS1:ffffffff RS2:00000003 => RD:00000001 (esperado)
=== OK  [27] OP:c RS1:ffffffff RS2:fffffffc => RD:00000001 (esperado)
=== OK  [28] OP:c RS1:ffffffff RS2:a5a5a5a5 => RD:00000001 (esperado)
=== OK  [29] OP:c RS1:ffffffff RS2:5a5a5a5a => RD:00000001 (esperado)
=== OK  [30] OP:c RS1:ffffffff RS2:12345678 => RD:00000001 (esperado)
=== OK  [31] OP:c RS1:ffffffff RS2:87654321 => RD:00000001 (esperado)
=== OK  [32] OP:c RS1:ffffffff RS2:0000000f => RD:00000001 (esperado)
=== OK  [33] OP:c RS1:ffffffff RS2:000000f0 => RD:00000001 (esperado)
=== OK  [34] OP:c RS1:ffffffff RS2:000000ff => RD:00000001 (esperado)
=== OK  [35] OP:c RS1:ffffffff RS2:00000010 => RD:00000001 (esperado)
=== OK  [36] OP:c RS1:7fffffff RS2:00000000 => RD:00000001 (esperado)
=== OK  [37] OP:c RS1:7fffffff RS2:ffffffff => RD:00000000 (esperado)
=== OK  [38] OP:c RS1:7fffffff RS2:7fffffff => RD:00000001 (esperado)
=== OK  [39] OP:c RS1:7fffffff RS2:80000000 => RD:00000000 (esperado)
=== OK  [40] OP:c RS1:7fffffff RS2:00000001 => RD:00000001 (esperado)
=== OK  [41] OP:c RS1:7fffffff RS2:fffffffe => RD:00000000 (esperado)
=== OK  [42] OP:c RS1:7fffffff RS2:00000002 => RD:00000001 (esperado)
=== OK  [43] OP:c RS1:7fffffff RS2:fffffffd => RD:00000000 (esperado)
=== OK  [44] OP:c RS1:7fffffff RS2:00000003 => RD:00000001 (esperado)
=== OK  [45] OP:c RS1:7fffffff RS2:fffffffc => RD:00000000 (esperado)
=== OK  [46] OP:c RS1:7fffffff RS2:a5a5a5a5 => RD:00000000 (esperado)
=== OK  [47] OP:c RS1:7fffffff RS2:5a5a5a5a => RD:00000001 (esperado)
=== OK  [48] OP:c RS1:7fffffff RS2:12345678 => RD:00000001 (esperado)
=== OK  [49] OP:c RS1:7fffffff RS2:87654321 => RD:00000000 (esperado)
=== OK  [50] OP:c RS1:7fffffff RS2:0000000f => RD:00000001 (esperado)
=== OK  [51] OP:c RS1:7fffffff RS2:000000f0 => RD:00000001 (esperado)
=== OK  [52] OP:c RS1:7fffffff RS2:000000ff => RD:00000001 (esperado)
=== OK  [53] OP:c RS1:7fffffff RS2:00000010 => RD:00000001 (esperado)
=== OK  [54] OP:c RS1:80000000 RS2:00000000 => RD:00000001 (esperado)
=== OK  [55] OP:c RS1:80000000 RS2:ffffffff => RD:00000000 (esperado)
=== OK  [56] OP:c RS1:80000000 RS2:7fffffff => RD:00000001 (esperado)
=== OK  [57] OP:c RS1:80000000 RS2:80000000 => RD:00000001 (esperado)
=== OK  [58] OP:c RS1:80000000 RS2:00000001 => RD:00000001 (esperado)
=== OK  [59] OP:c RS1:80000000 RS2:fffffffe => RD:00000000 (esperado)
=== OK  [60] OP:c RS1:80000000 RS2:00000002 => RD:00000001 (esperado)
=== OK  [61] OP:c RS1:80000000 RS2:fffffffd => RD:00000000 (esperado)
=== OK  [62] OP:c RS1:80000000 RS2:00000003 => RD:00000001 (esperado)
=== OK  [63] OP:c RS1:80000000 RS2:fffffffc => RD:00000000 (esperado)
=== OK  [64] OP:c RS1:80000000 RS2:a5a5a5a5 => RD:00000000 (esperado)
=== OK  [65] OP:c RS1:80000000 RS2:5a5a5a5a => RD:00000001 (esperado)
=== OK  [66] OP:c RS1:80000000 RS2:12345678 => RD:00000001 (esperado)
=== OK  [67] OP:c RS1:80000000 RS2:87654321 => RD:00000000 (esperado)
=== OK  [68] OP:c RS1:80000000 RS2:0000000f => RD:00000001 (esperado)
=== OK  [69] OP:c RS1:80000000 RS2:000000f0 => RD:00000001 (esperado)
=== OK  [70] OP:c RS1:80000000 RS2:000000ff => RD:00000001 (esperado)
=== OK  [71] OP:c RS1:80000000 RS2:00000010 => RD:00000001 (esperado)
=== OK  [72] OP:c RS1:00000001 RS2:00000000 => RD:00000001 (esperado)
=== OK  [73] OP:c RS1:00000001 RS2:ffffffff => RD:00000000 (esperado)
=== OK  [74] OP:c RS1:00000001 RS2:7fffffff => RD:00000000 (esperado)
=== OK  [75] OP:c RS1:00000001 RS2:80000000 => RD:00000000 (esperado)
=== OK  [76] OP:c RS1:00000001 RS2:00000001 => RD:00000001 (esperado)
=== OK  [77] OP:c RS1:00000001 RS2:fffffffe => RD:00000000 (esperado)
=== OK  [78] OP:c RS1:00000001 RS2:00000002 => RD:00000000 (esperado)
=== OK  [79] OP:c RS1:00000001 RS2:fffffffd => RD:00000000 (esperado)
=== OK  [80] OP:c RS1:00000001 RS2:00000003 => RD:00000000 (esperado)
=== OK  [81] OP:c RS1:00000001 RS2:fffffffc => RD:00000000 (esperado)
=== OK  [82] OP:c RS1:00000001 RS2:a5a5a5a5 => RD:00000000 (esperado)
=== OK  [83] OP:c RS1:00000001 RS2:5a5a5a5a => RD:00000000 (esperado)
=== OK  [84] OP:c RS1:00000001 RS2:12345678 => RD:00000000 (esperado)
=== OK  [85] OP:c RS1:00000001 RS2:87654321 => RD:00000000 (esperado)
=== OK  [86] OP:c RS1:00000001 RS2:0000000f => RD:00000000 (esperado)
=== OK  [87] OP:c RS1:00000001 RS2:000000f0 => RD:00000000 (esperado)
=== OK  [88] OP:c RS1:00000001 RS2:000000ff => RD:00000000 (esperado)
=== OK  [89] OP:c RS1:00000001 RS2:00000010 => RD:00000000 (esperado)
=== OK  [90] OP:c RS1:fffffffe RS2:00000000 => RD:00000001 (esperado)
=== OK  [91] OP:c RS1:fffffffe RS2:ffffffff => RD:00000000 (esperado)
=== OK  [92] OP:c RS1:fffffffe RS2:7fffffff => RD:00000001 (esperado)
=== OK  [93] OP:c RS1:fffffffe RS2:80000000 => RD:00000001 (esperado)
=== OK  [94] OP:c RS1:fffffffe RS2:00000001 => RD:00000001 (esperado)
=== OK  [95] OP:c RS1:fffffffe RS2:fffffffe => RD:00000001 (esperado)
=== OK  [96] OP:c RS1:fffffffe RS2:00000002 => RD:00000001 (esperado)
=== OK  [97] OP:c RS1:fffffffe RS2:fffffffd => RD:00000001 (esperado)
=== OK  [98] OP:c RS1:fffffffe RS2:00000003 => RD:00000001 (esperado)
=== OK  [99] OP:c RS1:fffffffe RS2:fffffffc => RD:00000001 (esperado)
=== OK  [100] OP:c RS1:fffffffe RS2:a5a5a5a5 => RD:00000001 (esperado)
=== OK  [101] OP:c RS1:fffffffe RS2:5a5a5a5a => RD:00000001 (esperado)
=== OK  [102] OP:c RS1:fffffffe RS2:12345678 => RD:00000001 (esperado)
=== OK  [103] OP:c RS1:fffffffe RS2:87654321 => RD:00000001 (esperado)
=== OK  [104] OP:c RS1:fffffffe RS2:0000000f => RD:00000001 (esperado)
=== OK  [105] OP:c RS1:fffffffe RS2:000000f0 => RD:00000001 (esperado)
=== OK  [106] OP:c RS1:fffffffe RS2:000000ff => RD:00000001 (esperado)
=== OK  [107] OP:c RS1:fffffffe RS2:00000010 => RD:00000001 (esperado)
=== OK  [108] OP:c RS1:00000002 RS2:00000000 => RD:00000001 (esperado)
=== OK  [109] OP:c RS1:00000002 RS2:ffffffff => RD:00000000 (esperado)
=== OK  [110] OP:c RS1:00000002 RS2:7fffffff => RD:00000000 (esperado)
=== OK  [111] OP:c RS1:00000002 RS2:80000000 => RD:00000000 (esperado)
=== OK  [112] OP:c RS1:00000002 RS2:00000001 => RD:00000001 (esperado)
=== OK  [113] OP:c RS1:00000002 RS2:fffffffe => RD:00000000 (esperado)
=== OK  [114] OP:c RS1:00000002 RS2:00000002 => RD:00000001 (esperado)
=== OK  [115] OP:c RS1:00000002 RS2:fffffffd => RD:00000000 (esperado)
=== OK  [116] OP:c RS1:00000002 RS2:00000003 => RD:00000000 (esperado)
=== OK  [117] OP:c RS1:00000002 RS2:fffffffc => RD:00000000 (esperado)
=== OK  [118] OP:c RS1:00000002 RS2:a5a5a5a5 => RD:00000000 (esperado)
=== OK  [119] OP:c RS1:00000002 RS2:5a5a5a5a => RD:00000000 (esperado)
=== OK  [120] OP:c RS1:00000002 RS2:12345678 => RD:00000000 (esperado)
=== OK  [121] OP:c RS1:00000002 RS2:87654321 => RD:00000000 (esperado)
=== OK  [122] OP:c RS1:00000002 RS2:0000000f => RD:00000000 (esperado)
=== OK  [123] OP:c RS1:00000002 RS2:000000f0 => RD:00000000 (esperado)
=== OK  [124] OP:c RS1:00000002 RS2:000000ff => RD:00000000 (esperado)
=== OK  [125] OP:c RS1:00000002 RS2:00000010 => RD:00000000 (esperado)
=== OK  [126] OP:c RS1:fffffffd RS2:00000000 => RD:00000001 (esperado)
=== OK  [127] OP:c RS1:fffffffd RS2:ffffffff => RD:00000000 (esperado)
=== OK  [128] OP:c RS1:fffffffd RS2:7fffffff => RD:00000001 (esperado)
=== OK  [129] OP:c RS1:fffffffd RS2:80000000 => RD:00000001 (esperado)
=== OK  [130] OP:c RS1:fffffffd RS2:00000001 => RD:00000001 (esperado)
=== OK  [131] OP:c RS1:fffffffd RS2:fffffffe => RD:00000000 (esperado)
=== OK  [132] OP:c RS1:fffffffd RS2:00000002 => RD:00000001 (esperado)
=== OK  [133] OP:c RS1:fffffffd RS2:fffffffd => RD:00000001 (esperado)
=== OK  [134] OP:c RS1:fffffffd RS2:00000003 => RD:00000001 (esperado)
=== OK  [135] OP:c RS1:fffffffd RS2:fffffffc => RD:00000001 (esperado)
=== OK  [136] OP:c RS1:fffffffd RS2:a5a5a5a5 => RD:00000001 (esperado)
=== OK  [137] OP:c RS1:fffffffd RS2:5a5a5a5a => RD:00000001 (esperado)
=== OK  [138] OP:c RS1:fffffffd RS2:12345678 => RD:00000001 (esperado)
=== OK  [139] OP:c RS1:fffffffd RS2:87654321 => RD:00000001 (esperado)
=== OK  [140] OP:c RS1:fffffffd RS2:0000000f => RD:00000001 (esperado)
=== OK  [141] OP:c RS1:fffffffd RS2:000000f0 => RD:00000001 (esperado)
=== OK  [142] OP:c RS1:fffffffd RS2:000000ff => RD:00000001 (esperado)
=== OK  [143] OP:c RS1:fffffffd RS2:00000010 => RD:00000001 (esperado)
=== OK  [144] OP:c RS1:00000003 RS2:00000000 => RD:00000001 (esperado)
=== OK  [145] OP:c RS1:00000003 RS2:ffffffff => RD:00000000 (esperado)
=== OK  [146] OP:c RS1:00000003 RS2:7fffffff => RD:00000000 (esperado)
=== OK  [147] OP:c RS1:00000003 RS2:80000000 => RD:00000000 (esperado)
=== OK  [148] OP:c RS1:00000003 RS2:00000001 => RD:00000001 (esperado)
=== OK  [149] OP:c RS1:00000003 RS2:fffffffe => RD:00000000 (esperado)
=== OK  [150] OP:c RS1:00000003 RS2:00000002 => RD:00000001 (esperado)
=== OK  [151] OP:c RS1:00000003 RS2:fffffffd => RD:00000000 (esperado)
=== OK  [152] OP:c RS1:00000003 RS2:00000003 => RD:00000001 (esperado)
=== OK  [153] OP:c RS1:00000003 RS2:fffffffc => RD:00000000 (esperado)
=== OK  [154] OP:c RS1:00000003 RS2:a5a5a5a5 => RD:00000000 (esperado)
=== OK  [155] OP:c RS1:00000003 RS2:5a5a5a5a => RD:00000000 (esperado)
=== OK  [156] OP:c RS1:00000003 RS2:12345678 => RD:00000000 (esperado)
=== OK  [157] OP:c RS1:00000003 RS2:87654321 => RD:00000000 (esperado)
=== OK  [158] OP:c RS1:00000003 RS2:0000000f => RD:00000000 (esperado)
=== OK  [159] OP:c RS1:00000003 RS2:000000f0 => RD:00000000 (esperado)
=== OK  [160] OP:c RS1:00000003 RS2:000000ff => RD:00000000 (esperado)
=== OK  [161] OP:c RS1:00000003 RS2:00000010 => RD:00000000 (esperado)
=== OK  [162] OP:c RS1:fffffffc RS2:00000000 => RD:00000001 (esperado)
=== OK  [163] OP:c RS1:fffffffc RS2:ffffffff => RD:00000000 (esperado)
=== OK  [164] OP:c RS1:fffffffc RS2:7fffffff => RD:00000001 (esperado)
=== OK  [165] OP:c RS1:fffffffc RS2:80000000 => RD:00000001 (esperado)
=== OK  [166] OP:c RS1:fffffffc RS2:00000001 => RD:00000001 (esperado)
=== OK  [167] OP:c RS1:fffffffc RS2:fffffffe => RD:00000000 (esperado)
=== OK  [168] OP:c RS1:fffffffc RS2:00000002 => RD:00000001 (esperado)
=== OK  [169] OP:c RS1:fffffffc RS2:fffffffd => RD:00000000 (esperado)
=== OK  [170] OP:c RS1:fffffffc RS2:00000003 => RD:00000001 (esperado)
=== OK  [171] OP:c RS1:fffffffc RS2:fffffffc => RD:00000001 (esperado)
=== OK  [172] OP:c RS1:fffffffc RS2:a5a5a5a5 => RD:00000001 (esperado)
=== OK  [173] OP:c RS1:fffffffc RS2:5a5a5a5a => RD:00000001 (esperado)
=== OK  [174] OP:c RS1:fffffffc RS2:12345678 => RD:00000001 (esperado)
=== OK  [175] OP:c RS1:fffffffc RS2:87654321 => RD:00000001 (esperado)
=== OK  [176] OP:c RS1:fffffffc RS2:0000000f => RD:00000001 (esperado)
=== OK  [177] OP:c RS1:fffffffc RS2:000000f0 => RD:00000001 (esperado)
=== OK  [178] OP:c RS1:fffffffc RS2:000000ff => RD:00000001 (esperado)
=== OK  [179] OP:c RS1:fffffffc RS2:00000010 => RD:00000001 (esperado)
=== OK  [180] OP:c RS1:a5a5a5a5 RS2:00000000 => RD:00000001 (esperado)
=== OK  [181] OP:c RS1:a5a5a5a5 RS2:ffffffff => RD:00000000 (esperado)
=== OK  [182] OP:c RS1:a5a5a5a5 RS2:7fffffff => RD:00000001 (esperado)
=== OK  [183] OP:c RS1:a5a5a5a5 RS2:80000000 => RD:00000001 (esperado)
=== OK  [184] OP:c RS1:a5a5a5a5 RS2:00000001 => RD:00000001 (esperado)
=== OK  [185] OP:c RS1:a5a5a5a5 RS2:fffffffe => RD:00000000 (esperado)
=== OK  [186] OP:c RS1:a5a5a5a5 RS2:00000002 => RD:00000001 (esperado)
=== OK  [187] OP:c RS1:a5a5a5a5 RS2:fffffffd => RD:00000000 (esperado)
=== OK  [188] OP:c RS1:a5a5a5a5 RS2:00000003 => RD:00000001 (esperado)
=== OK  [189] OP:c RS1:a5a5a5a5 RS2:fffffffc => RD:00000000 (esperado)
=== OK  [190] OP:c RS1:a5a5a5a5 RS2:a5a5a5a5 => RD:00000001 (esperado)
=== OK  [191] OP:c RS1:a5a5a5a5 RS2:5a5a5a5a => RD:00000001 (esperado)
=== OK  [192] OP:c RS1:a5a5a5a5 RS2:12345678 => RD:00000001 (esperado)
=== OK  [193] OP:c RS1:a5a5a5a5 RS2:87654321 => RD:00000001 (esperado)
=== OK  [194] OP:c RS1:a5a5a5a5 RS2:0000000f => RD:00000001 (esperado)
=== OK  [195] OP:c RS1:a5a5a5a5 RS2:000000f0 => RD:00000001 (esperado)
=== OK  [196] OP:c RS1:a5a5a5a5 RS2:000000ff => RD:00000001 (esperado)
=== OK  [197] OP:c RS1:a5a5a5a5 RS2:00000010 => RD:00000001 (esperado)
=== OK  [198] OP:c RS1:5a5a5a5a RS2:00000000 => RD:00000001 (esperado)
=== OK  [199] OP:c RS1:5a5a5a5a RS2:ffffffff => RD:00000000 (esperado)
=== OK  [200] OP:c RS1:5a5a5a5a RS2:7fffffff => RD:00000000 (esperado)
=== OK  [201] OP:c RS1:5a5a5a5a RS2:80000000 => RD:00000000 (esperado)
=== OK  [202] OP:c RS1:5a5a5a5a RS2:00000001 => RD:00000001 (esperado)
=== OK  [203] OP:c RS1:5a5a5a5a RS2:fffffffe => RD:00000000 (esperado)
=== OK  [204] OP:c RS1:5a5a5a5a RS2:00000002 => RD:00000001 (esperado)
=== OK  [205] OP:c RS1:5a5a5a5a RS2:fffffffd => RD:00000000 (esperado)
=== OK  [206] OP:c RS1:5a5a5a5a RS2:00000003 => RD:00000001 (esperado)
=== OK  [207] OP:c RS1:5a5a5a5a RS2:fffffffc => RD:00000000 (esperado)
=== OK  [208] OP:c RS1:5a5a5a5a RS2:a5a5a5a5 => RD:00000000 (esperado)
=== OK  [209] OP:c RS1:5a5a5a5a RS2:5a5a5a5a => RD:00000001 (esperado)
=== OK  [210] OP:c RS1:5a5a5a5a RS2:12345678 => RD:00000001 (esperado)
=== OK  [211] OP:c RS1:5a5a5a5a RS2:87654321 => RD:00000000 (esperado)
=== OK  [212] OP:c RS1:5a5a5a5a RS2:0000000f => RD:00000001 (esperado)
=== OK  [213] OP:c RS1:5a5a5a5a RS2:000000f0 => RD:00000001 (esperado)
=== OK  [214] OP:c RS1:5a5a5a5a RS2:000000ff => RD:00000001 (esperado)
=== OK  [215] OP:c RS1:5a5a5a5a RS2:00000010 => RD:00000001 (esperado)
=== OK  [216] OP:c RS1:12345678 RS2:00000000 => RD:00000001 (esperado)
=== OK  [217] OP:c RS1:12345678 RS2:ffffffff => RD:00000000 (esperado)
=== OK  [218] OP:c RS1:12345678 RS2:7fffffff => RD:00000000 (esperado)
=== OK  [219] OP:c RS1:12345678 RS2:80000000 => RD:00000000 (esperado)
=== OK  [220] OP:c RS1:12345678 RS2:00000001 => RD:00000001 (esperado)
=== OK  [221] OP:c RS1:12345678 RS2:fffffffe => RD:00000000 (esperado)
=== OK  [222] OP:c RS1:12345678 RS2:00000002 => RD:00000001 (esperado)
=== OK  [223] OP:c RS1:12345678 RS2:fffffffd => RD:00000000 (esperado)
=== OK  [224] OP:c RS1:12345678 RS2:00000003 => RD:00000001 (esperado)
=== OK  [225] OP:c RS1:12345678 RS2:fffffffc => RD:00000000 (esperado)
=== OK  [226] OP:c RS1:12345678 RS2:a5a5a5a5 => RD:00000000 (esperado)
=== OK  [227] OP:c RS1:12345678 RS2:5a5a5a5a => RD:00000000 (esperado)
=== OK  [228] OP:c RS1:12345678 RS2:12345678 => RD:00000001 (esperado)
=== OK  [229] OP:c RS1:12345678 RS2:87654321 => RD:00000000 (esperado)
=== OK  [230] OP:c RS1:12345678 RS2:0000000f => RD:00000001 (esperado)
=== OK  [231] OP:c RS1:12345678 RS2:000000f0 => RD:00000001 (esperado)
=== OK  [232] OP:c RS1:12345678 RS2:000000ff => RD:00000001 (esperado)
=== OK  [233] OP:c RS1:12345678 RS2:00000010 => RD:00000001 (esperado)
=== OK  [234] OP:c RS1:87654321 RS2:00000000 => RD:00000001 (esperado)
=== OK  [235] OP:c RS1:87654321 RS2:ffffffff => RD:00000000 (esperado)
=== OK  [236] OP:c RS1:87654321 RS2:7fffffff => RD:00000001 (esperado)
=== OK  [237] OP:c RS1:87654321 RS2:80000000 => RD:00000001 (esperado)
=== OK  [238] OP:c RS1:87654321 RS2:00000001 => RD:00000001 (esperado)
=== OK  [239] OP:c RS1:87654321 RS2:fffffffe => RD:00000000 (esperado)
=== OK  [240] OP:c RS1:87654321 RS2:00000002 => RD:00000001 (esperado)
=== OK  [241] OP:c RS1:87654321 RS2:fffffffd => RD:00000000 (esperado)
=== OK  [242] OP:c RS1:87654321 RS2:00000003 => RD:00000001 (esperado)
=== OK  [243] OP:c RS1:87654321 RS2:fffffffc => RD:00000000 (esperado)
=== OK  [244] OP:c RS1:87654321 RS2:a5a5a5a5 => RD:00000000 (esperado)
=== OK  [245] OP:c RS1:87654321 RS2:5a5a5a5a => RD:00000001 (esperado)
=== OK  [246] OP:c RS1:87654321 RS2:12345678 => RD:00000001 (esperado)
=== OK  [247] OP:c RS1:87654321 RS2:87654321 => RD:00000001 (esperado)
=== OK  [248] OP:c RS1:87654321 RS2:0000000f => RD:00000001 (esperado)
=== OK  [249] OP:c RS1:87654321 RS2:000000f0 => RD:00000001 (esperado)
=== OK  [250] OP:c RS1:87654321 RS2:000000ff => RD:00000001 (esperado)
=== OK  [251] OP:c RS1:87654321 RS2:00000010 => RD:00000001 (esperado)
=== OK  [252] OP:c RS1:0000000f RS2:00000000 => RD:00000001 (esperado)
=== OK  [253] OP:c RS1:0000000f RS2:ffffffff => RD:00000000 (esperado)
=== OK  [254] OP:c RS1:0000000f RS2:7fffffff => RD:00000000 (esperado)
=== OK  [255] OP:c RS1:0000000f RS2:80000000 => RD:00000000 (esperado)
=== OK  [256] OP:c RS1:0000000f RS2:00000001 => RD:00000001 (esperado)
=== OK  [257] OP:c RS1:0000000f RS2:fffffffe => RD:00000000 (esperado)
=== OK  [258] OP:c RS1:0000000f RS2:00000002 => RD:00000001 (esperado)
=== OK  [259] OP:c RS1:0000000f RS2:fffffffd => RD:00000000 (esperado)
=== OK  [260] OP:c RS1:0000000f RS2:00000003 => RD:00000001 (esperado)
=== OK  [261] OP:c RS1:0000000f RS2:fffffffc => RD:00000000 (esperado)
=== OK  [262] OP:c RS1:0000000f RS2:a5a5a5a5 => RD:00000000 (esperado)
=== OK  [263] OP:c RS1:0000000f RS2:5a5a5a5a => RD:00000000 (esperado)
=== OK  [264] OP:c RS1:0000000f RS2:12345678 => RD:00000000 (esperado)
=== OK  [265] OP:c RS1:0000000f RS2:87654321 => RD:00000000 (esperado)
=== OK  [266] OP:c RS1:0000000f RS2:0000000f => RD:00000001 (esperado)
=== OK  [267] OP:c RS1:0000000f RS2:000000f0 => RD:00000000 (esperado)
=== OK  [268] OP:c RS1:0000000f RS2:000000ff => RD:00000000 (esperado)
=== OK  [269] OP:c RS1:0000000f RS2:00000010 => RD:00000000 (esperado)
=== OK  [270] OP:c RS1:000000f0 RS2:00000000 => RD:00000001 (esperado)
=== OK  [271] OP:c RS1:000000f0 RS2:ffffffff => RD:00000000 (esperado)
=== OK  [272] OP:c RS1:000000f0 RS2:7fffffff => RD:00000000 (esperado)
=== OK  [273] OP:c RS1:000000f0 RS2:80000000 => RD:00000000 (esperado)
=== OK  [274] OP:c RS1:000000f0 RS2:00000001 => RD:00000001 (esperado)
=== OK  [275] OP:c RS1:000000f0 RS2:fffffffe => RD:00000000 (esperado)
=== OK  [276] OP:c RS1:000000f0 RS2:00000002 => RD:00000001 (esperado)
=== OK  [277] OP:c RS1:000000f0 RS2:fffffffd => RD:00000000 (esperado)
=== OK  [278] OP:c RS1:000000f0 RS2:00000003 => RD:00000001 (esperado)
=== OK  [279] OP:c RS1:000000f0 RS2:fffffffc => RD:00000000 (esperado)
=== OK  [280] OP:c RS1:000000f0 RS2:a5a5a5a5 => RD:00000000 (esperado)
=== OK  [281] OP:c RS1:000000f0 RS2:5a5a5a5a => RD:00000000 (esperado)
=== OK  [282] OP:c RS1:000000f0 RS2:12345678 => RD:00000000 (esperado)
=== OK  [283] OP:c RS1:000000f0 RS2:87654321 => RD:00000000 (esperado)
=== OK  [284] OP:c RS1:000000f0 RS2:0000000f => RD:00000001 (esperado)
=== OK  [285] OP:c RS1:000000f0 RS2:000000f0 => RD:00000001 (esperado)
=== OK  [286] OP:c RS1:000000f0 RS2:000000ff => RD:00000000 (esperado)
=== OK  [287] OP:c RS1:000000f0 RS2:00000010 => RD:00000001 (esperado)
=== OK  [288] OP:c RS1:000000ff RS2:00000000 => RD:00000001 (esperado)
=== OK  [289] OP:c RS1:000000ff RS2:ffffffff => RD:00000000 (esperado)
=== OK  [290] OP:c RS1:000000ff RS2:7fffffff => RD:00000000 (esperado)
=== OK  [291] OP:c RS1:000000ff RS2:80000000 => RD:00000000 (esperado)
=== OK  [292] OP:c RS1:000000ff RS2:00000001 => RD:00000001 (esperado)
=== OK  [293] OP:c RS1:000000ff RS2:fffffffe => RD:00000000 (esperado)
=== OK  [294] OP:c RS1:000000ff RS2:00000002 => RD:00000001 (esperado)
=== OK  [295] OP:c RS1:000000ff RS2:fffffffd => RD:00000000 (esperado)
=== OK  [296] OP:c RS1:000000ff RS2:00000003 => RD:00000001 (esperado)
=== OK  [297] OP:c RS1:000000ff RS2:fffffffc => RD:00000000 (esperado)
=== OK  [298] OP:c RS1:000000ff RS2:a5a5a5a5 => RD:00000000 (esperado)
=== OK  [299] OP:c RS1:000000ff RS2:5a5a5a5a => RD:00000000 (esperado)
=== OK  [300] OP:c RS1:000000ff RS2:12345678 => RD:00000000 (esperado)
=== OK  [301] OP:c RS1:000000ff RS2:87654321 => RD:00000000 (esperado)
=== OK  [302] OP:c RS1:000000ff RS2:0000000f => RD:00000001 (esperado)
=== OK  [303] OP:c RS1:000000ff RS2:000000f0 => RD:00000001 (esperado)
=== OK  [304] OP:c RS1:000000ff RS2:000000ff => RD:00000001 (esperado)
=== OK  [305] OP:c RS1:000000ff RS2:00000010 => RD:00000001 (esperado)
=== OK  [306] OP:c RS1:00000010 RS2:00000000 => RD:00000001 (esperado)
=== OK  [307] OP:c RS1:00000010 RS2:ffffffff => RD:00000000 (esperado)
=== OK  [308] OP:c RS1:00000010 RS2:7fffffff => RD:00000000 (esperado)
=== OK  [309] OP:c RS1:00000010 RS2:80000000 => RD:00000000 (esperado)
=== OK  [310] OP:c RS1:00000010 RS2:00000001 => RD:00000001 (esperado)
=== OK  [311] OP:c RS1:00000010 RS2:fffffffe => RD:00000000 (esperado)
=== OK  [312] OP:c RS1:00000010 RS2:00000002 => RD:00000001 (esperado)
=== OK  [313] OP:c RS1:00000010 RS2:fffffffd => RD:00000000 (esperado)
=== OK  [314] OP:c RS1:00000010 RS2:00000003 => RD:00000001 (esperado)
=== OK  [315] OP:c RS1:00000010 RS2:fffffffc => RD:00000000 (esperado)
=== OK  [316] OP:c RS1:00000010 RS2:a5a5a5a5 => RD:00000000 (esperado)
=== OK  [317] OP:c RS1:00000010 RS2:5a5a5a5a => RD:00000000 (esperado)
=== OK  [318] OP:c RS1:00000010 RS2:12345678 => RD:00000000 (esperado)
=== OK  [319] OP:c RS1:00000010 RS2:87654321 => RD:00000000 (esperado)
=== OK  [320] OP:c RS1:00000010 RS2:0000000f => RD:00000001 (esperado)
=== OK  [321] OP:c RS1:00000010 RS2:000000f0 => RD:00000000 (esperado)
=== OK  [322] OP:c RS1:00000010 RS2:000000ff => RD:00000000 (esperado)
=== OK  [323] OP:c RS1:00000010 RS2:00000010 => RD:00000001 (esperado)
Testbench finalizado com sucesso.
