test/saida9.out
VCD info: dumpfile saida.vcd opened for output.
Iniciando Testbench...
WARNING: tb.v:32: $readmemh(teste.txt): Not enough words in the file for the requested range [0:512].
=== OK  [0] OP:9 RS1:00000000 RS2:00000000 => RD:ffffffff (esperado)
=== OK  [1] OP:9 RS1:00000000 RS2:ffffffff => RD:00000000 (esperado)
=== OK  [2] OP:9 RS1:00000000 RS2:7fffffff => RD:80000000 (esperado)
=== OK  [3] OP:9 RS1:00000000 RS2:80000000 => RD:7fffffff (esperado)
=== OK  [4] OP:9 RS1:00000000 RS2:00000001 => RD:fffffffe (esperado)
=== OK  [5] OP:9 RS1:00000000 RS2:fffffffe => RD:00000001 (esperado)
=== OK  [6] OP:9 RS1:00000000 RS2:00000002 => RD:fffffffd (esperado)
=== OK  [7] OP:9 RS1:00000000 RS2:fffffffd => RD:00000002 (esperado)
=== OK  [8] OP:9 RS1:00000000 RS2:00000003 => RD:fffffffc (esperado)
=== OK  [9] OP:9 RS1:00000000 RS2:fffffffc => RD:00000003 (esperado)
=== OK  [10] OP:9 RS1:00000000 RS2:a5a5a5a5 => RD:5a5a5a5a (esperado)
=== OK  [11] OP:9 RS1:00000000 RS2:5a5a5a5a => RD:a5a5a5a5 (esperado)
=== OK  [12] OP:9 RS1:00000000 RS2:12345678 => RD:edcba987 (esperado)
=== OK  [13] OP:9 RS1:00000000 RS2:87654321 => RD:789abcde (esperado)
=== OK  [14] OP:9 RS1:00000000 RS2:0000000f => RD:fffffff0 (esperado)
=== OK  [15] OP:9 RS1:00000000 RS2:000000f0 => RD:ffffff0f (esperado)
=== OK  [16] OP:9 RS1:00000000 RS2:000000ff => RD:ffffff00 (esperado)
=== OK  [17] OP:9 RS1:00000000 RS2:00000010 => RD:ffffffef (esperado)
=== OK  [18] OP:9 RS1:ffffffff RS2:00000000 => RD:00000000 (esperado)
=== OK  [19] OP:9 RS1:ffffffff RS2:ffffffff => RD:00000000 (esperado)
=== OK  [20] OP:9 RS1:ffffffff RS2:7fffffff => RD:00000000 (esperado)
=== OK  [21] OP:9 RS1:ffffffff RS2:80000000 => RD:00000000 (esperado)
=== OK  [22] OP:9 RS1:ffffffff RS2:00000001 => RD:00000000 (esperado)
=== OK  [23] OP:9 RS1:ffffffff RS2:fffffffe => RD:00000000 (esperado)
=== OK  [24] OP:9 RS1:ffffffff RS2:00000002 => RD:00000000 (esperado)
=== OK  [25] OP:9 RS1:ffffffff RS2:fffffffd => RD:00000000 (esperado)
=== OK  [26] OP:9 RS1:ffffffff RS2:00000003 => RD:00000000 (esperado)
=== OK  [27] OP:9 RS1:ffffffff RS2:fffffffc => RD:00000000 (esperado)
=== OK  [28] OP:9 RS1:ffffffff RS2:a5a5a5a5 => RD:00000000 (esperado)
=== OK  [29] OP:9 RS1:ffffffff RS2:5a5a5a5a => RD:00000000 (esperado)
=== OK  [30] OP:9 RS1:ffffffff RS2:12345678 => RD:00000000 (esperado)
=== OK  [31] OP:9 RS1:ffffffff RS2:87654321 => RD:00000000 (esperado)
=== OK  [32] OP:9 RS1:ffffffff RS2:0000000f => RD:00000000 (esperado)
=== OK  [33] OP:9 RS1:ffffffff RS2:000000f0 => RD:00000000 (esperado)
=== OK  [34] OP:9 RS1:ffffffff RS2:000000ff => RD:00000000 (esperado)
=== OK  [35] OP:9 RS1:ffffffff RS2:00000010 => RD:00000000 (esperado)
=== OK  [36] OP:9 RS1:7fffffff RS2:00000000 => RD:80000000 (esperado)
=== OK  [37] OP:9 RS1:7fffffff RS2:ffffffff => RD:00000000 (esperado)
=== OK  [38] OP:9 RS1:7fffffff RS2:7fffffff => RD:80000000 (esperado)
=== OK  [39] OP:9 RS1:7fffffff RS2:80000000 => RD:00000000 (esperado)
=== OK  [40] OP:9 RS1:7fffffff RS2:00000001 => RD:80000000 (esperado)
=== OK  [41] OP:9 RS1:7fffffff RS2:fffffffe => RD:00000000 (esperado)
=== OK  [42] OP:9 RS1:7fffffff RS2:00000002 => RD:80000000 (esperado)
=== OK  [43] OP:9 RS1:7fffffff RS2:fffffffd => RD:00000000 (esperado)
=== OK  [44] OP:9 RS1:7fffffff RS2:00000003 => RD:80000000 (esperado)
=== OK  [45] OP:9 RS1:7fffffff RS2:fffffffc => RD:00000000 (esperado)
=== OK  [46] OP:9 RS1:7fffffff RS2:a5a5a5a5 => RD:00000000 (esperado)
=== OK  [47] OP:9 RS1:7fffffff RS2:5a5a5a5a => RD:80000000 (esperado)
=== OK  [48] OP:9 RS1:7fffffff RS2:12345678 => RD:80000000 (esperado)
=== OK  [49] OP:9 RS1:7fffffff RS2:87654321 => RD:00000000 (esperado)
=== OK  [50] OP:9 RS1:7fffffff RS2:0000000f => RD:80000000 (esperado)
=== OK  [51] OP:9 RS1:7fffffff RS2:000000f0 => RD:80000000 (esperado)
=== OK  [52] OP:9 RS1:7fffffff RS2:000000ff => RD:80000000 (esperado)
=== OK  [53] OP:9 RS1:7fffffff RS2:00000010 => RD:80000000 (esperado)
=== OK  [54] OP:9 RS1:80000000 RS2:00000000 => RD:7fffffff (esperado)
=== OK  [55] OP:9 RS1:80000000 RS2:ffffffff => RD:00000000 (esperado)
=== OK  [56] OP:9 RS1:80000000 RS2:7fffffff => RD:00000000 (esperado)
=== OK  [57] OP:9 RS1:80000000 RS2:80000000 => RD:7fffffff (esperado)
=== OK  [58] OP:9 RS1:80000000 RS2:00000001 => RD:7ffffffe (esperado)
=== OK  [59] OP:9 RS1:80000000 RS2:fffffffe => RD:00000001 (esperado)
=== OK  [60] OP:9 RS1:80000000 RS2:00000002 => RD:7ffffffd (esperado)
=== OK  [61] OP:9 RS1:80000000 RS2:fffffffd => RD:00000002 (esperado)
=== OK  [62] OP:9 RS1:80000000 RS2:00000003 => RD:7ffffffc (esperado)
=== OK  [63] OP:9 RS1:80000000 RS2:fffffffc => RD:00000003 (esperado)
=== OK  [64] OP:9 RS1:80000000 RS2:a5a5a5a5 => RD:5a5a5a5a (esperado)
=== OK  [65] OP:9 RS1:80000000 RS2:5a5a5a5a => RD:25a5a5a5 (esperado)
=== OK  [66] OP:9 RS1:80000000 RS2:12345678 => RD:6dcba987 (esperado)
=== OK  [67] OP:9 RS1:80000000 RS2:87654321 => RD:789abcde (esperado)
=== OK  [68] OP:9 RS1:80000000 RS2:0000000f => RD:7ffffff0 (esperado)
=== OK  [69] OP:9 RS1:80000000 RS2:000000f0 => RD:7fffff0f (esperado)
=== OK  [70] OP:9 RS1:80000000 RS2:000000ff => RD:7fffff00 (esperado)
=== OK  [71] OP:9 RS1:80000000 RS2:00000010 => RD:7fffffef (esperado)
=== OK  [72] OP:9 RS1:00000001 RS2:00000000 => RD:fffffffe (esperado)
=== OK  [73] OP:9 RS1:00000001 RS2:ffffffff => RD:00000000 (esperado)
=== OK  [74] OP:9 RS1:00000001 RS2:7fffffff => RD:80000000 (esperado)
=== OK  [75] OP:9 RS1:00000001 RS2:80000000 => RD:7ffffffe (esperado)
=== OK  [76] OP:9 RS1:00000001 RS2:00000001 => RD:fffffffe (esperado)
=== OK  [77] OP:9 RS1:00000001 RS2:fffffffe => RD:00000000 (esperado)
=== OK  [78] OP:9 RS1:00000001 RS2:00000002 => RD:fffffffc (esperado)
=== OK  [79] OP:9 RS1:00000001 RS2:fffffffd => RD:00000002 (esperado)
=== OK  [80] OP:9 RS1:00000001 RS2:00000003 => RD:fffffffc (esperado)
=== OK  [81] OP:9 RS1:00000001 RS2:fffffffc => RD:00000002 (esperado)
=== OK  [82] OP:9 RS1:00000001 RS2:a5a5a5a5 => RD:5a5a5a5a (esperado)
=== OK  [83] OP:9 RS1:00000001 RS2:5a5a5a5a => RD:a5a5a5a4 (esperado)
=== OK  [84] OP:9 RS1:00000001 RS2:12345678 => RD:edcba986 (esperado)
=== OK  [85] OP:9 RS1:00000001 RS2:87654321 => RD:789abcde (esperado)
=== OK  [86] OP:9 RS1:00000001 RS2:0000000f => RD:fffffff0 (esperado)
=== OK  [87] OP:9 RS1:00000001 RS2:000000f0 => RD:ffffff0e (esperado)
=== OK  [88] OP:9 RS1:00000001 RS2:000000ff => RD:ffffff00 (esperado)
=== OK  [89] OP:9 RS1:00000001 RS2:00000010 => RD:ffffffee (esperado)
=== OK  [90] OP:9 RS1:fffffffe RS2:00000000 => RD:00000001 (esperado)
=== OK  [91] OP:9 RS1:fffffffe RS2:ffffffff => RD:00000000 (esperado)
=== OK  [92] OP:9 RS1:fffffffe RS2:7fffffff => RD:00000000 (esperado)
=== OK  [93] OP:9 RS1:fffffffe RS2:80000000 => RD:00000001 (esperado)
=== OK  [94] OP:9 RS1:fffffffe RS2:00000001 => RD:00000000 (esperado)
=== OK  [95] OP:9 RS1:fffffffe RS2:fffffffe => RD:00000001 (esperado)
=== OK  [96] OP:9 RS1:fffffffe RS2:00000002 => RD:00000001 (esperado)
=== OK  [97] OP:9 RS1:fffffffe RS2:fffffffd => RD:00000000 (esperado)
=== OK  [98] OP:9 RS1:fffffffe RS2:00000003 => RD:00000000 (esperado)
=== OK  [99] OP:9 RS1:fffffffe RS2:fffffffc => RD:00000001 (esperado)
=== OK  [100] OP:9 RS1:fffffffe RS2:a5a5a5a5 => RD:00000000 (esperado)
=== OK  [101] OP:9 RS1:fffffffe RS2:5a5a5a5a => RD:00000001 (esperado)
=== OK  [102] OP:9 RS1:fffffffe RS2:12345678 => RD:00000001 (esperado)
=== OK  [103] OP:9 RS1:fffffffe RS2:87654321 => RD:00000000 (esperado)
=== OK  [104] OP:9 RS1:fffffffe RS2:0000000f => RD:00000000 (esperado)
=== OK  [105] OP:9 RS1:fffffffe RS2:000000f0 => RD:00000001 (esperado)
=== OK  [106] OP:9 RS1:fffffffe RS2:000000ff => RD:00000000 (esperado)
=== OK  [107] OP:9 RS1:fffffffe RS2:00000010 => RD:00000001 (esperado)
=== OK  [108] OP:9 RS1:00000002 RS2:00000000 => RD:fffffffd (esperado)
=== OK  [109] OP:9 RS1:00000002 RS2:ffffffff => RD:00000000 (esperado)
=== OK  [110] OP:9 RS1:00000002 RS2:7fffffff => RD:80000000 (esperado)
=== OK  [111] OP:9 RS1:00000002 RS2:80000000 => RD:7ffffffd (esperado)
=== OK  [112] OP:9 RS1:00000002 RS2:00000001 => RD:fffffffc (esperado)
=== OK  [113] OP:9 RS1:00000002 RS2:fffffffe => RD:00000001 (esperado)
=== OK  [114] OP:9 RS1:00000002 RS2:00000002 => RD:fffffffd (esperado)
=== OK  [115] OP:9 RS1:00000002 RS2:fffffffd => RD:00000000 (esperado)
=== OK  [116] OP:9 RS1:00000002 RS2:00000003 => RD:fffffffc (esperado)
=== OK  [117] OP:9 RS1:00000002 RS2:fffffffc => RD:00000001 (esperado)
=== OK  [118] OP:9 RS1:00000002 RS2:a5a5a5a5 => RD:5a5a5a58 (esperado)
=== OK  [119] OP:9 RS1:00000002 RS2:5a5a5a5a => RD:a5a5a5a5 (esperado)
=== OK  [120] OP:9 RS1:00000002 RS2:12345678 => RD:edcba985 (esperado)
=== OK  [121] OP:9 RS1:00000002 RS2:87654321 => RD:789abcdc (esperado)
=== OK  [122] OP:9 RS1:00000002 RS2:0000000f => RD:fffffff0 (esperado)
=== OK  [123] OP:9 RS1:00000002 RS2:000000f0 => RD:ffffff0d (esperado)
=== OK  [124] OP:9 RS1:00000002 RS2:000000ff => RD:ffffff00 (esperado)
=== OK  [125] OP:9 RS1:00000002 RS2:00000010 => RD:ffffffed (esperado)
=== OK  [126] OP:9 RS1:fffffffd RS2:00000000 => RD:00000002 (esperado)
=== OK  [127] OP:9 RS1:fffffffd RS2:ffffffff => RD:00000000 (esperado)
=== OK  [128] OP:9 RS1:fffffffd RS2:7fffffff => RD:00000000 (esperado)
=== OK  [129] OP:9 RS1:fffffffd RS2:80000000 => RD:00000002 (esperado)
=== OK  [130] OP:9 RS1:fffffffd RS2:00000001 => RD:00000002 (esperado)
=== OK  [131] OP:9 RS1:fffffffd RS2:fffffffe => RD:00000000 (esperado)
=== OK  [132] OP:9 RS1:fffffffd RS2:00000002 => RD:00000000 (esperado)
=== OK  [133] OP:9 RS1:fffffffd RS2:fffffffd => RD:00000002 (esperado)
=== OK  [134] OP:9 RS1:fffffffd RS2:00000003 => RD:00000000 (esperado)
=== OK  [135] OP:9 RS1:fffffffd RS2:fffffffc => RD:00000002 (esperado)
=== OK  [136] OP:9 RS1:fffffffd RS2:a5a5a5a5 => RD:00000002 (esperado)
=== OK  [137] OP:9 RS1:fffffffd RS2:5a5a5a5a => RD:00000000 (esperado)
=== OK  [138] OP:9 RS1:fffffffd RS2:12345678 => RD:00000002 (esperado)
=== OK  [139] OP:9 RS1:fffffffd RS2:87654321 => RD:00000002 (esperado)
=== OK  [140] OP:9 RS1:fffffffd RS2:0000000f => RD:00000000 (esperado)
=== OK  [141] OP:9 RS1:fffffffd RS2:000000f0 => RD:00000002 (esperado)
=== OK  [142] OP:9 RS1:fffffffd RS2:000000ff => RD:00000000 (esperado)
=== OK  [143] OP:9 RS1:fffffffd RS2:00000010 => RD:00000002 (esperado)
=== OK  [144] OP:9 RS1:00000003 RS2:00000000 => RD:fffffffc (esperado)
=== OK  [145] OP:9 RS1:00000003 RS2:ffffffff => RD:00000000 (esperado)
=== OK  [146] OP:9 RS1:00000003 RS2:7fffffff => RD:80000000 (esperado)
=== OK  [147] OP:9 RS1:00000003 RS2:80000000 => RD:7ffffffc (esperado)
=== OK  [148] OP:9 RS1:00000003 RS2:00000001 => RD:fffffffc (esperado)
=== OK  [149] OP:9 RS1:00000003 RS2:fffffffe => RD:00000000 (esperado)
=== OK  [150] OP:9 RS1:00000003 RS2:00000002 => RD:fffffffc (esperado)
=== OK  [151] OP:9 RS1:00000003 RS2:fffffffd => RD:00000000 (esperado)
=== OK  [152] OP:9 RS1:00000003 RS2:00000003 => RD:fffffffc (esperado)
=== OK  [153] OP:9 RS1:00000003 RS2:fffffffc => RD:00000000 (esperado)
=== OK  [154] OP:9 RS1:00000003 RS2:a5a5a5a5 => RD:5a5a5a58 (esperado)
=== OK  [155] OP:9 RS1:00000003 RS2:5a5a5a5a => RD:a5a5a5a4 (esperado)
=== OK  [156] OP:9 RS1:00000003 RS2:12345678 => RD:edcba984 (esperado)
=== OK  [157] OP:9 RS1:00000003 RS2:87654321 => RD:789abcdc (esperado)
=== OK  [158] OP:9 RS1:00000003 RS2:0000000f => RD:fffffff0 (esperado)
=== OK  [159] OP:9 RS1:00000003 RS2:000000f0 => RD:ffffff0c (esperado)
=== OK  [160] OP:9 RS1:00000003 RS2:000000ff => RD:ffffff00 (esperado)
=== OK  [161] OP:9 RS1:00000003 RS2:00000010 => RD:ffffffec (esperado)
=== OK  [162] OP:9 RS1:fffffffc RS2:00000000 => RD:00000003 (esperado)
=== OK  [163] OP:9 RS1:fffffffc RS2:ffffffff => RD:00000000 (esperado)
=== OK  [164] OP:9 RS1:fffffffc RS2:7fffffff => RD:00000000 (esperado)
=== OK  [165] OP:9 RS1:fffffffc RS2:80000000 => RD:00000003 (esperado)
=== OK  [166] OP:9 RS1:fffffffc RS2:00000001 => RD:00000002 (esperado)
=== OK  [167] OP:9 RS1:fffffffc RS2:fffffffe => RD:00000001 (esperado)
=== OK  [168] OP:9 RS1:fffffffc RS2:00000002 => RD:00000001 (esperado)
=== OK  [169] OP:9 RS1:fffffffc RS2:fffffffd => RD:00000002 (esperado)
=== OK  [170] OP:9 RS1:fffffffc RS2:00000003 => RD:00000000 (esperado)
=== OK  [171] OP:9 RS1:fffffffc RS2:fffffffc => RD:00000003 (esperado)
=== OK  [172] OP:9 RS1:fffffffc RS2:a5a5a5a5 => RD:00000002 (esperado)
=== OK  [173] OP:9 RS1:fffffffc RS2:5a5a5a5a => RD:00000001 (esperado)
=== OK  [174] OP:9 RS1:fffffffc RS2:12345678 => RD:00000003 (esperado)
=== OK  [175] OP:9 RS1:fffffffc RS2:87654321 => RD:00000002 (esperado)
=== OK  [176] OP:9 RS1:fffffffc RS2:0000000f => RD:00000000 (esperado)
=== OK  [177] OP:9 RS1:fffffffc RS2:000000f0 => RD:00000003 (esperado)
=== OK  [178] OP:9 RS1:fffffffc RS2:000000ff => RD:00000000 (esperado)
=== OK  [179] OP:9 RS1:fffffffc RS2:00000010 => RD:00000003 (esperado)
=== OK  [180] OP:9 RS1:a5a5a5a5 RS2:00000000 => RD:5a5a5a5a (esperado)
=== OK  [181] OP:9 RS1:a5a5a5a5 RS2:ffffffff => RD:00000000 (esperado)
=== OK  [182] OP:9 RS1:a5a5a5a5 RS2:7fffffff => RD:00000000 (esperado)
=== OK  [183] OP:9 RS1:a5a5a5a5 RS2:80000000 => RD:5a5a5a5a (esperado)
=== OK  [184] OP:9 RS1:a5a5a5a5 RS2:00000001 => RD:5a5a5a5a (esperado)
=== OK  [185] OP:9 RS1:a5a5a5a5 RS2:fffffffe => RD:00000000 (esperado)
=== OK  [186] OP:9 RS1:a5a5a5a5 RS2:00000002 => RD:5a5a5a58 (esperado)
=== OK  [187] OP:9 RS1:a5a5a5a5 RS2:fffffffd => RD:00000002 (esperado)
=== OK  [188] OP:9 RS1:a5a5a5a5 RS2:00000003 => RD:5a5a5a58 (esperado)
=== OK  [189] OP:9 RS1:a5a5a5a5 RS2:fffffffc => RD:00000002 (esperado)
=== OK  [190] OP:9 RS1:a5a5a5a5 RS2:a5a5a5a5 => RD:5a5a5a5a (esperado)
=== OK  [191] OP:9 RS1:a5a5a5a5 RS2:5a5a5a5a => RD:00000000 (esperado)
=== OK  [192] OP:9 RS1:a5a5a5a5 RS2:12345678 => RD:484a0802 (esperado)
=== OK  [193] OP:9 RS1:a5a5a5a5 RS2:87654321 => RD:581a185a (esperado)
=== OK  [194] OP:9 RS1:a5a5a5a5 RS2:0000000f => RD:5a5a5a50 (esperado)
=== OK  [195] OP:9 RS1:a5a5a5a5 RS2:000000f0 => RD:5a5a5a0a (esperado)
=== OK  [196] OP:9 RS1:a5a5a5a5 RS2:000000ff => RD:5a5a5a00 (esperado)
=== OK  [197] OP:9 RS1:a5a5a5a5 RS2:00000010 => RD:5a5a5a4a (esperado)
=== OK  [198] OP:9 RS1:5a5a5a5a RS2:00000000 => RD:a5a5a5a5 (esperado)
=== OK  [199] OP:9 RS1:5a5a5a5a RS2:ffffffff => RD:00000000 (esperado)
=== OK  [200] OP:9 RS1:5a5a5a5a RS2:7fffffff => RD:80000000 (esperado)
=== OK  [201] OP:9 RS1:5a5a5a5a RS2:80000000 => RD:25a5a5a5 (esperado)
=== OK  [202] OP:9 RS1:5a5a5a5a RS2:00000001 => RD:a5a5a5a4 (esperado)
=== OK  [203] OP:9 RS1:5a5a5a5a RS2:fffffffe => RD:00000001 (esperado)
=== OK  [204] OP:9 RS1:5a5a5a5a RS2:00000002 => RD:a5a5a5a5 (esperado)
=== OK  [205] OP:9 RS1:5a5a5a5a RS2:fffffffd => RD:00000000 (esperado)
=== OK  [206] OP:9 RS1:5a5a5a5a RS2:00000003 => RD:a5a5a5a4 (esperado)
=== OK  [207] OP:9 RS1:5a5a5a5a RS2:fffffffc => RD:00000001 (esperado)
=== OK  [208] OP:9 RS1:5a5a5a5a RS2:a5a5a5a5 => RD:00000000 (esperado)
=== OK  [209] OP:9 RS1:5a5a5a5a RS2:5a5a5a5a => RD:a5a5a5a5 (esperado)
=== OK  [210] OP:9 RS1:5a5a5a5a RS2:12345678 => RD:a581a185 (esperado)
=== OK  [211] OP:9 RS1:5a5a5a5a RS2:87654321 => RD:2080a484 (esperado)
=== OK  [212] OP:9 RS1:5a5a5a5a RS2:0000000f => RD:a5a5a5a0 (esperado)
=== OK  [213] OP:9 RS1:5a5a5a5a RS2:000000f0 => RD:a5a5a505 (esperado)
=== OK  [214] OP:9 RS1:5a5a5a5a RS2:000000ff => RD:a5a5a500 (esperado)
=== OK  [215] OP:9 RS1:5a5a5a5a RS2:00000010 => RD:a5a5a5a5 (esperado)
=== OK  [216] OP:9 RS1:12345678 RS2:00000000 => RD:edcba987 (esperado)
=== OK  [217] OP:9 RS1:12345678 RS2:ffffffff => RD:00000000 (esperado)
=== OK  [218] OP:9 RS1:12345678 RS2:7fffffff => RD:80000000 (esperado)
=== OK  [219] OP:9 RS1:12345678 RS2:80000000 => RD:6dcba987 (esperado)
=== OK  [220] OP:9 RS1:12345678 RS2:00000001 => RD:edcba986 (esperado)
=== OK  [221] OP:9 RS1:12345678 RS2:fffffffe => RD:00000001 (esperado)
=== OK  [222] OP:9 RS1:12345678 RS2:00000002 => RD:edcba985 (esperado)
=== OK  [223] OP:9 RS1:12345678 RS2:fffffffd => RD:00000002 (esperado)
=== OK  [224] OP:9 RS1:12345678 RS2:00000003 => RD:edcba984 (esperado)
=== OK  [225] OP:9 RS1:12345678 RS2:fffffffc => RD:00000003 (esperado)
=== OK  [226] OP:9 RS1:12345678 RS2:a5a5a5a5 => RD:484a0802 (esperado)
=== OK  [227] OP:9 RS1:12345678 RS2:5a5a5a5a => RD:a581a185 (esperado)
=== OK  [228] OP:9 RS1:12345678 RS2:12345678 => RD:edcba987 (esperado)
=== OK  [229] OP:9 RS1:12345678 RS2:87654321 => RD:688aa886 (esperado)
=== OK  [230] OP:9 RS1:12345678 RS2:0000000f => RD:edcba980 (esperado)
=== OK  [231] OP:9 RS1:12345678 RS2:000000f0 => RD:edcba907 (esperado)
=== OK  [232] OP:9 RS1:12345678 RS2:000000ff => RD:edcba900 (esperado)
=== OK  [233] OP:9 RS1:12345678 RS2:00000010 => RD:edcba987 (esperado)
=== OK  [234] OP:9 RS1:87654321 RS2:00000000 => RD:789abcde (esperado)
=== OK  [235] OP:9 RS1:87654321 RS2:ffffffff => RD:00000000 (esperado)
=== OK  [236] OP:9 RS1:87654321 RS2:7fffffff => RD:00000000 (esperado)
=== OK  [237] OP:9 RS1:87654321 RS2:80000000 => RD:789abcde (esperado)
=== OK  [238] OP:9 RS1:87654321 RS2:00000001 => RD:789abcde (esperado)
=== OK  [239] OP:9 RS1:87654321 RS2:fffffffe => RD:00000000 (esperado)
=== OK  [240] OP:9 RS1:87654321 RS2:00000002 => RD:789abcdc (esperado)
=== OK  [241] OP:9 RS1:87654321 RS2:fffffffd => RD:00000002 (esperado)
=== OK  [242] OP:9 RS1:87654321 RS2:00000003 => RD:789abcdc (esperado)
=== OK  [243] OP:9 RS1:87654321 RS2:fffffffc => RD:00000002 (esperado)
=== OK  [244] OP:9 RS1:87654321 RS2:a5a5a5a5 => RD:581a185a (esperado)
=== OK  [245] OP:9 RS1:87654321 RS2:5a5a5a5a => RD:2080a484 (esperado)
=== OK  [246] OP:9 RS1:87654321 RS2:12345678 => RD:688aa886 (esperado)
=== OK  [247] OP:9 RS1:87654321 RS2:87654321 => RD:789abcde (esperado)
=== OK  [248] OP:9 RS1:87654321 RS2:0000000f => RD:789abcd0 (esperado)
=== OK  [249] OP:9 RS1:87654321 RS2:000000f0 => RD:789abc0e (esperado)
=== OK  [250] OP:9 RS1:87654321 RS2:000000ff => RD:789abc00 (esperado)
=== OK  [251] OP:9 RS1:87654321 RS2:00000010 => RD:789abcce (esperado)
=== OK  [252] OP:9 RS1:0000000f RS2:00000000 => RD:fffffff0 (esperado)
=== OK  [253] OP:9 RS1:0000000f RS2:ffffffff => RD:00000000 (esperado)
=== OK  [254] OP:9 RS1:0000000f RS2:7fffffff => RD:80000000 (esperado)
=== OK  [255] OP:9 RS1:0000000f RS2:80000000 => RD:7ffffff0 (esperado)
=== OK  [256] OP:9 RS1:0000000f RS2:00000001 => RD:fffffff0 (esperado)
=== OK  [257] OP:9 RS1:0000000f RS2:fffffffe => RD:00000000 (esperado)
=== OK  [258] OP:9 RS1:0000000f RS2:00000002 => RD:fffffff0 (esperado)
=== OK  [259] OP:9 RS1:0000000f RS2:fffffffd => RD:00000000 (esperado)
=== OK  [260] OP:9 RS1:0000000f RS2:00000003 => RD:fffffff0 (esperado)
=== OK  [261] OP:9 RS1:0000000f RS2:fffffffc => RD:00000000 (esperado)
=== OK  [262] OP:9 RS1:0000000f RS2:a5a5a5a5 => RD:5a5a5a50 (esperado)
=== OK  [263] OP:9 RS1:0000000f RS2:5a5a5a5a => RD:a5a5a5a0 (esperado)
=== OK  [264] OP:9 RS1:0000000f RS2:12345678 => RD:edcba980 (esperado)
=== OK  [265] OP:9 RS1:0000000f RS2:87654321 => RD:789abcd0 (esperado)
=== OK  [266] OP:9 RS1:0000000f RS2:0000000f => RD:fffffff0 (esperado)
=== OK  [267] OP:9 RS1:0000000f RS2:000000f0 => RD:ffffff00 (esperado)
=== OK  [268] OP:9 RS1:0000000f RS2:000000ff => RD:ffffff00 (esperado)
=== OK  [269] OP:9 RS1:0000000f RS2:00000010 => RD:ffffffe0 (esperado)
=== OK  [270] OP:9 RS1:000000f0 RS2:00000000 => RD:ffffff0f (esperado)
=== OK  [271] OP:9 RS1:000000f0 RS2:ffffffff => RD:00000000 (esperado)
=== OK  [272] OP:9 RS1:000000f0 RS2:7fffffff => RD:80000000 (esperado)
=== OK  [273] OP:9 RS1:000000f0 RS2:80000000 => RD:7fffff0f (esperado)
=== OK  [274] OP:9 RS1:000000f0 RS2:00000001 => RD:ffffff0e (esperado)
=== OK  [275] OP:9 RS1:000000f0 RS2:fffffffe => RD:00000001 (esperado)
=== OK  [276] OP:9 RS1:000000f0 RS2:00000002 => RD:ffffff0d (esperado)
=== OK  [277] OP:9 RS1:000000f0 RS2:fffffffd => RD:00000002 (esperado)
=== OK  [278] OP:9 RS1:000000f0 RS2:00000003 => RD:ffffff0c (esperado)
=== OK  [279] OP:9 RS1:000000f0 RS2:fffffffc => RD:00000003 (esperado)
=== OK  [280] OP:9 RS1:000000f0 RS2:a5a5a5a5 => RD:5a5a5a0a (esperado)
=== OK  [281] OP:9 RS1:000000f0 RS2:5a5a5a5a => RD:a5a5a505 (esperado)
=== OK  [282] OP:9 RS1:000000f0 RS2:12345678 => RD:edcba907 (esperado)
=== OK  [283] OP:9 RS1:000000f0 RS2:87654321 => RD:789abc0e (esperado)
=== OK  [284] OP:9 RS1:000000f0 RS2:0000000f => RD:ffffff00 (esperado)
=== OK  [285] OP:9 RS1:000000f0 RS2:000000f0 => RD:ffffff0f (esperado)
=== OK  [286] OP:9 RS1:000000f0 RS2:000000ff => RD:ffffff00 (esperado)
=== OK  [287] OP:9 RS1:000000f0 RS2:00000010 => RD:ffffff0f (esperado)
=== OK  [288] OP:9 RS1:000000ff RS2:00000000 => RD:ffffff00 (esperado)
=== OK  [289] OP:9 RS1:000000ff RS2:ffffffff => RD:00000000 (esperado)
=== OK  [290] OP:9 RS1:000000ff RS2:7fffffff => RD:80000000 (esperado)
=== OK  [291] OP:9 RS1:000000ff RS2:80000000 => RD:7fffff00 (esperado)
=== OK  [292] OP:9 RS1:000000ff RS2:00000001 => RD:ffffff00 (esperado)
=== OK  [293] OP:9 RS1:000000ff RS2:fffffffe => RD:00000000 (esperado)
=== OK  [294] OP:9 RS1:000000ff RS2:00000002 => RD:ffffff00 (esperado)
=== OK  [295] OP:9 RS1:000000ff RS2:fffffffd => RD:00000000 (esperado)
=== OK  [296] OP:9 RS1:000000ff RS2:00000003 => RD:ffffff00 (esperado)
=== OK  [297] OP:9 RS1:000000ff RS2:fffffffc => RD:00000000 (esperado)
=== OK  [298] OP:9 RS1:000000ff RS2:a5a5a5a5 => RD:5a5a5a00 (esperado)
=== OK  [299] OP:9 RS1:000000ff RS2:5a5a5a5a => RD:a5a5a500 (esperado)
=== OK  [300] OP:9 RS1:000000ff RS2:12345678 => RD:edcba900 (esperado)
=== OK  [301] OP:9 RS1:000000ff RS2:87654321 => RD:789abc00 (esperado)
=== OK  [302] OP:9 RS1:000000ff RS2:0000000f => RD:ffffff00 (esperado)
=== OK  [303] OP:9 RS1:000000ff RS2:000000f0 => RD:ffffff00 (esperado)
=== OK  [304] OP:9 RS1:000000ff RS2:000000ff => RD:ffffff00 (esperado)
=== OK  [305] OP:9 RS1:000000ff RS2:00000010 => RD:ffffff00 (esperado)
=== OK  [306] OP:9 RS1:00000010 RS2:00000000 => RD:ffffffef (esperado)
=== OK  [307] OP:9 RS1:00000010 RS2:ffffffff => RD:00000000 (esperado)
=== OK  [308] OP:9 RS1:00000010 RS2:7fffffff => RD:80000000 (esperado)
=== OK  [309] OP:9 RS1:00000010 RS2:80000000 => RD:7fffffef (esperado)
=== OK  [310] OP:9 RS1:00000010 RS2:00000001 => RD:ffffffee (esperado)
=== OK  [311] OP:9 RS1:00000010 RS2:fffffffe => RD:00000001 (esperado)
=== OK  [312] OP:9 RS1:00000010 RS2:00000002 => RD:ffffffed (esperado)
=== OK  [313] OP:9 RS1:00000010 RS2:fffffffd => RD:00000002 (esperado)
=== OK  [314] OP:9 RS1:00000010 RS2:00000003 => RD:ffffffec (esperado)
=== OK  [315] OP:9 RS1:00000010 RS2:fffffffc => RD:00000003 (esperado)
=== OK  [316] OP:9 RS1:00000010 RS2:a5a5a5a5 => RD:5a5a5a4a (esperado)
=== OK  [317] OP:9 RS1:00000010 RS2:5a5a5a5a => RD:a5a5a5a5 (esperado)
=== OK  [318] OP:9 RS1:00000010 RS2:12345678 => RD:edcba987 (esperado)
=== OK  [319] OP:9 RS1:00000010 RS2:87654321 => RD:789abcce (esperado)
=== OK  [320] OP:9 RS1:00000010 RS2:0000000f => RD:ffffffe0 (esperado)
=== OK  [321] OP:9 RS1:00000010 RS2:000000f0 => RD:ffffff0f (esperado)
=== OK  [322] OP:9 RS1:00000010 RS2:000000ff => RD:ffffff00 (esperado)
=== OK  [323] OP:9 RS1:00000010 RS2:00000010 => RD:ffffffef (esperado)
Testbench finalizado com sucesso.
