test/saida4.out
VCD info: dumpfile saida.vcd opened for output.
Iniciando Testbench...
WARNING: tb.v:32: $readmemh(teste.txt): Not enough words in the file for the requested range [0:512].
=== OK  [0] OP:4 RS1:00000000 RS2:00000000 => RD:00000000 (esperado)
=== OK  [1] OP:4 RS1:00000000 RS2:ffffffff => RD:00000000 (esperado)
=== OK  [2] OP:4 RS1:00000000 RS2:7fffffff => RD:00000000 (esperado)
=== OK  [3] OP:4 RS1:00000000 RS2:80000000 => RD:00000000 (esperado)
=== OK  [4] OP:4 RS1:00000000 RS2:00000001 => RD:00000000 (esperado)
=== OK  [5] OP:4 RS1:00000000 RS2:fffffffe => RD:00000000 (esperado)
=== OK  [6] OP:4 RS1:00000000 RS2:00000002 => RD:00000000 (esperado)
=== OK  [7] OP:4 RS1:00000000 RS2:fffffffd => RD:00000000 (esperado)
=== OK  [8] OP:4 RS1:00000000 RS2:00000003 => RD:00000000 (esperado)
=== OK  [9] OP:4 RS1:00000000 RS2:fffffffc => RD:00000000 (esperado)
=== OK  [10] OP:4 RS1:00000000 RS2:a5a5a5a5 => RD:00000000 (esperado)
=== OK  [11] OP:4 RS1:00000000 RS2:5a5a5a5a => RD:00000000 (esperado)
=== OK  [12] OP:4 RS1:00000000 RS2:12345678 => RD:00000000 (esperado)
=== OK  [13] OP:4 RS1:00000000 RS2:87654321 => RD:00000000 (esperado)
=== OK  [14] OP:4 RS1:00000000 RS2:0000000f => RD:00000000 (esperado)
=== OK  [15] OP:4 RS1:00000000 RS2:000000f0 => RD:00000000 (esperado)
=== OK  [16] OP:4 RS1:00000000 RS2:000000ff => RD:00000000 (esperado)
=== OK  [17] OP:4 RS1:00000000 RS2:00000010 => RD:00000000 (esperado)
=== OK  [18] OP:4 RS1:ffffffff RS2:00000000 => RD:ffffffff (esperado)
=== OK  [19] OP:4 RS1:ffffffff RS2:ffffffff => RD:80000000 (esperado)
=== OK  [20] OP:4 RS1:ffffffff RS2:7fffffff => RD:80000000 (esperado)
=== OK  [21] OP:4 RS1:ffffffff RS2:80000000 => RD:ffffffff (esperado)
=== OK  [22] OP:4 RS1:ffffffff RS2:00000001 => RD:fffffffe (esperado)
=== OK  [23] OP:4 RS1:ffffffff RS2:fffffffe => RD:c0000000 (esperado)
=== OK  [24] OP:4 RS1:ffffffff RS2:00000002 => RD:fffffffc (esperado)
=== OK  [25] OP:4 RS1:ffffffff RS2:fffffffd => RD:e0000000 (esperado)
=== OK  [26] OP:4 RS1:ffffffff RS2:00000003 => RD:fffffff8 (esperado)
=== OK  [27] OP:4 RS1:ffffffff RS2:fffffffc => RD:f0000000 (esperado)
=== OK  [28] OP:4 RS1:ffffffff RS2:a5a5a5a5 => RD:ffffffe0 (esperado)
=== OK  [29] OP:4 RS1:ffffffff RS2:5a5a5a5a => RD:fc000000 (esperado)
=== OK  [30] OP:4 RS1:ffffffff RS2:12345678 => RD:ff000000 (esperado)
=== OK  [31] OP:4 RS1:ffffffff RS2:87654321 => RD:fffffffe (esperado)
=== OK  [32] OP:4 RS1:ffffffff RS2:0000000f => RD:ffff8000 (esperado)
=== OK  [33] OP:4 RS1:ffffffff RS2:000000f0 => RD:ffff0000 (esperado)
=== OK  [34] OP:4 RS1:ffffffff RS2:000000ff => RD:80000000 (esperado)
=== OK  [35] OP:4 RS1:ffffffff RS2:00000010 => RD:ffff0000 (esperado)
=== OK  [36] OP:4 RS1:7fffffff RS2:00000000 => RD:7fffffff (esperado)
=== OK  [37] OP:4 RS1:7fffffff RS2:ffffffff => RD:80000000 (esperado)
=== OK  [38] OP:4 RS1:7fffffff RS2:7fffffff => RD:80000000 (esperado)
=== OK  [39] OP:4 RS1:7fffffff RS2:80000000 => RD:7fffffff (esperado)
=== OK  [40] OP:4 RS1:7fffffff RS2:00000001 => RD:fffffffe (esperado)
=== OK  [41] OP:4 RS1:7fffffff RS2:fffffffe => RD:c0000000 (esperado)
=== OK  [42] OP:4 RS1:7fffffff RS2:00000002 => RD:fffffffc (esperado)
=== OK  [43] OP:4 RS1:7fffffff RS2:fffffffd => RD:e0000000 (esperado)
=== OK  [44] OP:4 RS1:7fffffff RS2:00000003 => RD:fffffff8 (esperado)
=== OK  [45] OP:4 RS1:7fffffff RS2:fffffffc => RD:f0000000 (esperado)
=== OK  [46] OP:4 RS1:7fffffff RS2:a5a5a5a5 => RD:ffffffe0 (esperado)
=== OK  [47] OP:4 RS1:7fffffff RS2:5a5a5a5a => RD:fc000000 (esperado)
=== OK  [48] OP:4 RS1:7fffffff RS2:12345678 => RD:ff000000 (esperado)
=== OK  [49] OP:4 RS1:7fffffff RS2:87654321 => RD:fffffffe (esperado)
=== OK  [50] OP:4 RS1:7fffffff RS2:0000000f => RD:ffff8000 (esperado)
=== OK  [51] OP:4 RS1:7fffffff RS2:000000f0 => RD:ffff0000 (esperado)
=== OK  [52] OP:4 RS1:7fffffff RS2:000000ff => RD:80000000 (esperado)
=== OK  [53] OP:4 RS1:7fffffff RS2:00000010 => RD:ffff0000 (esperado)
=== OK  [54] OP:4 RS1:80000000 RS2:00000000 => RD:80000000 (esperado)
=== OK  [55] OP:4 RS1:80000000 RS2:ffffffff => RD:00000000 (esperado)
=== OK  [56] OP:4 RS1:80000000 RS2:7fffffff => RD:00000000 (esperado)
=== OK  [57] OP:4 RS1:80000000 RS2:80000000 => RD:80000000 (esperado)
=== OK  [58] OP:4 RS1:80000000 RS2:00000001 => RD:00000000 (esperado)
=== OK  [59] OP:4 RS1:80000000 RS2:fffffffe => RD:00000000 (esperado)
=== OK  [60] OP:4 RS1:80000000 RS2:00000002 => RD:00000000 (esperado)
=== OK  [61] OP:4 RS1:80000000 RS2:fffffffd => RD:00000000 (esperado)
=== OK  [62] OP:4 RS1:80000000 RS2:00000003 => RD:00000000 (esperado)
=== OK  [63] OP:4 RS1:80000000 RS2:fffffffc => RD:00000000 (esperado)
=== OK  [64] OP:4 RS1:80000000 RS2:a5a5a5a5 => RD:00000000 (esperado)
=== OK  [65] OP:4 RS1:80000000 RS2:5a5a5a5a => RD:00000000 (esperado)
=== OK  [66] OP:4 RS1:80000000 RS2:12345678 => RD:00000000 (esperado)
=== OK  [67] OP:4 RS1:80000000 RS2:87654321 => RD:00000000 (esperado)
=== OK  [68] OP:4 RS1:80000000 RS2:0000000f => RD:00000000 (esperado)
=== OK  [69] OP:4 RS1:80000000 RS2:000000f0 => RD:00000000 (esperado)
=== OK  [70] OP:4 RS1:80000000 RS2:000000ff => RD:00000000 (esperado)
=== OK  [71] OP:4 RS1:80000000 RS2:00000010 => RD:00000000 (esperado)
=== OK  [72] OP:4 RS1:00000001 RS2:00000000 => RD:00000001 (esperado)
=== OK  [73] OP:4 RS1:00000001 RS2:ffffffff => RD:80000000 (esperado)
=== OK  [74] OP:4 RS1:00000001 RS2:7fffffff => RD:80000000 (esperado)
=== OK  [75] OP:4 RS1:00000001 RS2:80000000 => RD:00000001 (esperado)
=== OK  [76] OP:4 RS1:00000001 RS2:00000001 => RD:00000002 (esperado)
=== OK  [77] OP:4 RS1:00000001 RS2:fffffffe => RD:40000000 (esperado)
=== OK  [78] OP:4 RS1:00000001 RS2:00000002 => RD:00000004 (esperado)
=== OK  [79] OP:4 RS1:00000001 RS2:fffffffd => RD:20000000 (esperado)
=== OK  [80] OP:4 RS1:00000001 RS2:00000003 => RD:00000008 (esperado)
=== OK  [81] OP:4 RS1:00000001 RS2:fffffffc => RD:10000000 (esperado)
=== OK  [82] OP:4 RS1:00000001 RS2:a5a5a5a5 => RD:00000020 (esperado)
=== OK  [83] OP:4 RS1:00000001 RS2:5a5a5a5a => RD:04000000 (esperado)
=== OK  [84] OP:4 RS1:00000001 RS2:12345678 => RD:01000000 (esperado)
=== OK  [85] OP:4 RS1:00000001 RS2:87654321 => RD:00000002 (esperado)
=== OK  [86] OP:4 RS1:00000001 RS2:0000000f => RD:00008000 (esperado)
=== OK  [87] OP:4 RS1:00000001 RS2:000000f0 => RD:00010000 (esperado)
=== OK  [88] OP:4 RS1:00000001 RS2:000000ff => RD:80000000 (esperado)
=== OK  [89] OP:4 RS1:00000001 RS2:00000010 => RD:00010000 (esperado)
=== OK  [90] OP:4 RS1:fffffffe RS2:00000000 => RD:fffffffe (esperado)
=== OK  [91] OP:4 RS1:fffffffe RS2:ffffffff => RD:00000000 (esperado)
=== OK  [92] OP:4 RS1:fffffffe RS2:7fffffff => RD:00000000 (esperado)
=== OK  [93] OP:4 RS1:fffffffe RS2:80000000 => RD:fffffffe (esperado)
=== OK  [94] OP:4 RS1:fffffffe RS2:00000001 => RD:fffffffc (esperado)
=== OK  [95] OP:4 RS1:fffffffe RS2:fffffffe => RD:80000000 (esperado)
=== OK  [96] OP:4 RS1:fffffffe RS2:00000002 => RD:fffffff8 (esperado)
=== OK  [97] OP:4 RS1:fffffffe RS2:fffffffd => RD:c0000000 (esperado)
=== OK  [98] OP:4 RS1:fffffffe RS2:00000003 => RD:fffffff0 (esperado)
=== OK  [99] OP:4 RS1:fffffffe RS2:fffffffc => RD:e0000000 (esperado)
=== OK  [100] OP:4 RS1:fffffffe RS2:a5a5a5a5 => RD:ffffffc0 (esperado)
=== OK  [101] OP:4 RS1:fffffffe RS2:5a5a5a5a => RD:f8000000 (esperado)
=== OK  [102] OP:4 RS1:fffffffe RS2:12345678 => RD:fe000000 (esperado)
=== OK  [103] OP:4 RS1:fffffffe RS2:87654321 => RD:fffffffc (esperado)
=== OK  [104] OP:4 RS1:fffffffe RS2:0000000f => RD:ffff0000 (esperado)
=== OK  [105] OP:4 RS1:fffffffe RS2:000000f0 => RD:fffe0000 (esperado)
=== OK  [106] OP:4 RS1:fffffffe RS2:000000ff => RD:00000000 (esperado)
=== OK  [107] OP:4 RS1:fffffffe RS2:00000010 => RD:fffe0000 (esperado)
=== OK  [108] OP:4 RS1:00000002 RS2:00000000 => RD:00000002 (esperado)
=== OK  [109] OP:4 RS1:00000002 RS2:ffffffff => RD:00000000 (esperado)
=== OK  [110] OP:4 RS1:00000002 RS2:7fffffff => RD:00000000 (esperado)
=== OK  [111] OP:4 RS1:00000002 RS2:80000000 => RD:00000002 (esperado)
=== OK  [112] OP:4 RS1:00000002 RS2:00000001 => RD:00000004 (esperado)
=== OK  [113] OP:4 RS1:00000002 RS2:fffffffe => RD:80000000 (esperado)
=== OK  [114] OP:4 RS1:00000002 RS2:00000002 => RD:00000008 (esperado)
=== OK  [115] OP:4 RS1:00000002 RS2:fffffffd => RD:40000000 (esperado)
=== OK  [116] OP:4 RS1:00000002 RS2:00000003 => RD:00000010 (esperado)
=== OK  [117] OP:4 RS1:00000002 RS2:fffffffc => RD:20000000 (esperado)
=== OK  [118] OP:4 RS1:00000002 RS2:a5a5a5a5 => RD:00000040 (esperado)
=== OK  [119] OP:4 RS1:00000002 RS2:5a5a5a5a => RD:08000000 (esperado)
=== OK  [120] OP:4 RS1:00000002 RS2:12345678 => RD:02000000 (esperado)
=== OK  [121] OP:4 RS1:00000002 RS2:87654321 => RD:00000004 (esperado)
=== OK  [122] OP:4 RS1:00000002 RS2:0000000f => RD:00010000 (esperado)
=== OK  [123] OP:4 RS1:00000002 RS2:000000f0 => RD:00020000 (esperado)
=== OK  [124] OP:4 RS1:00000002 RS2:000000ff => RD:00000000 (esperado)
=== OK  [125] OP:4 RS1:00000002 RS2:00000010 => RD:00020000 (esperado)
=== OK  [126] OP:4 RS1:fffffffd RS2:00000000 => RD:fffffffd (esperado)
=== OK  [127] OP:4 RS1:fffffffd RS2:ffffffff => RD:80000000 (esperado)
=== OK  [128] OP:4 RS1:fffffffd RS2:7fffffff => RD:80000000 (esperado)
=== OK  [129] OP:4 RS1:fffffffd RS2:80000000 => RD:fffffffd (esperado)
=== OK  [130] OP:4 RS1:fffffffd RS2:00000001 => RD:fffffffa (esperado)
=== OK  [131] OP:4 RS1:fffffffd RS2:fffffffe => RD:40000000 (esperado)
=== OK  [132] OP:4 RS1:fffffffd RS2:00000002 => RD:fffffff4 (esperado)
=== OK  [133] OP:4 RS1:fffffffd RS2:fffffffd => RD:a0000000 (esperado)
=== OK  [134] OP:4 RS1:fffffffd RS2:00000003 => RD:ffffffe8 (esperado)
=== OK  [135] OP:4 RS1:fffffffd RS2:fffffffc => RD:d0000000 (esperado)
=== OK  [136] OP:4 RS1:fffffffd RS2:a5a5a5a5 => RD:ffffffa0 (esperado)
=== OK  [137] OP:4 RS1:fffffffd RS2:5a5a5a5a => RD:f4000000 (esperado)
=== OK  [138] OP:4 RS1:fffffffd RS2:12345678 => RD:fd000000 (esperado)
=== OK  [139] OP:4 RS1:fffffffd RS2:87654321 => RD:fffffffa (esperado)
=== OK  [140] OP:4 RS1:fffffffd RS2:0000000f => RD:fffe8000 (esperado)
=== OK  [141] OP:4 RS1:fffffffd RS2:000000f0 => RD:fffd0000 (esperado)
=== OK  [142] OP:4 RS1:fffffffd RS2:000000ff => RD:80000000 (esperado)
=== OK  [143] OP:4 RS1:fffffffd RS2:00000010 => RD:fffd0000 (esperado)
=== OK  [144] OP:4 RS1:00000003 RS2:00000000 => RD:00000003 (esperado)
=== OK  [145] OP:4 RS1:00000003 RS2:ffffffff => RD:80000000 (esperado)
=== OK  [146] OP:4 RS1:00000003 RS2:7fffffff => RD:80000000 (esperado)
=== OK  [147] OP:4 RS1:00000003 RS2:80000000 => RD:00000003 (esperado)
=== OK  [148] OP:4 RS1:00000003 RS2:00000001 => RD:00000006 (esperado)
=== OK  [149] OP:4 RS1:00000003 RS2:fffffffe => RD:c0000000 (esperado)
=== OK  [150] OP:4 RS1:00000003 RS2:00000002 => RD:0000000c (esperado)
=== OK  [151] OP:4 RS1:00000003 RS2:fffffffd => RD:60000000 (esperado)
=== OK  [152] OP:4 RS1:00000003 RS2:00000003 => RD:00000018 (esperado)
=== OK  [153] OP:4 RS1:00000003 RS2:fffffffc => RD:30000000 (esperado)
=== OK  [154] OP:4 RS1:00000003 RS2:a5a5a5a5 => RD:00000060 (esperado)
=== OK  [155] OP:4 RS1:00000003 RS2:5a5a5a5a => RD:0c000000 (esperado)
=== OK  [156] OP:4 RS1:00000003 RS2:12345678 => RD:03000000 (esperado)
=== OK  [157] OP:4 RS1:00000003 RS2:87654321 => RD:00000006 (esperado)
=== OK  [158] OP:4 RS1:00000003 RS2:0000000f => RD:00018000 (esperado)
=== OK  [159] OP:4 RS1:00000003 RS2:000000f0 => RD:00030000 (esperado)
=== OK  [160] OP:4 RS1:00000003 RS2:000000ff => RD:80000000 (esperado)
=== OK  [161] OP:4 RS1:00000003 RS2:00000010 => RD:00030000 (esperado)
=== OK  [162] OP:4 RS1:fffffffc RS2:00000000 => RD:fffffffc (esperado)
=== OK  [163] OP:4 RS1:fffffffc RS2:ffffffff => RD:00000000 (esperado)
=== OK  [164] OP:4 RS1:fffffffc RS2:7fffffff => RD:00000000 (esperado)
=== OK  [165] OP:4 RS1:fffffffc RS2:80000000 => RD:fffffffc (esperado)
=== OK  [166] OP:4 RS1:fffffffc RS2:00000001 => RD:fffffff8 (esperado)
=== OK  [167] OP:4 RS1:fffffffc RS2:fffffffe => RD:00000000 (esperado)
=== OK  [168] OP:4 RS1:fffffffc RS2:00000002 => RD:fffffff0 (esperado)
=== OK  [169] OP:4 RS1:fffffffc RS2:fffffffd => RD:80000000 (esperado)
=== OK  [170] OP:4 RS1:fffffffc RS2:00000003 => RD:ffffffe0 (esperado)
=== OK  [171] OP:4 RS1:fffffffc RS2:fffffffc => RD:c0000000 (esperado)
=== OK  [172] OP:4 RS1:fffffffc RS2:a5a5a5a5 => RD:ffffff80 (esperado)
=== OK  [173] OP:4 RS1:fffffffc RS2:5a5a5a5a => RD:f0000000 (esperado)
=== OK  [174] OP:4 RS1:fffffffc RS2:12345678 => RD:fc000000 (esperado)
=== OK  [175] OP:4 RS1:fffffffc RS2:87654321 => RD:fffffff8 (esperado)
=== OK  [176] OP:4 RS1:fffffffc RS2:0000000f => RD:fffe0000 (esperado)
=== OK  [177] OP:4 RS1:fffffffc RS2:000000f0 => RD:fffc0000 (esperado)
=== OK  [178] OP:4 RS1:fffffffc RS2:000000ff => RD:00000000 (esperado)
=== OK  [179] OP:4 RS1:fffffffc RS2:00000010 => RD:fffc0000 (esperado)
=== OK  [180] OP:4 RS1:a5a5a5a5 RS2:00000000 => RD:a5a5a5a5 (esperado)
=== OK  [181] OP:4 RS1:a5a5a5a5 RS2:ffffffff => RD:80000000 (esperado)
=== OK  [182] OP:4 RS1:a5a5a5a5 RS2:7fffffff => RD:80000000 (esperado)
=== OK  [183] OP:4 RS1:a5a5a5a5 RS2:80000000 => RD:a5a5a5a5 (esperado)
=== OK  [184] OP:4 RS1:a5a5a5a5 RS2:00000001 => RD:4b4b4b4a (esperado)
=== OK  [185] OP:4 RS1:a5a5a5a5 RS2:fffffffe => RD:40000000 (esperado)
=== OK  [186] OP:4 RS1:a5a5a5a5 RS2:00000002 => RD:96969694 (esperado)
=== OK  [187] OP:4 RS1:a5a5a5a5 RS2:fffffffd => RD:a0000000 (esperado)
=== OK  [188] OP:4 RS1:a5a5a5a5 RS2:00000003 => RD:2d2d2d28 (esperado)
=== OK  [189] OP:4 RS1:a5a5a5a5 RS2:fffffffc => RD:50000000 (esperado)
=== OK  [190] OP:4 RS1:a5a5a5a5 RS2:a5a5a5a5 => RD:b4b4b4a0 (esperado)
=== OK  [191] OP:4 RS1:a5a5a5a5 RS2:5a5a5a5a => RD:94000000 (esperado)
=== OK  [192] OP:4 RS1:a5a5a5a5 RS2:12345678 => RD:a5000000 (esperado)
=== OK  [193] OP:4 RS1:a5a5a5a5 RS2:87654321 => RD:4b4b4b4a (esperado)
=== OK  [194] OP:4 RS1:a5a5a5a5 RS2:0000000f => RD:d2d28000 (esperado)
=== OK  [195] OP:4 RS1:a5a5a5a5 RS2:000000f0 => RD:a5a50000 (esperado)
=== OK  [196] OP:4 RS1:a5a5a5a5 RS2:000000ff => RD:80000000 (esperado)
=== OK  [197] OP:4 RS1:a5a5a5a5 RS2:00000010 => RD:a5a50000 (esperado)
=== OK  [198] OP:4 RS1:5a5a5a5a RS2:00000000 => RD:5a5a5a5a (esperado)
=== OK  [199] OP:4 RS1:5a5a5a5a RS2:ffffffff => RD:00000000 (esperado)
=== OK  [200] OP:4 RS1:5a5a5a5a RS2:7fffffff => RD:00000000 (esperado)
=== OK  [201] OP:4 RS1:5a5a5a5a RS2:80000000 => RD:5a5a5a5a (esperado)
=== OK  [202] OP:4 RS1:5a5a5a5a RS2:00000001 => RD:b4b4b4b4 (esperado)
=== OK  [203] OP:4 RS1:5a5a5a5a RS2:fffffffe => RD:80000000 (esperado)
=== OK  [204] OP:4 RS1:5a5a5a5a RS2:00000002 => RD:69696968 (esperado)
=== OK  [205] OP:4 RS1:5a5a5a5a RS2:fffffffd => RD:40000000 (esperado)
=== OK  [206] OP:4 RS1:5a5a5a5a RS2:00000003 => RD:d2d2d2d0 (esperado)
=== OK  [207] OP:4 RS1:5a5a5a5a RS2:fffffffc => RD:a0000000 (esperado)
=== OK  [208] OP:4 RS1:5a5a5a5a RS2:a5a5a5a5 => RD:4b4b4b40 (esperado)
=== OK  [209] OP:4 RS1:5a5a5a5a RS2:5a5a5a5a => RD:68000000 (esperado)
=== OK  [210] OP:4 RS1:5a5a5a5a RS2:12345678 => RD:5a000000 (esperado)
=== OK  [211] OP:4 RS1:5a5a5a5a RS2:87654321 => RD:b4b4b4b4 (esperado)
=== OK  [212] OP:4 RS1:5a5a5a5a RS2:0000000f => RD:2d2d0000 (esperado)
=== OK  [213] OP:4 RS1:5a5a5a5a RS2:000000f0 => RD:5a5a0000 (esperado)
=== OK  [214] OP:4 RS1:5a5a5a5a RS2:000000ff => RD:00000000 (esperado)
=== OK  [215] OP:4 RS1:5a5a5a5a RS2:00000010 => RD:5a5a0000 (esperado)
=== OK  [216] OP:4 RS1:12345678 RS2:00000000 => RD:12345678 (esperado)
=== OK  [217] OP:4 RS1:12345678 RS2:ffffffff => RD:00000000 (esperado)
=== OK  [218] OP:4 RS1:12345678 RS2:7fffffff => RD:00000000 (esperado)
=== OK  [219] OP:4 RS1:12345678 RS2:80000000 => RD:12345678 (esperado)
=== OK  [220] OP:4 RS1:12345678 RS2:00000001 => RD:2468acf0 (esperado)
=== OK  [221] OP:4 RS1:12345678 RS2:fffffffe => RD:00000000 (esperado)
=== OK  [222] OP:4 RS1:12345678 RS2:00000002 => RD:48d159e0 (esperado)
=== OK  [223] OP:4 RS1:12345678 RS2:fffffffd => RD:00000000 (esperado)
=== OK  [224] OP:4 RS1:12345678 RS2:00000003 => RD:91a2b3c0 (esperado)
=== OK  [225] OP:4 RS1:12345678 RS2:fffffffc => RD:80000000 (esperado)
=== OK  [226] OP:4 RS1:12345678 RS2:a5a5a5a5 => RD:468acf00 (esperado)
=== OK  [227] OP:4 RS1:12345678 RS2:5a5a5a5a => RD:e0000000 (esperado)
=== OK  [228] OP:4 RS1:12345678 RS2:12345678 => RD:78000000 (esperado)
=== OK  [229] OP:4 RS1:12345678 RS2:87654321 => RD:2468acf0 (esperado)
=== OK  [230] OP:4 RS1:12345678 RS2:0000000f => RD:2b3c0000 (esperado)
=== OK  [231] OP:4 RS1:12345678 RS2:000000f0 => RD:56780000 (esperado)
=== OK  [232] OP:4 RS1:12345678 RS2:000000ff => RD:00000000 (esperado)
=== OK  [233] OP:4 RS1:12345678 RS2:00000010 => RD:56780000 (esperado)
=== OK  [234] OP:4 RS1:87654321 RS2:00000000 => RD:87654321 (esperado)
=== OK  [235] OP:4 RS1:87654321 RS2:ffffffff => RD:80000000 (esperado)
=== OK  [236] OP:4 RS1:87654321 RS2:7fffffff => RD:80000000 (esperado)
=== OK  [237] OP:4 RS1:87654321 RS2:80000000 => RD:87654321 (esperado)
=== OK  [238] OP:4 RS1:87654321 RS2:00000001 => RD:0eca8642 (esperado)
=== OK  [239] OP:4 RS1:87654321 RS2:fffffffe => RD:40000000 (esperado)
=== OK  [240] OP:4 RS1:87654321 RS2:00000002 => RD:1d950c84 (esperado)
=== OK  [241] OP:4 RS1:87654321 RS2:fffffffd => RD:20000000 (esperado)
=== OK  [242] OP:4 RS1:87654321 RS2:00000003 => RD:3b2a1908 (esperado)
=== OK  [243] OP:4 RS1:87654321 RS2:fffffffc => RD:10000000 (esperado)
=== OK  [244] OP:4 RS1:87654321 RS2:a5a5a5a5 => RD:eca86420 (esperado)
=== OK  [245] OP:4 RS1:87654321 RS2:5a5a5a5a => RD:84000000 (esperado)
=== OK  [246] OP:4 RS1:87654321 RS2:12345678 => RD:21000000 (esperado)
=== OK  [247] OP:4 RS1:87654321 RS2:87654321 => RD:0eca8642 (esperado)
=== OK  [248] OP:4 RS1:87654321 RS2:0000000f => RD:a1908000 (esperado)
=== OK  [249] OP:4 RS1:87654321 RS2:000000f0 => RD:43210000 (esperado)
=== OK  [250] OP:4 RS1:87654321 RS2:000000ff => RD:80000000 (esperado)
=== OK  [251] OP:4 RS1:87654321 RS2:00000010 => RD:43210000 (esperado)
=== OK  [252] OP:4 RS1:0000000f RS2:00000000 => RD:0000000f (esperado)
=== OK  [253] OP:4 RS1:0000000f RS2:ffffffff => RD:80000000 (esperado)
=== OK  [254] OP:4 RS1:0000000f RS2:7fffffff => RD:80000000 (esperado)
=== OK  [255] OP:4 RS1:0000000f RS2:80000000 => RD:0000000f (esperado)
=== OK  [256] OP:4 RS1:0000000f RS2:00000001 => RD:0000001e (esperado)
=== OK  [257] OP:4 RS1:0000000f RS2:fffffffe => RD:c0000000 (esperado)
=== OK  [258] OP:4 RS1:0000000f RS2:00000002 => RD:0000003c (esperado)
=== OK  [259] OP:4 RS1:0000000f RS2:fffffffd => RD:e0000000 (esperado)
=== OK  [260] OP:4 RS1:0000000f RS2:00000003 => RD:00000078 (esperado)
=== OK  [261] OP:4 RS1:0000000f RS2:fffffffc => RD:f0000000 (esperado)
=== OK  [262] OP:4 RS1:0000000f RS2:a5a5a5a5 => RD:000001e0 (esperado)
=== OK  [263] OP:4 RS1:0000000f RS2:5a5a5a5a => RD:3c000000 (esperado)
=== OK  [264] OP:4 RS1:0000000f RS2:12345678 => RD:0f000000 (esperado)
=== OK  [265] OP:4 RS1:0000000f RS2:87654321 => RD:0000001e (esperado)
=== OK  [266] OP:4 RS1:0000000f RS2:0000000f => RD:00078000 (esperado)
=== OK  [267] OP:4 RS1:0000000f RS2:000000f0 => RD:000f0000 (esperado)
=== OK  [268] OP:4 RS1:0000000f RS2:000000ff => RD:80000000 (esperado)
=== OK  [269] OP:4 RS1:0000000f RS2:00000010 => RD:000f0000 (esperado)
=== OK  [270] OP:4 RS1:000000f0 RS2:00000000 => RD:000000f0 (esperado)
=== OK  [271] OP:4 RS1:000000f0 RS2:ffffffff => RD:00000000 (esperado)
=== OK  [272] OP:4 RS1:000000f0 RS2:7fffffff => RD:00000000 (esperado)
=== OK  [273] OP:4 RS1:000000f0 RS2:80000000 => RD:000000f0 (esperado)
=== OK  [274] OP:4 RS1:000000f0 RS2:00000001 => RD:000001e0 (esperado)
=== OK  [275] OP:4 RS1:000000f0 RS2:fffffffe => RD:00000000 (esperado)
=== OK  [276] OP:4 RS1:000000f0 RS2:00000002 => RD:000003c0 (esperado)
=== OK  [277] OP:4 RS1:000000f0 RS2:fffffffd => RD:00000000 (esperado)
=== OK  [278] OP:4 RS1:000000f0 RS2:00000003 => RD:00000780 (esperado)
=== OK  [279] OP:4 RS1:000000f0 RS2:fffffffc => RD:00000000 (esperado)
=== OK  [280] OP:4 RS1:000000f0 RS2:a5a5a5a5 => RD:00001e00 (esperado)
=== OK  [281] OP:4 RS1:000000f0 RS2:5a5a5a5a => RD:c0000000 (esperado)
=== OK  [282] OP:4 RS1:000000f0 RS2:12345678 => RD:f0000000 (esperado)
=== OK  [283] OP:4 RS1:000000f0 RS2:87654321 => RD:000001e0 (esperado)
=== OK  [284] OP:4 RS1:000000f0 RS2:0000000f => RD:00780000 (esperado)
=== OK  [285] OP:4 RS1:000000f0 RS2:000000f0 => RD:00f00000 (esperado)
=== OK  [286] OP:4 RS1:000000f0 RS2:000000ff => RD:00000000 (esperado)
=== OK  [287] OP:4 RS1:000000f0 RS2:00000010 => RD:00f00000 (esperado)
=== OK  [288] OP:4 RS1:000000ff RS2:00000000 => RD:000000ff (esperado)
=== OK  [289] OP:4 RS1:000000ff RS2:ffffffff => RD:80000000 (esperado)
=== OK  [290] OP:4 RS1:000000ff RS2:7fffffff => RD:80000000 (esperado)
=== OK  [291] OP:4 RS1:000000ff RS2:80000000 => RD:000000ff (esperado)
=== OK  [292] OP:4 RS1:000000ff RS2:00000001 => RD:000001fe (esperado)
=== OK  [293] OP:4 RS1:000000ff RS2:fffffffe => RD:c0000000 (esperado)
=== OK  [294] OP:4 RS1:000000ff RS2:00000002 => RD:000003fc (esperado)
=== OK  [295] OP:4 RS1:000000ff RS2:fffffffd => RD:e0000000 (esperado)
=== OK  [296] OP:4 RS1:000000ff RS2:00000003 => RD:000007f8 (esperado)
=== OK  [297] OP:4 RS1:000000ff RS2:fffffffc => RD:f0000000 (esperado)
=== OK  [298] OP:4 RS1:000000ff RS2:a5a5a5a5 => RD:00001fe0 (esperado)
=== OK  [299] OP:4 RS1:000000ff RS2:5a5a5a5a => RD:fc000000 (esperado)
=== OK  [300] OP:4 RS1:000000ff RS2:12345678 => RD:ff000000 (esperado)
=== OK  [301] OP:4 RS1:000000ff RS2:87654321 => RD:000001fe (esperado)
=== OK  [302] OP:4 RS1:000000ff RS2:0000000f => RD:007f8000 (esperado)
=== OK  [303] OP:4 RS1:000000ff RS2:000000f0 => RD:00ff0000 (esperado)
=== OK  [304] OP:4 RS1:000000ff RS2:000000ff => RD:80000000 (esperado)
=== OK  [305] OP:4 RS1:000000ff RS2:00000010 => RD:00ff0000 (esperado)
=== OK  [306] OP:4 RS1:00000010 RS2:00000000 => RD:00000010 (esperado)
=== OK  [307] OP:4 RS1:00000010 RS2:ffffffff => RD:00000000 (esperado)
=== OK  [308] OP:4 RS1:00000010 RS2:7fffffff => RD:00000000 (esperado)
=== OK  [309] OP:4 RS1:00000010 RS2:80000000 => RD:00000010 (esperado)
=== OK  [310] OP:4 RS1:00000010 RS2:00000001 => RD:00000020 (esperado)
=== OK  [311] OP:4 RS1:00000010 RS2:fffffffe => RD:00000000 (esperado)
=== OK  [312] OP:4 RS1:00000010 RS2:00000002 => RD:00000040 (esperado)
=== OK  [313] OP:4 RS1:00000010 RS2:fffffffd => RD:00000000 (esperado)
=== OK  [314] OP:4 RS1:00000010 RS2:00000003 => RD:00000080 (esperado)
=== OK  [315] OP:4 RS1:00000010 RS2:fffffffc => RD:00000000 (esperado)
=== OK  [316] OP:4 RS1:00000010 RS2:a5a5a5a5 => RD:00000200 (esperado)
=== OK  [317] OP:4 RS1:00000010 RS2:5a5a5a5a => RD:40000000 (esperado)
=== OK  [318] OP:4 RS1:00000010 RS2:12345678 => RD:10000000 (esperado)
=== OK  [319] OP:4 RS1:00000010 RS2:87654321 => RD:00000020 (esperado)
=== OK  [320] OP:4 RS1:00000010 RS2:0000000f => RD:00080000 (esperado)
=== OK  [321] OP:4 RS1:00000010 RS2:000000f0 => RD:00100000 (esperado)
=== OK  [322] OP:4 RS1:00000010 RS2:000000ff => RD:00000000 (esperado)
=== OK  [323] OP:4 RS1:00000010 RS2:00000010 => RD:00100000 (esperado)
Testbench finalizado com sucesso.
