test/saida10.out
VCD info: dumpfile saida.vcd opened for output.
Iniciando Testbench...
WARNING: tb.v:32: $readmemh(teste.txt): Not enough words in the file for the requested range [0:512].
=== OK  [0] OP:a RS1:00000000 RS2:00000000 => RD:00000000 (esperado)
=== OK  [1] OP:a RS1:00000000 RS2:ffffffff => RD:00000001 (esperado)
=== OK  [2] OP:a RS1:00000000 RS2:7fffffff => RD:80000001 (esperado)
=== OK  [3] OP:a RS1:00000000 RS2:80000000 => RD:80000000 (esperado)
=== OK  [4] OP:a RS1:00000000 RS2:00000001 => RD:ffffffff (esperado)
=== OK  [5] OP:a RS1:00000000 RS2:fffffffe => RD:00000002 (esperado)
=== OK  [6] OP:a RS1:00000000 RS2:00000002 => RD:fffffffe (esperado)
=== OK  [7] OP:a RS1:00000000 RS2:fffffffd => RD:00000003 (esperado)
=== OK  [8] OP:a RS1:00000000 RS2:00000003 => RD:fffffffd (esperado)
=== OK  [9] OP:a RS1:00000000 RS2:fffffffc => RD:00000004 (esperado)
=== OK  [10] OP:a RS1:00000000 RS2:a5a5a5a5 => RD:5a5a5a5b (esperado)
=== OK  [11] OP:a RS1:00000000 RS2:5a5a5a5a => RD:a5a5a5a6 (esperado)
=== OK  [12] OP:a RS1:00000000 RS2:12345678 => RD:edcba988 (esperado)
=== OK  [13] OP:a RS1:00000000 RS2:87654321 => RD:789abcdf (esperado)
=== OK  [14] OP:a RS1:00000000 RS2:0000000f => RD:fffffff1 (esperado)
=== OK  [15] OP:a RS1:00000000 RS2:000000f0 => RD:ffffff10 (esperado)
=== OK  [16] OP:a RS1:00000000 RS2:000000ff => RD:ffffff01 (esperado)
=== OK  [17] OP:a RS1:00000000 RS2:00000010 => RD:fffffff0 (esperado)
=== OK  [18] OP:a RS1:ffffffff RS2:00000000 => RD:ffffffff (esperado)
=== OK  [19] OP:a RS1:ffffffff RS2:ffffffff => RD:00000000 (esperado)
=== OK  [20] OP:a RS1:ffffffff RS2:7fffffff => RD:80000000 (esperado)
=== OK  [21] OP:a RS1:ffffffff RS2:80000000 => RD:7fffffff (esperado)
=== OK  [22] OP:a RS1:ffffffff RS2:00000001 => RD:fffffffe (esperado)
=== OK  [23] OP:a RS1:ffffffff RS2:fffffffe => RD:00000001 (esperado)
=== OK  [24] OP:a RS1:ffffffff RS2:00000002 => RD:fffffffd (esperado)
=== OK  [25] OP:a RS1:ffffffff RS2:fffffffd => RD:00000002 (esperado)
=== OK  [26] OP:a RS1:ffffffff RS2:00000003 => RD:fffffffc (esperado)
=== OK  [27] OP:a RS1:ffffffff RS2:fffffffc => RD:00000003 (esperado)
=== OK  [28] OP:a RS1:ffffffff RS2:a5a5a5a5 => RD:5a5a5a5a (esperado)
=== OK  [29] OP:a RS1:ffffffff RS2:5a5a5a5a => RD:a5a5a5a5 (esperado)
=== OK  [30] OP:a RS1:ffffffff RS2:12345678 => RD:edcba987 (esperado)
=== OK  [31] OP:a RS1:ffffffff RS2:87654321 => RD:789abcde (esperado)
=== OK  [32] OP:a RS1:ffffffff RS2:0000000f => RD:fffffff0 (esperado)
=== OK  [33] OP:a RS1:ffffffff RS2:000000f0 => RD:ffffff0f (esperado)
=== OK  [34] OP:a RS1:ffffffff RS2:000000ff => RD:ffffff00 (esperado)
=== OK  [35] OP:a RS1:ffffffff RS2:00000010 => RD:ffffffef (esperado)
=== OK  [36] OP:a RS1:7fffffff RS2:00000000 => RD:7fffffff (esperado)
=== OK  [37] OP:a RS1:7fffffff RS2:ffffffff => RD:80000000 (esperado)
=== OK  [38] OP:a RS1:7fffffff RS2:7fffffff => RD:00000000 (esperado)
=== OK  [39] OP:a RS1:7fffffff RS2:80000000 => RD:ffffffff (esperado)
=== OK  [40] OP:a RS1:7fffffff RS2:00000001 => RD:7ffffffe (esperado)
=== OK  [41] OP:a RS1:7fffffff RS2:fffffffe => RD:80000001 (esperado)
=== OK  [42] OP:a RS1:7fffffff RS2:00000002 => RD:7ffffffd (esperado)
=== OK  [43] OP:a RS1:7fffffff RS2:fffffffd => RD:80000002 (esperado)
=== OK  [44] OP:a RS1:7fffffff RS2:00000003 => RD:7ffffffc (esperado)
=== OK  [45] OP:a RS1:7fffffff RS2:fffffffc => RD:80000003 (esperado)
=== OK  [46] OP:a RS1:7fffffff RS2:a5a5a5a5 => RD:da5a5a5a (esperado)
=== OK  [47] OP:a RS1:7fffffff RS2:5a5a5a5a => RD:25a5a5a5 (esperado)
=== OK  [48] OP:a RS1:7fffffff RS2:12345678 => RD:6dcba987 (esperado)
=== OK  [49] OP:a RS1:7fffffff RS2:87654321 => RD:f89abcde (esperado)
=== OK  [50] OP:a RS1:7fffffff RS2:0000000f => RD:7ffffff0 (esperado)
=== OK  [51] OP:a RS1:7fffffff RS2:000000f0 => RD:7fffff0f (esperado)
=== OK  [52] OP:a RS1:7fffffff RS2:000000ff => RD:7fffff00 (esperado)
=== OK  [53] OP:a RS1:7fffffff RS2:00000010 => RD:7fffffef (esperado)
=== OK  [54] OP:a RS1:80000000 RS2:00000000 => RD:80000000 (esperado)
=== OK  [55] OP:a RS1:80000000 RS2:ffffffff => RD:80000001 (esperado)
=== OK  [56] OP:a RS1:80000000 RS2:7fffffff => RD:00000001 (esperado)
=== OK  [57] OP:a RS1:80000000 RS2:80000000 => RD:00000000 (esperado)
=== OK  [58] OP:a RS1:80000000 RS2:00000001 => RD:7fffffff (esperado)
=== OK  [59] OP:a RS1:80000000 RS2:fffffffe => RD:80000002 (esperado)
=== OK  [60] OP:a RS1:80000000 RS2:00000002 => RD:7ffffffe (esperado)
=== OK  [61] OP:a RS1:80000000 RS2:fffffffd => RD:80000003 (esperado)
=== OK  [62] OP:a RS1:80000000 RS2:00000003 => RD:7ffffffd (esperado)
=== OK  [63] OP:a RS1:80000000 RS2:fffffffc => RD:80000004 (esperado)
=== OK  [64] OP:a RS1:80000000 RS2:a5a5a5a5 => RD:da5a5a5b (esperado)
=== OK  [65] OP:a RS1:80000000 RS2:5a5a5a5a => RD:25a5a5a6 (esperado)
=== OK  [66] OP:a RS1:80000000 RS2:12345678 => RD:6dcba988 (esperado)
=== OK  [67] OP:a RS1:80000000 RS2:87654321 => RD:f89abcdf (esperado)
=== OK  [68] OP:a RS1:80000000 RS2:0000000f => RD:7ffffff1 (esperado)
=== OK  [69] OP:a RS1:80000000 RS2:000000f0 => RD:7fffff10 (esperado)
=== OK  [70] OP:a RS1:80000000 RS2:000000ff => RD:7fffff01 (esperado)
=== OK  [71] OP:a RS1:80000000 RS2:00000010 => RD:7ffffff0 (esperado)
=== OK  [72] OP:a RS1:00000001 RS2:00000000 => RD:00000001 (esperado)
=== OK  [73] OP:a RS1:00000001 RS2:ffffffff => RD:00000002 (esperado)
=== OK  [74] OP:a RS1:00000001 RS2:7fffffff => RD:80000002 (esperado)
=== OK  [75] OP:a RS1:00000001 RS2:80000000 => RD:80000001 (esperado)
=== OK  [76] OP:a RS1:00000001 RS2:00000001 => RD:00000000 (esperado)
=== OK  [77] OP:a RS1:00000001 RS2:fffffffe => RD:00000003 (esperado)
=== OK  [78] OP:a RS1:00000001 RS2:00000002 => RD:ffffffff (esperado)
=== OK  [79] OP:a RS1:00000001 RS2:fffffffd => RD:00000004 (esperado)
=== OK  [80] OP:a RS1:00000001 RS2:00000003 => RD:fffffffe (esperado)
=== OK  [81] OP:a RS1:00000001 RS2:fffffffc => RD:00000005 (esperado)
=== OK  [82] OP:a RS1:00000001 RS2:a5a5a5a5 => RD:5a5a5a5c (esperado)
=== OK  [83] OP:a RS1:00000001 RS2:5a5a5a5a => RD:a5a5a5a7 (esperado)
=== OK  [84] OP:a RS1:00000001 RS2:12345678 => RD:edcba989 (esperado)
=== OK  [85] OP:a RS1:00000001 RS2:87654321 => RD:789abce0 (esperado)
=== OK  [86] OP:a RS1:00000001 RS2:0000000f => RD:fffffff2 (esperado)
=== OK  [87] OP:a RS1:00000001 RS2:000000f0 => RD:ffffff11 (esperado)
=== OK  [88] OP:a RS1:00000001 RS2:000000ff => RD:ffffff02 (esperado)
=== OK  [89] OP:a RS1:00000001 RS2:00000010 => RD:fffffff1 (esperado)
=== OK  [90] OP:a RS1:fffffffe RS2:00000000 => RD:fffffffe (esperado)
=== OK  [91] OP:a RS1:fffffffe RS2:ffffffff => RD:ffffffff (esperado)
=== OK  [92] OP:a RS1:fffffffe RS2:7fffffff => RD:7fffffff (esperado)
=== OK  [93] OP:a RS1:fffffffe RS2:80000000 => RD:7ffffffe (esperado)
=== OK  [94] OP:a RS1:fffffffe RS2:00000001 => RD:fffffffd (esperado)
=== OK  [95] OP:a RS1:fffffffe RS2:fffffffe => RD:00000000 (esperado)
=== OK  [96] OP:a RS1:fffffffe RS2:00000002 => RD:fffffffc (esperado)
=== OK  [97] OP:a RS1:fffffffe RS2:fffffffd => RD:00000001 (esperado)
=== OK  [98] OP:a RS1:fffffffe RS2:00000003 => RD:fffffffb (esperado)
=== OK  [99] OP:a RS1:fffffffe RS2:fffffffc => RD:00000002 (esperado)
=== OK  [100] OP:a RS1:fffffffe RS2:a5a5a5a5 => RD:5a5a5a59 (esperado)
=== OK  [101] OP:a RS1:fffffffe RS2:5a5a5a5a => RD:a5a5a5a4 (esperado)
=== OK  [102] OP:a RS1:fffffffe RS2:12345678 => RD:edcba986 (esperado)
=== OK  [103] OP:a RS1:fffffffe RS2:87654321 => RD:789abcdd (esperado)
=== OK  [104] OP:a RS1:fffffffe RS2:0000000f => RD:ffffffef (esperado)
=== OK  [105] OP:a RS1:fffffffe RS2:000000f0 => RD:ffffff0e (esperado)
=== OK  [106] OP:a RS1:fffffffe RS2:000000ff => RD:fffffeff (esperado)
=== OK  [107] OP:a RS1:fffffffe RS2:00000010 => RD:ffffffee (esperado)
=== OK  [108] OP:a RS1:00000002 RS2:00000000 => RD:00000002 (esperado)
=== OK  [109] OP:a RS1:00000002 RS2:ffffffff => RD:00000003 (esperado)
=== OK  [110] OP:a RS1:00000002 RS2:7fffffff => RD:80000003 (esperado)
=== OK  [111] OP:a RS1:00000002 RS2:80000000 => RD:80000002 (esperado)
=== OK  [112] OP:a RS1:00000002 RS2:00000001 => RD:00000001 (esperado)
=== OK  [113] OP:a RS1:00000002 RS2:fffffffe => RD:00000004 (esperado)
=== OK  [114] OP:a RS1:00000002 RS2:00000002 => RD:00000000 (esperado)
=== OK  [115] OP:a RS1:00000002 RS2:fffffffd => RD:00000005 (esperado)
=== OK  [116] OP:a RS1:00000002 RS2:00000003 => RD:ffffffff (esperado)
=== OK  [117] OP:a RS1:00000002 RS2:fffffffc => RD:00000006 (esperado)
=== OK  [118] OP:a RS1:00000002 RS2:a5a5a5a5 => RD:5a5a5a5d (esperado)
=== OK  [119] OP:a RS1:00000002 RS2:5a5a5a5a => RD:a5a5a5a8 (esperado)
=== OK  [120] OP:a RS1:00000002 RS2:12345678 => RD:edcba98a (esperado)
=== OK  [121] OP:a RS1:00000002 RS2:87654321 => RD:789abce1 (esperado)
=== OK  [122] OP:a RS1:00000002 RS2:0000000f => RD:fffffff3 (esperado)
=== OK  [123] OP:a RS1:00000002 RS2:000000f0 => RD:ffffff12 (esperado)
=== OK  [124] OP:a RS1:00000002 RS2:000000ff => RD:ffffff03 (esperado)
=== OK  [125] OP:a RS1:00000002 RS2:00000010 => RD:fffffff2 (esperado)
=== OK  [126] OP:a RS1:fffffffd RS2:00000000 => RD:fffffffd (esperado)
=== OK  [127] OP:a RS1:fffffffd RS2:ffffffff => RD:fffffffe (esperado)
=== OK  [128] OP:a RS1:fffffffd RS2:7fffffff => RD:7ffffffe (esperado)
=== OK  [129] OP:a RS1:fffffffd RS2:80000000 => RD:7ffffffd (esperado)
=== OK  [130] OP:a RS1:fffffffd RS2:00000001 => RD:fffffffc (esperado)
=== OK  [131] OP:a RS1:fffffffd RS2:fffffffe => RD:ffffffff (esperado)
=== OK  [132] OP:a RS1:fffffffd RS2:00000002 => RD:fffffffb (esperado)
=== OK  [133] OP:a RS1:fffffffd RS2:fffffffd => RD:00000000 (esperado)
=== OK  [134] OP:a RS1:fffffffd RS2:00000003 => RD:fffffffa (esperado)
=== OK  [135] OP:a RS1:fffffffd RS2:fffffffc => RD:00000001 (esperado)
=== OK  [136] OP:a RS1:fffffffd RS2:a5a5a5a5 => RD:5a5a5a58 (esperado)
=== OK  [137] OP:a RS1:fffffffd RS2:5a5a5a5a => RD:a5a5a5a3 (esperado)
=== OK  [138] OP:a RS1:fffffffd RS2:12345678 => RD:edcba985 (esperado)
=== OK  [139] OP:a RS1:fffffffd RS2:87654321 => RD:789abcdc (esperado)
=== OK  [140] OP:a RS1:fffffffd RS2:0000000f => RD:ffffffee (esperado)
=== OK  [141] OP:a RS1:fffffffd RS2:000000f0 => RD:ffffff0d (esperado)
=== OK  [142] OP:a RS1:fffffffd RS2:000000ff => RD:fffffefe (esperado)
=== OK  [143] OP:a RS1:fffffffd RS2:00000010 => RD:ffffffed (esperado)
=== OK  [144] OP:a RS1:00000003 RS2:00000000 => RD:00000003 (esperado)
=== OK  [145] OP:a RS1:00000003 RS2:ffffffff => RD:00000004 (esperado)
=== OK  [146] OP:a RS1:00000003 RS2:7fffffff => RD:80000004 (esperado)
=== OK  [147] OP:a RS1:00000003 RS2:80000000 => RD:80000003 (esperado)
=== OK  [148] OP:a RS1:00000003 RS2:00000001 => RD:00000002 (esperado)
=== OK  [149] OP:a RS1:00000003 RS2:fffffffe => RD:00000005 (esperado)
=== OK  [150] OP:a RS1:00000003 RS2:00000002 => RD:00000001 (esperado)
=== OK  [151] OP:a RS1:00000003 RS2:fffffffd => RD:00000006 (esperado)
=== OK  [152] OP:a RS1:00000003 RS2:00000003 => RD:00000000 (esperado)
=== OK  [153] OP:a RS1:00000003 RS2:fffffffc => RD:00000007 (esperado)
=== OK  [154] OP:a RS1:00000003 RS2:a5a5a5a5 => RD:5a5a5a5e (esperado)
=== OK  [155] OP:a RS1:00000003 RS2:5a5a5a5a => RD:a5a5a5a9 (esperado)
=== OK  [156] OP:a RS1:00000003 RS2:12345678 => RD:edcba98b (esperado)
=== OK  [157] OP:a RS1:00000003 RS2:87654321 => RD:789abce2 (esperado)
=== OK  [158] OP:a RS1:00000003 RS2:0000000f => RD:fffffff4 (esperado)
=== OK  [159] OP:a RS1:00000003 RS2:000000f0 => RD:ffffff13 (esperado)
=== OK  [160] OP:a RS1:00000003 RS2:000000ff => RD:ffffff04 (esperado)
=== OK  [161] OP:a RS1:00000003 RS2:00000010 => RD:fffffff3 (esperado)
=== OK  [162] OP:a RS1:fffffffc RS2:00000000 => RD:fffffffc (esperado)
=== OK  [163] OP:a RS1:fffffffc RS2:ffffffff => RD:fffffffd (esperado)
=== OK  [164] OP:a RS1:fffffffc RS2:7fffffff => RD:7ffffffd (esperado)
=== OK  [165] OP:a RS1:fffffffc RS2:80000000 => RD:7ffffffc (esperado)
=== OK  [166] OP:a RS1:fffffffc RS2:00000001 => RD:fffffffb (esperado)
=== OK  [167] OP:a RS1:fffffffc RS2:fffffffe => RD:fffffffe (esperado)
=== OK  [168] OP:a RS1:fffffffc RS2:00000002 => RD:fffffffa (esperado)
=== OK  [169] OP:a RS1:fffffffc RS2:fffffffd => RD:ffffffff (esperado)
=== OK  [170] OP:a RS1:fffffffc RS2:00000003 => RD:fffffff9 (esperado)
=== OK  [171] OP:a RS1:fffffffc RS2:fffffffc => RD:00000000 (esperado)
=== OK  [172] OP:a RS1:fffffffc RS2:a5a5a5a5 => RD:5a5a5a57 (esperado)
=== OK  [173] OP:a RS1:fffffffc RS2:5a5a5a5a => RD:a5a5a5a2 (esperado)
=== OK  [174] OP:a RS1:fffffffc RS2:12345678 => RD:edcba984 (esperado)
=== OK  [175] OP:a RS1:fffffffc RS2:87654321 => RD:789abcdb (esperado)
=== OK  [176] OP:a RS1:fffffffc RS2:0000000f => RD:ffffffed (esperado)
=== OK  [177] OP:a RS1:fffffffc RS2:000000f0 => RD:ffffff0c (esperado)
=== OK  [178] OP:a RS1:fffffffc RS2:000000ff => RD:fffffefd (esperado)
=== OK  [179] OP:a RS1:fffffffc RS2:00000010 => RD:ffffffec (esperado)
=== OK  [180] OP:a RS1:a5a5a5a5 RS2:00000000 => RD:a5a5a5a5 (esperado)
=== OK  [181] OP:a RS1:a5a5a5a5 RS2:ffffffff => RD:a5a5a5a6 (esperado)
=== OK  [182] OP:a RS1:a5a5a5a5 RS2:7fffffff => RD:25a5a5a6 (esperado)
=== OK  [183] OP:a RS1:a5a5a5a5 RS2:80000000 => RD:25a5a5a5 (esperado)
=== OK  [184] OP:a RS1:a5a5a5a5 RS2:00000001 => RD:a5a5a5a4 (esperado)
=== OK  [185] OP:a RS1:a5a5a5a5 RS2:fffffffe => RD:a5a5a5a7 (esperado)
=== OK  [186] OP:a RS1:a5a5a5a5 RS2:00000002 => RD:a5a5a5a3 (esperado)
=== OK  [187] OP:a RS1:a5a5a5a5 RS2:fffffffd => RD:a5a5a5a8 (esperado)
=== OK  [188] OP:a RS1:a5a5a5a5 RS2:00000003 => RD:a5a5a5a2 (esperado)
=== OK  [189] OP:a RS1:a5a5a5a5 RS2:fffffffc => RD:a5a5a5a9 (esperado)
=== OK  [190] OP:a RS1:a5a5a5a5 RS2:a5a5a5a5 => RD:00000000 (esperado)
=== OK  [191] OP:a RS1:a5a5a5a5 RS2:5a5a5a5a => RD:4b4b4b4b (esperado)
=== OK  [192] OP:a RS1:a5a5a5a5 RS2:12345678 => RD:93714f2d (esperado)
=== OK  [193] OP:a RS1:a5a5a5a5 RS2:87654321 => RD:1e406284 (esperado)
=== OK  [194] OP:a RS1:a5a5a5a5 RS2:0000000f => RD:a5a5a596 (esperado)
=== OK  [195] OP:a RS1:a5a5a5a5 RS2:000000f0 => RD:a5a5a4b5 (esperado)
=== OK  [196] OP:a RS1:a5a5a5a5 RS2:000000ff => RD:a5a5a4a6 (esperado)
=== OK  [197] OP:a RS1:a5a5a5a5 RS2:00000010 => RD:a5a5a595 (esperado)
=== OK  [198] OP:a RS1:5a5a5a5a RS2:00000000 => RD:5a5a5a5a (esperado)
=== OK  [199] OP:a RS1:5a5a5a5a RS2:ffffffff => RD:5a5a5a5b (esperado)
=== OK  [200] OP:a RS1:5a5a5a5a RS2:7fffffff => RD:da5a5a5b (esperado)
=== OK  [201] OP:a RS1:5a5a5a5a RS2:80000000 => RD:da5a5a5a (esperado)
=== OK  [202] OP:a RS1:5a5a5a5a RS2:00000001 => RD:5a5a5a59 (esperado)
=== OK  [203] OP:a RS1:5a5a5a5a RS2:fffffffe => RD:5a5a5a5c (esperado)
=== OK  [204] OP:a RS1:5a5a5a5a RS2:00000002 => RD:5a5a5a58 (esperado)
=== OK  [205] OP:a RS1:5a5a5a5a RS2:fffffffd => RD:5a5a5a5d (esperado)
=== OK  [206] OP:a RS1:5a5a5a5a RS2:00000003 => RD:5a5a5a57 (esperado)
=== OK  [207] OP:a RS1:5a5a5a5a RS2:fffffffc => RD:5a5a5a5e (esperado)
=== OK  [208] OP:a RS1:5a5a5a5a RS2:a5a5a5a5 => RD:b4b4b4b5 (esperado)
=== OK  [209] OP:a RS1:5a5a5a5a RS2:5a5a5a5a => RD:00000000 (esperado)
=== OK  [210] OP:a RS1:5a5a5a5a RS2:12345678 => RD:482603e2 (esperado)
=== OK  [211] OP:a RS1:5a5a5a5a RS2:87654321 => RD:d2f51739 (esperado)
=== OK  [212] OP:a RS1:5a5a5a5a RS2:0000000f => RD:5a5a5a4b (esperado)
=== OK  [213] OP:a RS1:5a5a5a5a RS2:000000f0 => RD:5a5a596a (esperado)
=== OK  [214] OP:a RS1:5a5a5a5a RS2:000000ff => RD:5a5a595b (esperado)
=== OK  [215] OP:a RS1:5a5a5a5a RS2:00000010 => RD:5a5a5a4a (esperado)
=== OK  [216] OP:a RS1:12345678 RS2:00000000 => RD:12345678 (esperado)
=== OK  [217] OP:a RS1:12345678 RS2:ffffffff => RD:12345679 (esperado)
=== OK  [218] OP:a RS1:12345678 RS2:7fffffff => RD:92345679 (esperado)
=== OK  [219] OP:a RS1:12345678 RS2:80000000 => RD:92345678 (esperado)
=== OK  [220] OP:a RS1:12345678 RS2:00000001 => RD:12345677 (esperado)
=== OK  [221] OP:a RS1:12345678 RS2:fffffffe => RD:1234567a (esperado)
=== OK  [222] OP:a RS1:12345678 RS2:00000002 => RD:12345676 (esperado)
=== OK  [223] OP:a RS1:12345678 RS2:fffffffd => RD:1234567b (esperado)
=== OK  [224] OP:a RS1:12345678 RS2:00000003 => RD:12345675 (esperado)
=== OK  [225] OP:a RS1:12345678 RS2:fffffffc => RD:1234567c (esperado)
=== OK  [226] OP:a RS1:12345678 RS2:a5a5a5a5 => RD:6c8eb0d3 (esperado)
=== OK  [227] OP:a RS1:12345678 RS2:5a5a5a5a => RD:b7d9fc1e (esperado)
=== OK  [228] OP:a RS1:12345678 RS2:12345678 => RD:00000000 (esperado)
=== OK  [229] OP:a RS1:12345678 RS2:87654321 => RD:8acf1357 (esperado)
=== OK  [230] OP:a RS1:12345678 RS2:0000000f => RD:12345669 (esperado)
=== OK  [231] OP:a RS1:12345678 RS2:000000f0 => RD:12345588 (esperado)
=== OK  [232] OP:a RS1:12345678 RS2:000000ff => RD:12345579 (esperado)
=== OK  [233] OP:a RS1:12345678 RS2:00000010 => RD:12345668 (esperado)
=== OK  [234] OP:a RS1:87654321 RS2:00000000 => RD:87654321 (esperado)
=== OK  [235] OP:a RS1:87654321 RS2:ffffffff => RD:87654322 (esperado)
=== OK  [236] OP:a RS1:87654321 RS2:7fffffff => RD:07654322 (esperado)
=== OK  [237] OP:a RS1:87654321 RS2:80000000 => RD:07654321 (esperado)
=== OK  [238] OP:a RS1:87654321 RS2:00000001 => RD:87654320 (esperado)
=== OK  [239] OP:a RS1:87654321 RS2:fffffffe => RD:87654323 (esperado)
=== OK  [240] OP:a RS1:87654321 RS2:00000002 => RD:8765431f (esperado)
=== OK  [241] OP:a RS1:87654321 RS2:fffffffd => RD:87654324 (esperado)
=== OK  [242] OP:a RS1:87654321 RS2:00000003 => RD:8765431e (esperado)
=== OK  [243] OP:a RS1:87654321 RS2:fffffffc => RD:87654325 (esperado)
=== OK  [244] OP:a RS1:87654321 RS2:a5a5a5a5 => RD:e1bf9d7c (esperado)
=== OK  [245] OP:a RS1:87654321 RS2:5a5a5a5a => RD:2d0ae8c7 (esperado)
=== OK  [246] OP:a RS1:87654321 RS2:12345678 => RD:7530eca9 (esperado)
=== OK  [247] OP:a RS1:87654321 RS2:87654321 => RD:00000000 (esperado)
=== OK  [248] OP:a RS1:87654321 RS2:0000000f => RD:87654312 (esperado)
=== OK  [249] OP:a RS1:87654321 RS2:000000f0 => RD:87654231 (esperado)
=== OK  [250] OP:a RS1:87654321 RS2:000000ff => RD:87654222 (esperado)
=== OK  [251] OP:a RS1:87654321 RS2:00000010 => RD:87654311 (esperado)
=== OK  [252] OP:a RS1:0000000f RS2:00000000 => RD:0000000f (esperado)
=== OK  [253] OP:a RS1:0000000f RS2:ffffffff => RD:00000010 (esperado)
=== OK  [254] OP:a RS1:0000000f RS2:7fffffff => RD:80000010 (esperado)
=== OK  [255] OP:a RS1:0000000f RS2:80000000 => RD:8000000f (esperado)
=== OK  [256] OP:a RS1:0000000f RS2:00000001 => RD:0000000e (esperado)
=== OK  [257] OP:a RS1:0000000f RS2:fffffffe => RD:00000011 (esperado)
=== OK  [258] OP:a RS1:0000000f RS2:00000002 => RD:0000000d (esperado)
=== OK  [259] OP:a RS1:0000000f RS2:fffffffd => RD:00000012 (esperado)
=== OK  [260] OP:a RS1:0000000f RS2:00000003 => RD:0000000c (esperado)
=== OK  [261] OP:a RS1:0000000f RS2:fffffffc => RD:00000013 (esperado)
=== OK  [262] OP:a RS1:0000000f RS2:a5a5a5a5 => RD:5a5a5a6a (esperado)
=== OK  [263] OP:a RS1:0000000f RS2:5a5a5a5a => RD:a5a5a5b5 (esperado)
=== OK  [264] OP:a RS1:0000000f RS2:12345678 => RD:edcba997 (esperado)
=== OK  [265] OP:a RS1:0000000f RS2:87654321 => RD:789abcee (esperado)
=== OK  [266] OP:a RS1:0000000f RS2:0000000f => RD:00000000 (esperado)
=== OK  [267] OP:a RS1:0000000f RS2:000000f0 => RD:ffffff1f (esperado)
=== OK  [268] OP:a RS1:0000000f RS2:000000ff => RD:ffffff10 (esperado)
=== OK  [269] OP:a RS1:0000000f RS2:00000010 => RD:ffffffff (esperado)
=== OK  [270] OP:a RS1:000000f0 RS2:00000000 => RD:000000f0 (esperado)
=== OK  [271] OP:a RS1:000000f0 RS2:ffffffff => RD:000000f1 (esperado)
=== OK  [272] OP:a RS1:000000f0 RS2:7fffffff => RD:800000f1 (esperado)
=== OK  [273] OP:a RS1:000000f0 RS2:80000000 => RD:800000f0 (esperado)
=== OK  [274] OP:a RS1:000000f0 RS2:00000001 => RD:000000ef (esperado)
=== OK  [275] OP:a RS1:000000f0 RS2:fffffffe => RD:000000f2 (esperado)
=== OK  [276] OP:a RS1:000000f0 RS2:00000002 => RD:000000ee (esperado)
=== OK  [277] OP:a RS1:000000f0 RS2:fffffffd => RD:000000f3 (esperado)
=== OK  [278] OP:a RS1:000000f0 RS2:00000003 => RD:000000ed (esperado)
=== OK  [279] OP:a RS1:000000f0 RS2:fffffffc => RD:000000f4 (esperado)
=== OK  [280] OP:a RS1:000000f0 RS2:a5a5a5a5 => RD:5a5a5b4b (esperado)
=== OK  [281] OP:a RS1:000000f0 RS2:5a5a5a5a => RD:a5a5a696 (esperado)
=== OK  [282] OP:a RS1:000000f0 RS2:12345678 => RD:edcbaa78 (esperado)
=== OK  [283] OP:a RS1:000000f0 RS2:87654321 => RD:789abdcf (esperado)
=== OK  [284] OP:a RS1:000000f0 RS2:0000000f => RD:000000e1 (esperado)
=== OK  [285] OP:a RS1:000000f0 RS2:000000f0 => RD:00000000 (esperado)
=== OK  [286] OP:a RS1:000000f0 RS2:000000ff => RD:fffffff1 (esperado)
=== OK  [287] OP:a RS1:000000f0 RS2:00000010 => RD:000000e0 (esperado)
=== OK  [288] OP:a RS1:000000ff RS2:00000000 => RD:000000ff (esperado)
=== OK  [289] OP:a RS1:000000ff RS2:ffffffff => RD:00000100 (esperado)
=== OK  [290] OP:a RS1:000000ff RS2:7fffffff => RD:80000100 (esperado)
=== OK  [291] OP:a RS1:000000ff RS2:80000000 => RD:800000ff (esperado)
=== OK  [292] OP:a RS1:000000ff RS2:00000001 => RD:000000fe (esperado)
=== OK  [293] OP:a RS1:000000ff RS2:fffffffe => RD:00000101 (esperado)
=== OK  [294] OP:a RS1:000000ff RS2:00000002 => RD:000000fd (esperado)
=== OK  [295] OP:a RS1:000000ff RS2:fffffffd => RD:00000102 (esperado)
=== OK  [296] OP:a RS1:000000ff RS2:00000003 => RD:000000fc (esperado)
=== OK  [297] OP:a RS1:000000ff RS2:fffffffc => RD:00000103 (esperado)
=== OK  [298] OP:a RS1:000000ff RS2:a5a5a5a5 => RD:5a5a5b5a (esperado)
=== OK  [299] OP:a RS1:000000ff RS2:5a5a5a5a => RD:a5a5a6a5 (esperado)
=== OK  [300] OP:a RS1:000000ff RS2:12345678 => RD:edcbaa87 (esperado)
=== OK  [301] OP:a RS1:000000ff RS2:87654321 => RD:789abdde (esperado)
=== OK  [302] OP:a RS1:000000ff RS2:0000000f => RD:000000f0 (esperado)
=== OK  [303] OP:a RS1:000000ff RS2:000000f0 => RD:0000000f (esperado)
=== OK  [304] OP:a RS1:000000ff RS2:000000ff => RD:00000000 (esperado)
=== OK  [305] OP:a RS1:000000ff RS2:00000010 => RD:000000ef (esperado)
=== OK  [306] OP:a RS1:00000010 RS2:00000000 => RD:00000010 (esperado)
=== OK  [307] OP:a RS1:00000010 RS2:ffffffff => RD:00000011 (esperado)
=== OK  [308] OP:a RS1:00000010 RS2:7fffffff => RD:80000011 (esperado)
=== OK  [309] OP:a RS1:00000010 RS2:80000000 => RD:80000010 (esperado)
=== OK  [310] OP:a RS1:00000010 RS2:00000001 => RD:0000000f (esperado)
=== OK  [311] OP:a RS1:00000010 RS2:fffffffe => RD:00000012 (esperado)
=== OK  [312] OP:a RS1:00000010 RS2:00000002 => RD:0000000e (esperado)
=== OK  [313] OP:a RS1:00000010 RS2:fffffffd => RD:00000013 (esperado)
=== OK  [314] OP:a RS1:00000010 RS2:00000003 => RD:0000000d (esperado)
=== OK  [315] OP:a RS1:00000010 RS2:fffffffc => RD:00000014 (esperado)
=== OK  [316] OP:a RS1:00000010 RS2:a5a5a5a5 => RD:5a5a5a6b (esperado)
=== OK  [317] OP:a RS1:00000010 RS2:5a5a5a5a => RD:a5a5a5b6 (esperado)
=== OK  [318] OP:a RS1:00000010 RS2:12345678 => RD:edcba998 (esperado)
=== OK  [319] OP:a RS1:00000010 RS2:87654321 => RD:789abcef (esperado)
=== OK  [320] OP:a RS1:00000010 RS2:0000000f => RD:00000001 (esperado)
=== OK  [321] OP:a RS1:00000010 RS2:000000f0 => RD:ffffff20 (esperado)
=== OK  [322] OP:a RS1:00000010 RS2:000000ff => RD:ffffff11 (esperado)
=== OK  [323] OP:a RS1:00000010 RS2:00000010 => RD:00000000 (esperado)
Testbench finalizado com sucesso.
