test/saida14.out
VCD info: dumpfile saida.vcd opened for output.
Iniciando Testbench...
WARNING: tb.v:32: $readmemh(teste.txt): Not enough words in the file for the requested range [0:512].
=== OK  [0] OP:e RS1:00000000 RS2:00000000 => RD:00000000 (esperado)
=== OK  [1] OP:e RS1:00000000 RS2:ffffffff => RD:00000001 (esperado)
=== OK  [2] OP:e RS1:00000000 RS2:7fffffff => RD:00000001 (esperado)
=== OK  [3] OP:e RS1:00000000 RS2:80000000 => RD:00000001 (esperado)
=== OK  [4] OP:e RS1:00000000 RS2:00000001 => RD:00000001 (esperado)
=== OK  [5] OP:e RS1:00000000 RS2:fffffffe => RD:00000001 (esperado)
=== OK  [6] OP:e RS1:00000000 RS2:00000002 => RD:00000001 (esperado)
=== OK  [7] OP:e RS1:00000000 RS2:fffffffd => RD:00000001 (esperado)
=== OK  [8] OP:e RS1:00000000 RS2:00000003 => RD:00000001 (esperado)
=== OK  [9] OP:e RS1:00000000 RS2:fffffffc => RD:00000001 (esperado)
=== OK  [10] OP:e RS1:00000000 RS2:a5a5a5a5 => RD:00000001 (esperado)
=== OK  [11] OP:e RS1:00000000 RS2:5a5a5a5a => RD:00000001 (esperado)
=== OK  [12] OP:e RS1:00000000 RS2:12345678 => RD:00000001 (esperado)
=== OK  [13] OP:e RS1:00000000 RS2:87654321 => RD:00000001 (esperado)
=== OK  [14] OP:e RS1:00000000 RS2:0000000f => RD:00000001 (esperado)
=== OK  [15] OP:e RS1:00000000 RS2:000000f0 => RD:00000001 (esperado)
=== OK  [16] OP:e RS1:00000000 RS2:000000ff => RD:00000001 (esperado)
=== OK  [17] OP:e RS1:00000000 RS2:00000010 => RD:00000001 (esperado)
=== OK  [18] OP:e RS1:ffffffff RS2:00000000 => RD:00000000 (esperado)
=== OK  [19] OP:e RS1:ffffffff RS2:ffffffff => RD:00000000 (esperado)
=== OK  [20] OP:e RS1:ffffffff RS2:7fffffff => RD:00000000 (esperado)
=== OK  [21] OP:e RS1:ffffffff RS2:80000000 => RD:00000000 (esperado)
=== OK  [22] OP:e RS1:ffffffff RS2:00000001 => RD:00000000 (esperado)
=== OK  [23] OP:e RS1:ffffffff RS2:fffffffe => RD:00000000 (esperado)
=== OK  [24] OP:e RS1:ffffffff RS2:00000002 => RD:00000000 (esperado)
=== OK  [25] OP:e RS1:ffffffff RS2:fffffffd => RD:00000000 (esperado)
=== OK  [26] OP:e RS1:ffffffff RS2:00000003 => RD:00000000 (esperado)
=== OK  [27] OP:e RS1:ffffffff RS2:fffffffc => RD:00000000 (esperado)
=== OK  [28] OP:e RS1:ffffffff RS2:a5a5a5a5 => RD:00000000 (esperado)
=== OK  [29] OP:e RS1:ffffffff RS2:5a5a5a5a => RD:00000000 (esperado)
=== OK  [30] OP:e RS1:ffffffff RS2:12345678 => RD:00000000 (esperado)
=== OK  [31] OP:e RS1:ffffffff RS2:87654321 => RD:00000000 (esperado)
=== OK  [32] OP:e RS1:ffffffff RS2:0000000f => RD:00000000 (esperado)
=== OK  [33] OP:e RS1:ffffffff RS2:000000f0 => RD:00000000 (esperado)
=== OK  [34] OP:e RS1:ffffffff RS2:000000ff => RD:00000000 (esperado)
=== OK  [35] OP:e RS1:ffffffff RS2:00000010 => RD:00000000 (esperado)
=== OK  [36] OP:e RS1:7fffffff RS2:00000000 => RD:00000000 (esperado)
=== OK  [37] OP:e RS1:7fffffff RS2:ffffffff => RD:00000001 (esperado)
=== OK  [38] OP:e RS1:7fffffff RS2:7fffffff => RD:00000000 (esperado)
=== OK  [39] OP:e RS1:7fffffff RS2:80000000 => RD:00000001 (esperado)
=== OK  [40] OP:e RS1:7fffffff RS2:00000001 => RD:00000000 (esperado)
=== OK  [41] OP:e RS1:7fffffff RS2:fffffffe => RD:00000001 (esperado)
=== OK  [42] OP:e RS1:7fffffff RS2:00000002 => RD:00000000 (esperado)
=== OK  [43] OP:e RS1:7fffffff RS2:fffffffd => RD:00000001 (esperado)
=== OK  [44] OP:e RS1:7fffffff RS2:00000003 => RD:00000000 (esperado)
=== OK  [45] OP:e RS1:7fffffff RS2:fffffffc => RD:00000001 (esperado)
=== OK  [46] OP:e RS1:7fffffff RS2:a5a5a5a5 => RD:00000001 (esperado)
=== OK  [47] OP:e RS1:7fffffff RS2:5a5a5a5a => RD:00000000 (esperado)
=== OK  [48] OP:e RS1:7fffffff RS2:12345678 => RD:00000000 (esperado)
=== OK  [49] OP:e RS1:7fffffff RS2:87654321 => RD:00000001 (esperado)
=== OK  [50] OP:e RS1:7fffffff RS2:0000000f => RD:00000000 (esperado)
=== OK  [51] OP:e RS1:7fffffff RS2:000000f0 => RD:00000000 (esperado)
=== OK  [52] OP:e RS1:7fffffff RS2:000000ff => RD:00000000 (esperado)
=== OK  [53] OP:e RS1:7fffffff RS2:00000010 => RD:00000000 (esperado)
=== OK  [54] OP:e RS1:80000000 RS2:00000000 => RD:00000000 (esperado)
=== OK  [55] OP:e RS1:80000000 RS2:ffffffff => RD:00000001 (esperado)
=== OK  [56] OP:e RS1:80000000 RS2:7fffffff => RD:00000000 (esperado)
=== OK  [57] OP:e RS1:80000000 RS2:80000000 => RD:00000000 (esperado)
=== OK  [58] OP:e RS1:80000000 RS2:00000001 => RD:00000000 (esperado)
=== OK  [59] OP:e RS1:80000000 RS2:fffffffe => RD:00000001 (esperado)
=== OK  [60] OP:e RS1:80000000 RS2:00000002 => RD:00000000 (esperado)
=== OK  [61] OP:e RS1:80000000 RS2:fffffffd => RD:00000001 (esperado)
=== OK  [62] OP:e RS1:80000000 RS2:00000003 => RD:00000000 (esperado)
=== OK  [63] OP:e RS1:80000000 RS2:fffffffc => RD:00000001 (esperado)
=== OK  [64] OP:e RS1:80000000 RS2:a5a5a5a5 => RD:00000001 (esperado)
=== OK  [65] OP:e RS1:80000000 RS2:5a5a5a5a => RD:00000000 (esperado)
=== OK  [66] OP:e RS1:80000000 RS2:12345678 => RD:00000000 (esperado)
=== OK  [67] OP:e RS1:80000000 RS2:87654321 => RD:00000001 (esperado)
=== OK  [68] OP:e RS1:80000000 RS2:0000000f => RD:00000000 (esperado)
=== OK  [69] OP:e RS1:80000000 RS2:000000f0 => RD:00000000 (esperado)
=== OK  [70] OP:e RS1:80000000 RS2:000000ff => RD:00000000 (esperado)
=== OK  [71] OP:e RS1:80000000 RS2:00000010 => RD:00000000 (esperado)
=== OK  [72] OP:e RS1:00000001 RS2:00000000 => RD:00000000 (esperado)
=== OK  [73] OP:e RS1:00000001 RS2:ffffffff => RD:00000001 (esperado)
=== OK  [74] OP:e RS1:00000001 RS2:7fffffff => RD:00000001 (esperado)
=== OK  [75] OP:e RS1:00000001 RS2:80000000 => RD:00000001 (esperado)
=== OK  [76] OP:e RS1:00000001 RS2:00000001 => RD:00000000 (esperado)
=== OK  [77] OP:e RS1:00000001 RS2:fffffffe => RD:00000001 (esperado)
=== OK  [78] OP:e RS1:00000001 RS2:00000002 => RD:00000001 (esperado)
=== OK  [79] OP:e RS1:00000001 RS2:fffffffd => RD:00000001 (esperado)
=== OK  [80] OP:e RS1:00000001 RS2:00000003 => RD:00000001 (esperado)
=== OK  [81] OP:e RS1:00000001 RS2:fffffffc => RD:00000001 (esperado)
=== OK  [82] OP:e RS1:00000001 RS2:a5a5a5a5 => RD:00000001 (esperado)
=== OK  [83] OP:e RS1:00000001 RS2:5a5a5a5a => RD:00000001 (esperado)
=== OK  [84] OP:e RS1:00000001 RS2:12345678 => RD:00000001 (esperado)
=== OK  [85] OP:e RS1:00000001 RS2:87654321 => RD:00000001 (esperado)
=== OK  [86] OP:e RS1:00000001 RS2:0000000f => RD:00000001 (esperado)
=== OK  [87] OP:e RS1:00000001 RS2:000000f0 => RD:00000001 (esperado)
=== OK  [88] OP:e RS1:00000001 RS2:000000ff => RD:00000001 (esperado)
=== OK  [89] OP:e RS1:00000001 RS2:00000010 => RD:00000001 (esperado)
=== OK  [90] OP:e RS1:fffffffe RS2:00000000 => RD:00000000 (esperado)
=== OK  [91] OP:e RS1:fffffffe RS2:ffffffff => RD:00000001 (esperado)
=== OK  [92] OP:e RS1:fffffffe RS2:7fffffff => RD:00000000 (esperado)
=== OK  [93] OP:e RS1:fffffffe RS2:80000000 => RD:00000000 (esperado)
=== OK  [94] OP:e RS1:fffffffe RS2:00000001 => RD:00000000 (esperado)
=== OK  [95] OP:e RS1:fffffffe RS2:fffffffe => RD:00000000 (esperado)
=== OK  [96] OP:e RS1:fffffffe RS2:00000002 => RD:00000000 (esperado)
=== OK  [97] OP:e RS1:fffffffe RS2:fffffffd => RD:00000000 (esperado)
=== OK  [98] OP:e RS1:fffffffe RS2:00000003 => RD:00000000 (esperado)
=== OK  [99] OP:e RS1:fffffffe RS2:fffffffc => RD:00000000 (esperado)
=== OK  [100] OP:e RS1:fffffffe RS2:a5a5a5a5 => RD:00000000 (esperado)
=== OK  [101] OP:e RS1:fffffffe RS2:5a5a5a5a => RD:00000000 (esperado)
=== OK  [102] OP:e RS1:fffffffe RS2:12345678 => RD:00000000 (esperado)
=== OK  [103] OP:e RS1:fffffffe RS2:87654321 => RD:00000000 (esperado)
=== OK  [104] OP:e RS1:fffffffe RS2:0000000f => RD:00000000 (esperado)
=== OK  [105] OP:e RS1:fffffffe RS2:000000f0 => RD:00000000 (esperado)
=== OK  [106] OP:e RS1:fffffffe RS2:000000ff => RD:00000000 (esperado)
=== OK  [107] OP:e RS1:fffffffe RS2:00000010 => RD:00000000 (esperado)
=== OK  [108] OP:e RS1:00000002 RS2:00000000 => RD:00000000 (esperado)
=== OK  [109] OP:e RS1:00000002 RS2:ffffffff => RD:00000001 (esperado)
=== OK  [110] OP:e RS1:00000002 RS2:7fffffff => RD:00000001 (esperado)
=== OK  [111] OP:e RS1:00000002 RS2:80000000 => RD:00000001 (esperado)
=== OK  [112] OP:e RS1:00000002 RS2:00000001 => RD:00000000 (esperado)
=== OK  [113] OP:e RS1:00000002 RS2:fffffffe => RD:00000001 (esperado)
=== OK  [114] OP:e RS1:00000002 RS2:00000002 => RD:00000000 (esperado)
=== OK  [115] OP:e RS1:00000002 RS2:fffffffd => RD:00000001 (esperado)
=== OK  [116] OP:e RS1:00000002 RS2:00000003 => RD:00000001 (esperado)
=== OK  [117] OP:e RS1:00000002 RS2:fffffffc => RD:00000001 (esperado)
=== OK  [118] OP:e RS1:00000002 RS2:a5a5a5a5 => RD:00000001 (esperado)
=== OK  [119] OP:e RS1:00000002 RS2:5a5a5a5a => RD:00000001 (esperado)
=== OK  [120] OP:e RS1:00000002 RS2:12345678 => RD:00000001 (esperado)
=== OK  [121] OP:e RS1:00000002 RS2:87654321 => RD:00000001 (esperado)
=== OK  [122] OP:e RS1:00000002 RS2:0000000f => RD:00000001 (esperado)
=== OK  [123] OP:e RS1:00000002 RS2:000000f0 => RD:00000001 (esperado)
=== OK  [124] OP:e RS1:00000002 RS2:000000ff => RD:00000001 (esperado)
=== OK  [125] OP:e RS1:00000002 RS2:00000010 => RD:00000001 (esperado)
=== OK  [126] OP:e RS1:fffffffd RS2:00000000 => RD:00000000 (esperado)
=== OK  [127] OP:e RS1:fffffffd RS2:ffffffff => RD:00000001 (esperado)
=== OK  [128] OP:e RS1:fffffffd RS2:7fffffff => RD:00000000 (esperado)
=== OK  [129] OP:e RS1:fffffffd RS2:80000000 => RD:00000000 (esperado)
=== OK  [130] OP:e RS1:fffffffd RS2:00000001 => RD:00000000 (esperado)
=== OK  [131] OP:e RS1:fffffffd RS2:fffffffe => RD:00000001 (esperado)
=== OK  [132] OP:e RS1:fffffffd RS2:00000002 => RD:00000000 (esperado)
=== OK  [133] OP:e RS1:fffffffd RS2:fffffffd => RD:00000000 (esperado)
=== OK  [134] OP:e RS1:fffffffd RS2:00000003 => RD:00000000 (esperado)
=== OK  [135] OP:e RS1:fffffffd RS2:fffffffc => RD:00000000 (esperado)
=== OK  [136] OP:e RS1:fffffffd RS2:a5a5a5a5 => RD:00000000 (esperado)
=== OK  [137] OP:e RS1:fffffffd RS2:5a5a5a5a => RD:00000000 (esperado)
=== OK  [138] OP:e RS1:fffffffd RS2:12345678 => RD:00000000 (esperado)
=== OK  [139] OP:e RS1:fffffffd RS2:87654321 => RD:00000000 (esperado)
=== OK  [140] OP:e RS1:fffffffd RS2:0000000f => RD:00000000 (esperado)
=== OK  [141] OP:e RS1:fffffffd RS2:000000f0 => RD:00000000 (esperado)
=== OK  [142] OP:e RS1:fffffffd RS2:000000ff => RD:00000000 (esperado)
=== OK  [143] OP:e RS1:fffffffd RS2:00000010 => RD:00000000 (esperado)
=== OK  [144] OP:e RS1:00000003 RS2:00000000 => RD:00000000 (esperado)
=== OK  [145] OP:e RS1:00000003 RS2:ffffffff => RD:00000001 (esperado)
=== OK  [146] OP:e RS1:00000003 RS2:7fffffff => RD:00000001 (esperado)
=== OK  [147] OP:e RS1:00000003 RS2:80000000 => RD:00000001 (esperado)
=== OK  [148] OP:e RS1:00000003 RS2:00000001 => RD:00000000 (esperado)
=== OK  [149] OP:e RS1:00000003 RS2:fffffffe => RD:00000001 (esperado)
=== OK  [150] OP:e RS1:00000003 RS2:00000002 => RD:00000000 (esperado)
=== OK  [151] OP:e RS1:00000003 RS2:fffffffd => RD:00000001 (esperado)
=== OK  [152] OP:e RS1:00000003 RS2:00000003 => RD:00000000 (esperado)
=== OK  [153] OP:e RS1:00000003 RS2:fffffffc => RD:00000001 (esperado)
=== OK  [154] OP:e RS1:00000003 RS2:a5a5a5a5 => RD:00000001 (esperado)
=== OK  [155] OP:e RS1:00000003 RS2:5a5a5a5a => RD:00000001 (esperado)
=== OK  [156] OP:e RS1:00000003 RS2:12345678 => RD:00000001 (esperado)
=== OK  [157] OP:e RS1:00000003 RS2:87654321 => RD:00000001 (esperado)
=== OK  [158] OP:e RS1:00000003 RS2:0000000f => RD:00000001 (esperado)
=== OK  [159] OP:e RS1:00000003 RS2:000000f0 => RD:00000001 (esperado)
=== OK  [160] OP:e RS1:00000003 RS2:000000ff => RD:00000001 (esperado)
=== OK  [161] OP:e RS1:00000003 RS2:00000010 => RD:00000001 (esperado)
=== OK  [162] OP:e RS1:fffffffc RS2:00000000 => RD:00000000 (esperado)
=== OK  [163] OP:e RS1:fffffffc RS2:ffffffff => RD:00000001 (esperado)
=== OK  [164] OP:e RS1:fffffffc RS2:7fffffff => RD:00000000 (esperado)
=== OK  [165] OP:e RS1:fffffffc RS2:80000000 => RD:00000000 (esperado)
=== OK  [166] OP:e RS1:fffffffc RS2:00000001 => RD:00000000 (esperado)
=== OK  [167] OP:e RS1:fffffffc RS2:fffffffe => RD:00000001 (esperado)
=== OK  [168] OP:e RS1:fffffffc RS2:00000002 => RD:00000000 (esperado)
=== OK  [169] OP:e RS1:fffffffc RS2:fffffffd => RD:00000001 (esperado)
=== OK  [170] OP:e RS1:fffffffc RS2:00000003 => RD:00000000 (esperado)
=== OK  [171] OP:e RS1:fffffffc RS2:fffffffc => RD:00000000 (esperado)
=== OK  [172] OP:e RS1:fffffffc RS2:a5a5a5a5 => RD:00000000 (esperado)
=== OK  [173] OP:e RS1:fffffffc RS2:5a5a5a5a => RD:00000000 (esperado)
=== OK  [174] OP:e RS1:fffffffc RS2:12345678 => RD:00000000 (esperado)
=== OK  [175] OP:e RS1:fffffffc RS2:87654321 => RD:00000000 (esperado)
=== OK  [176] OP:e RS1:fffffffc RS2:0000000f => RD:00000000 (esperado)
=== OK  [177] OP:e RS1:fffffffc RS2:000000f0 => RD:00000000 (esperado)
=== OK  [178] OP:e RS1:fffffffc RS2:000000ff => RD:00000000 (esperado)
=== OK  [179] OP:e RS1:fffffffc RS2:00000010 => RD:00000000 (esperado)
=== OK  [180] OP:e RS1:a5a5a5a5 RS2:00000000 => RD:00000000 (esperado)
=== OK  [181] OP:e RS1:a5a5a5a5 RS2:ffffffff => RD:00000001 (esperado)
=== OK  [182] OP:e RS1:a5a5a5a5 RS2:7fffffff => RD:00000000 (esperado)
=== OK  [183] OP:e RS1:a5a5a5a5 RS2:80000000 => RD:00000000 (esperado)
=== OK  [184] OP:e RS1:a5a5a5a5 RS2:00000001 => RD:00000000 (esperado)
=== OK  [185] OP:e RS1:a5a5a5a5 RS2:fffffffe => RD:00000001 (esperado)
=== OK  [186] OP:e RS1:a5a5a5a5 RS2:00000002 => RD:00000000 (esperado)
=== OK  [187] OP:e RS1:a5a5a5a5 RS2:fffffffd => RD:00000001 (esperado)
=== OK  [188] OP:e RS1:a5a5a5a5 RS2:00000003 => RD:00000000 (esperado)
=== OK  [189] OP:e RS1:a5a5a5a5 RS2:fffffffc => RD:00000001 (esperado)
=== OK  [190] OP:e RS1:a5a5a5a5 RS2:a5a5a5a5 => RD:00000000 (esperado)
=== OK  [191] OP:e RS1:a5a5a5a5 RS2:5a5a5a5a => RD:00000000 (esperado)
=== OK  [192] OP:e RS1:a5a5a5a5 RS2:12345678 => RD:00000000 (esperado)
=== OK  [193] OP:e RS1:a5a5a5a5 RS2:87654321 => RD:00000000 (esperado)
=== OK  [194] OP:e RS1:a5a5a5a5 RS2:0000000f => RD:00000000 (esperado)
=== OK  [195] OP:e RS1:a5a5a5a5 RS2:000000f0 => RD:00000000 (esperado)
=== OK  [196] OP:e RS1:a5a5a5a5 RS2:000000ff => RD:00000000 (esperado)
=== OK  [197] OP:e RS1:a5a5a5a5 RS2:00000010 => RD:00000000 (esperado)
=== OK  [198] OP:e RS1:5a5a5a5a RS2:00000000 => RD:00000000 (esperado)
=== OK  [199] OP:e RS1:5a5a5a5a RS2:ffffffff => RD:00000001 (esperado)
=== OK  [200] OP:e RS1:5a5a5a5a RS2:7fffffff => RD:00000001 (esperado)
=== OK  [201] OP:e RS1:5a5a5a5a RS2:80000000 => RD:00000001 (esperado)
=== OK  [202] OP:e RS1:5a5a5a5a RS2:00000001 => RD:00000000 (esperado)
=== OK  [203] OP:e RS1:5a5a5a5a RS2:fffffffe => RD:00000001 (esperado)
=== OK  [204] OP:e RS1:5a5a5a5a RS2:00000002 => RD:00000000 (esperado)
=== OK  [205] OP:e RS1:5a5a5a5a RS2:fffffffd => RD:00000001 (esperado)
=== OK  [206] OP:e RS1:5a5a5a5a RS2:00000003 => RD:00000000 (esperado)
=== OK  [207] OP:e RS1:5a5a5a5a RS2:fffffffc => RD:00000001 (esperado)
=== OK  [208] OP:e RS1:5a5a5a5a RS2:a5a5a5a5 => RD:00000001 (esperado)
=== OK  [209] OP:e RS1:5a5a5a5a RS2:5a5a5a5a => RD:00000000 (esperado)
=== OK  [210] OP:e RS1:5a5a5a5a RS2:12345678 => RD:00000000 (esperado)
=== OK  [211] OP:e RS1:5a5a5a5a RS2:87654321 => RD:00000001 (esperado)
=== OK  [212] OP:e RS1:5a5a5a5a RS2:0000000f => RD:00000000 (esperado)
=== OK  [213] OP:e RS1:5a5a5a5a RS2:000000f0 => RD:00000000 (esperado)
=== OK  [214] OP:e RS1:5a5a5a5a RS2:000000ff => RD:00000000 (esperado)
=== OK  [215] OP:e RS1:5a5a5a5a RS2:00000010 => RD:00000000 (esperado)
=== OK  [216] OP:e RS1:12345678 RS2:00000000 => RD:00000000 (esperado)
=== OK  [217] OP:e RS1:12345678 RS2:ffffffff => RD:00000001 (esperado)
=== OK  [218] OP:e RS1:12345678 RS2:7fffffff => RD:00000001 (esperado)
=== OK  [219] OP:e RS1:12345678 RS2:80000000 => RD:00000001 (esperado)
=== OK  [220] OP:e RS1:12345678 RS2:00000001 => RD:00000000 (esperado)
=== OK  [221] OP:e RS1:12345678 RS2:fffffffe => RD:00000001 (esperado)
=== OK  [222] OP:e RS1:12345678 RS2:00000002 => RD:00000000 (esperado)
=== OK  [223] OP:e RS1:12345678 RS2:fffffffd => RD:00000001 (esperado)
=== OK  [224] OP:e RS1:12345678 RS2:00000003 => RD:00000000 (esperado)
=== OK  [225] OP:e RS1:12345678 RS2:fffffffc => RD:00000001 (esperado)
=== OK  [226] OP:e RS1:12345678 RS2:a5a5a5a5 => RD:00000001 (esperado)
=== OK  [227] OP:e RS1:12345678 RS2:5a5a5a5a => RD:00000001 (esperado)
=== OK  [228] OP:e RS1:12345678 RS2:12345678 => RD:00000000 (esperado)
=== OK  [229] OP:e RS1:12345678 RS2:87654321 => RD:00000001 (esperado)
=== OK  [230] OP:e RS1:12345678 RS2:0000000f => RD:00000000 (esperado)
=== OK  [231] OP:e RS1:12345678 RS2:000000f0 => RD:00000000 (esperado)
=== OK  [232] OP:e RS1:12345678 RS2:000000ff => RD:00000000 (esperado)
=== OK  [233] OP:e RS1:12345678 RS2:00000010 => RD:00000000 (esperado)
=== OK  [234] OP:e RS1:87654321 RS2:00000000 => RD:00000000 (esperado)
=== OK  [235] OP:e RS1:87654321 RS2:ffffffff => RD:00000001 (esperado)
=== OK  [236] OP:e RS1:87654321 RS2:7fffffff => RD:00000000 (esperado)
=== OK  [237] OP:e RS1:87654321 RS2:80000000 => RD:00000000 (esperado)
=== OK  [238] OP:e RS1:87654321 RS2:00000001 => RD:00000000 (esperado)
=== OK  [239] OP:e RS1:87654321 RS2:fffffffe => RD:00000001 (esperado)
=== OK  [240] OP:e RS1:87654321 RS2:00000002 => RD:00000000 (esperado)
=== OK  [241] OP:e RS1:87654321 RS2:fffffffd => RD:00000001 (esperado)
=== OK  [242] OP:e RS1:87654321 RS2:00000003 => RD:00000000 (esperado)
=== OK  [243] OP:e RS1:87654321 RS2:fffffffc => RD:00000001 (esperado)
=== OK  [244] OP:e RS1:87654321 RS2:a5a5a5a5 => RD:00000001 (esperado)
=== OK  [245] OP:e RS1:87654321 RS2:5a5a5a5a => RD:00000000 (esperado)
=== OK  [246] OP:e RS1:87654321 RS2:12345678 => RD:00000000 (esperado)
=== OK  [247] OP:e RS1:87654321 RS2:87654321 => RD:00000000 (esperado)
=== OK  [248] OP:e RS1:87654321 RS2:0000000f => RD:00000000 (esperado)
=== OK  [249] OP:e RS1:87654321 RS2:000000f0 => RD:00000000 (esperado)
=== OK  [250] OP:e RS1:87654321 RS2:000000ff => RD:00000000 (esperado)
=== OK  [251] OP:e RS1:87654321 RS2:00000010 => RD:00000000 (esperado)
=== OK  [252] OP:e RS1:0000000f RS2:00000000 => RD:00000000 (esperado)
=== OK  [253] OP:e RS1:0000000f RS2:ffffffff => RD:00000001 (esperado)
=== OK  [254] OP:e RS1:0000000f RS2:7fffffff => RD:00000001 (esperado)
=== OK  [255] OP:e RS1:0000000f RS2:80000000 => RD:00000001 (esperado)
=== OK  [256] OP:e RS1:0000000f RS2:00000001 => RD:00000000 (esperado)
=== OK  [257] OP:e RS1:0000000f RS2:fffffffe => RD:00000001 (esperado)
=== OK  [258] OP:e RS1:0000000f RS2:00000002 => RD:00000000 (esperado)
=== OK  [259] OP:e RS1:0000000f RS2:fffffffd => RD:00000001 (esperado)
=== OK  [260] OP:e RS1:0000000f RS2:00000003 => RD:00000000 (esperado)
=== OK  [261] OP:e RS1:0000000f RS2:fffffffc => RD:00000001 (esperado)
=== OK  [262] OP:e RS1:0000000f RS2:a5a5a5a5 => RD:00000001 (esperado)
=== OK  [263] OP:e RS1:0000000f RS2:5a5a5a5a => RD:00000001 (esperado)
=== OK  [264] OP:e RS1:0000000f RS2:12345678 => RD:00000001 (esperado)
=== OK  [265] OP:e RS1:0000000f RS2:87654321 => RD:00000001 (esperado)
=== OK  [266] OP:e RS1:0000000f RS2:0000000f => RD:00000000 (esperado)
=== OK  [267] OP:e RS1:0000000f RS2:000000f0 => RD:00000001 (esperado)
=== OK  [268] OP:e RS1:0000000f RS2:000000ff => RD:00000001 (esperado)
=== OK  [269] OP:e RS1:0000000f RS2:00000010 => RD:00000001 (esperado)
=== OK  [270] OP:e RS1:000000f0 RS2:00000000 => RD:00000000 (esperado)
=== OK  [271] OP:e RS1:000000f0 RS2:ffffffff => RD:00000001 (esperado)
=== OK  [272] OP:e RS1:000000f0 RS2:7fffffff => RD:00000001 (esperado)
=== OK  [273] OP:e RS1:000000f0 RS2:80000000 => RD:00000001 (esperado)
=== OK  [274] OP:e RS1:000000f0 RS2:00000001 => RD:00000000 (esperado)
=== OK  [275] OP:e RS1:000000f0 RS2:fffffffe => RD:00000001 (esperado)
=== OK  [276] OP:e RS1:000000f0 RS2:00000002 => RD:00000000 (esperado)
=== OK  [277] OP:e RS1:000000f0 RS2:fffffffd => RD:00000001 (esperado)
=== OK  [278] OP:e RS1:000000f0 RS2:00000003 => RD:00000000 (esperado)
=== OK  [279] OP:e RS1:000000f0 RS2:fffffffc => RD:00000001 (esperado)
=== OK  [280] OP:e RS1:000000f0 RS2:a5a5a5a5 => RD:00000001 (esperado)
=== OK  [281] OP:e RS1:000000f0 RS2:5a5a5a5a => RD:00000001 (esperado)
=== OK  [282] OP:e RS1:000000f0 RS2:12345678 => RD:00000001 (esperado)
=== OK  [283] OP:e RS1:000000f0 RS2:87654321 => RD:00000001 (esperado)
=== OK  [284] OP:e RS1:000000f0 RS2:0000000f => RD:00000000 (esperado)
=== OK  [285] OP:e RS1:000000f0 RS2:000000f0 => RD:00000000 (esperado)
=== OK  [286] OP:e RS1:000000f0 RS2:000000ff => RD:00000001 (esperado)
=== OK  [287] OP:e RS1:000000f0 RS2:00000010 => RD:00000000 (esperado)
=== OK  [288] OP:e RS1:000000ff RS2:00000000 => RD:00000000 (esperado)
=== OK  [289] OP:e RS1:000000ff RS2:ffffffff => RD:00000001 (esperado)
=== OK  [290] OP:e RS1:000000ff RS2:7fffffff => RD:00000001 (esperado)
=== OK  [291] OP:e RS1:000000ff RS2:80000000 => RD:00000001 (esperado)
=== OK  [292] OP:e RS1:000000ff RS2:00000001 => RD:00000000 (esperado)
=== OK  [293] OP:e RS1:000000ff RS2:fffffffe => RD:00000001 (esperado)
=== OK  [294] OP:e RS1:000000ff RS2:00000002 => RD:00000000 (esperado)
=== OK  [295] OP:e RS1:000000ff RS2:fffffffd => RD:00000001 (esperado)
=== OK  [296] OP:e RS1:000000ff RS2:00000003 => RD:00000000 (esperado)
=== OK  [297] OP:e RS1:000000ff RS2:fffffffc => RD:00000001 (esperado)
=== OK  [298] OP:e RS1:000000ff RS2:a5a5a5a5 => RD:00000001 (esperado)
=== OK  [299] OP:e RS1:000000ff RS2:5a5a5a5a => RD:00000001 (esperado)
=== OK  [300] OP:e RS1:000000ff RS2:12345678 => RD:00000001 (esperado)
=== OK  [301] OP:e RS1:000000ff RS2:87654321 => RD:00000001 (esperado)
=== OK  [302] OP:e RS1:000000ff RS2:0000000f => RD:00000000 (esperado)
=== OK  [303] OP:e RS1:000000ff RS2:000000f0 => RD:00000000 (esperado)
=== OK  [304] OP:e RS1:000000ff RS2:000000ff => RD:00000000 (esperado)
=== OK  [305] OP:e RS1:000000ff RS2:00000010 => RD:00000000 (esperado)
=== OK  [306] OP:e RS1:00000010 RS2:00000000 => RD:00000000 (esperado)
=== OK  [307] OP:e RS1:00000010 RS2:ffffffff => RD:00000001 (esperado)
=== OK  [308] OP:e RS1:00000010 RS2:7fffffff => RD:00000001 (esperado)
=== OK  [309] OP:e RS1:00000010 RS2:80000000 => RD:00000001 (esperado)
=== OK  [310] OP:e RS1:00000010 RS2:00000001 => RD:00000000 (esperado)
=== OK  [311] OP:e RS1:00000010 RS2:fffffffe => RD:00000001 (esperado)
=== OK  [312] OP:e RS1:00000010 RS2:00000002 => RD:00000000 (esperado)
=== OK  [313] OP:e RS1:00000010 RS2:fffffffd => RD:00000001 (esperado)
=== OK  [314] OP:e RS1:00000010 RS2:00000003 => RD:00000000 (esperado)
=== OK  [315] OP:e RS1:00000010 RS2:fffffffc => RD:00000001 (esperado)
=== OK  [316] OP:e RS1:00000010 RS2:a5a5a5a5 => RD:00000001 (esperado)
=== OK  [317] OP:e RS1:00000010 RS2:5a5a5a5a => RD:00000001 (esperado)
=== OK  [318] OP:e RS1:00000010 RS2:12345678 => RD:00000001 (esperado)
=== OK  [319] OP:e RS1:00000010 RS2:87654321 => RD:00000001 (esperado)
=== OK  [320] OP:e RS1:00000010 RS2:0000000f => RD:00000000 (esperado)
=== OK  [321] OP:e RS1:00000010 RS2:000000f0 => RD:00000001 (esperado)
=== OK  [322] OP:e RS1:00000010 RS2:000000ff => RD:00000001 (esperado)
=== OK  [323] OP:e RS1:00000010 RS2:00000010 => RD:00000000 (esperado)
Testbench finalizado com sucesso.
