test/saida8.out
VCD info: dumpfile saida.vcd opened for output.
Iniciando Testbench...
WARNING: tb.v:32: $readmemh(teste.txt): Not enough words in the file for the requested range [0:512].
=== OK  [0] OP:8 RS1:00000000 RS2:00000000 => RD:00000000 (esperado)
=== OK  [1] OP:8 RS1:00000000 RS2:ffffffff => RD:ffffffff (esperado)
=== OK  [2] OP:8 RS1:00000000 RS2:7fffffff => RD:7fffffff (esperado)
=== OK  [3] OP:8 RS1:00000000 RS2:80000000 => RD:80000000 (esperado)
=== OK  [4] OP:8 RS1:00000000 RS2:00000001 => RD:00000001 (esperado)
=== OK  [5] OP:8 RS1:00000000 RS2:fffffffe => RD:fffffffe (esperado)
=== OK  [6] OP:8 RS1:00000000 RS2:00000002 => RD:00000002 (esperado)
=== OK  [7] OP:8 RS1:00000000 RS2:fffffffd => RD:fffffffd (esperado)
=== OK  [8] OP:8 RS1:00000000 RS2:00000003 => RD:00000003 (esperado)
=== OK  [9] OP:8 RS1:00000000 RS2:fffffffc => RD:fffffffc (esperado)
=== OK  [10] OP:8 RS1:00000000 RS2:a5a5a5a5 => RD:a5a5a5a5 (esperado)
=== OK  [11] OP:8 RS1:00000000 RS2:5a5a5a5a => RD:5a5a5a5a (esperado)
=== OK  [12] OP:8 RS1:00000000 RS2:12345678 => RD:12345678 (esperado)
=== OK  [13] OP:8 RS1:00000000 RS2:87654321 => RD:87654321 (esperado)
=== OK  [14] OP:8 RS1:00000000 RS2:0000000f => RD:0000000f (esperado)
=== OK  [15] OP:8 RS1:00000000 RS2:000000f0 => RD:000000f0 (esperado)
=== OK  [16] OP:8 RS1:00000000 RS2:000000ff => RD:000000ff (esperado)
=== OK  [17] OP:8 RS1:00000000 RS2:00000010 => RD:00000010 (esperado)
=== OK  [18] OP:8 RS1:ffffffff RS2:00000000 => RD:ffffffff (esperado)
=== OK  [19] OP:8 RS1:ffffffff RS2:ffffffff => RD:00000000 (esperado)
=== OK  [20] OP:8 RS1:ffffffff RS2:7fffffff => RD:80000000 (esperado)
=== OK  [21] OP:8 RS1:ffffffff RS2:80000000 => RD:7fffffff (esperado)
=== OK  [22] OP:8 RS1:ffffffff RS2:00000001 => RD:fffffffe (esperado)
=== OK  [23] OP:8 RS1:ffffffff RS2:fffffffe => RD:00000001 (esperado)
=== OK  [24] OP:8 RS1:ffffffff RS2:00000002 => RD:fffffffd (esperado)
=== OK  [25] OP:8 RS1:ffffffff RS2:fffffffd => RD:00000002 (esperado)
=== OK  [26] OP:8 RS1:ffffffff RS2:00000003 => RD:fffffffc (esperado)
=== OK  [27] OP:8 RS1:ffffffff RS2:fffffffc => RD:00000003 (esperado)
=== OK  [28] OP:8 RS1:ffffffff RS2:a5a5a5a5 => RD:5a5a5a5a (esperado)
=== OK  [29] OP:8 RS1:ffffffff RS2:5a5a5a5a => RD:a5a5a5a5 (esperado)
=== OK  [30] OP:8 RS1:ffffffff RS2:12345678 => RD:edcba987 (esperado)
=== OK  [31] OP:8 RS1:ffffffff RS2:87654321 => RD:789abcde (esperado)
=== OK  [32] OP:8 RS1:ffffffff RS2:0000000f => RD:fffffff0 (esperado)
=== OK  [33] OP:8 RS1:ffffffff RS2:000000f0 => RD:ffffff0f (esperado)
=== OK  [34] OP:8 RS1:ffffffff RS2:000000ff => RD:ffffff00 (esperado)
=== OK  [35] OP:8 RS1:ffffffff RS2:00000010 => RD:ffffffef (esperado)
=== OK  [36] OP:8 RS1:7fffffff RS2:00000000 => RD:7fffffff (esperado)
=== OK  [37] OP:8 RS1:7fffffff RS2:ffffffff => RD:80000000 (esperado)
=== OK  [38] OP:8 RS1:7fffffff RS2:7fffffff => RD:00000000 (esperado)
=== OK  [39] OP:8 RS1:7fffffff RS2:80000000 => RD:ffffffff (esperado)
=== OK  [40] OP:8 RS1:7fffffff RS2:00000001 => RD:7ffffffe (esperado)
=== OK  [41] OP:8 RS1:7fffffff RS2:fffffffe => RD:80000001 (esperado)
=== OK  [42] OP:8 RS1:7fffffff RS2:00000002 => RD:7ffffffd (esperado)
=== OK  [43] OP:8 RS1:7fffffff RS2:fffffffd => RD:80000002 (esperado)
=== OK  [44] OP:8 RS1:7fffffff RS2:00000003 => RD:7ffffffc (esperado)
=== OK  [45] OP:8 RS1:7fffffff RS2:fffffffc => RD:80000003 (esperado)
=== OK  [46] OP:8 RS1:7fffffff RS2:a5a5a5a5 => RD:da5a5a5a (esperado)
=== OK  [47] OP:8 RS1:7fffffff RS2:5a5a5a5a => RD:25a5a5a5 (esperado)
=== OK  [48] OP:8 RS1:7fffffff RS2:12345678 => RD:6dcba987 (esperado)
=== OK  [49] OP:8 RS1:7fffffff RS2:87654321 => RD:f89abcde (esperado)
=== OK  [50] OP:8 RS1:7fffffff RS2:0000000f => RD:7ffffff0 (esperado)
=== OK  [51] OP:8 RS1:7fffffff RS2:000000f0 => RD:7fffff0f (esperado)
=== OK  [52] OP:8 RS1:7fffffff RS2:000000ff => RD:7fffff00 (esperado)
=== OK  [53] OP:8 RS1:7fffffff RS2:00000010 => RD:7fffffef (esperado)
=== OK  [54] OP:8 RS1:80000000 RS2:00000000 => RD:80000000 (esperado)
=== OK  [55] OP:8 RS1:80000000 RS2:ffffffff => RD:7fffffff (esperado)
=== OK  [56] OP:8 RS1:80000000 RS2:7fffffff => RD:ffffffff (esperado)
=== OK  [57] OP:8 RS1:80000000 RS2:80000000 => RD:00000000 (esperado)
=== OK  [58] OP:8 RS1:80000000 RS2:00000001 => RD:80000001 (esperado)
=== OK  [59] OP:8 RS1:80000000 RS2:fffffffe => RD:7ffffffe (esperado)
=== OK  [60] OP:8 RS1:80000000 RS2:00000002 => RD:80000002 (esperado)
=== OK  [61] OP:8 RS1:80000000 RS2:fffffffd => RD:7ffffffd (esperado)
=== OK  [62] OP:8 RS1:80000000 RS2:00000003 => RD:80000003 (esperado)
=== OK  [63] OP:8 RS1:80000000 RS2:fffffffc => RD:7ffffffc (esperado)
=== OK  [64] OP:8 RS1:80000000 RS2:a5a5a5a5 => RD:25a5a5a5 (esperado)
=== OK  [65] OP:8 RS1:80000000 RS2:5a5a5a5a => RD:da5a5a5a (esperado)
=== OK  [66] OP:8 RS1:80000000 RS2:12345678 => RD:92345678 (esperado)
=== OK  [67] OP:8 RS1:80000000 RS2:87654321 => RD:07654321 (esperado)
=== OK  [68] OP:8 RS1:80000000 RS2:0000000f => RD:8000000f (esperado)
=== OK  [69] OP:8 RS1:80000000 RS2:000000f0 => RD:800000f0 (esperado)
=== OK  [70] OP:8 RS1:80000000 RS2:000000ff => RD:800000ff (esperado)
=== OK  [71] OP:8 RS1:80000000 RS2:00000010 => RD:80000010 (esperado)
=== OK  [72] OP:8 RS1:00000001 RS2:00000000 => RD:00000001 (esperado)
=== OK  [73] OP:8 RS1:00000001 RS2:ffffffff => RD:fffffffe (esperado)
=== OK  [74] OP:8 RS1:00000001 RS2:7fffffff => RD:7ffffffe (esperado)
=== OK  [75] OP:8 RS1:00000001 RS2:80000000 => RD:80000001 (esperado)
=== OK  [76] OP:8 RS1:00000001 RS2:00000001 => RD:00000000 (esperado)
=== OK  [77] OP:8 RS1:00000001 RS2:fffffffe => RD:ffffffff (esperado)
=== OK  [78] OP:8 RS1:00000001 RS2:00000002 => RD:00000003 (esperado)
=== OK  [79] OP:8 RS1:00000001 RS2:fffffffd => RD:fffffffc (esperado)
=== OK  [80] OP:8 RS1:00000001 RS2:00000003 => RD:00000002 (esperado)
=== OK  [81] OP:8 RS1:00000001 RS2:fffffffc => RD:fffffffd (esperado)
=== OK  [82] OP:8 RS1:00000001 RS2:a5a5a5a5 => RD:a5a5a5a4 (esperado)
=== OK  [83] OP:8 RS1:00000001 RS2:5a5a5a5a => RD:5a5a5a5b (esperado)
=== OK  [84] OP:8 RS1:00000001 RS2:12345678 => RD:12345679 (esperado)
=== OK  [85] OP:8 RS1:00000001 RS2:87654321 => RD:87654320 (esperado)
=== OK  [86] OP:8 RS1:00000001 RS2:0000000f => RD:0000000e (esperado)
=== OK  [87] OP:8 RS1:00000001 RS2:000000f0 => RD:000000f1 (esperado)
=== OK  [88] OP:8 RS1:00000001 RS2:000000ff => RD:000000fe (esperado)
=== OK  [89] OP:8 RS1:00000001 RS2:00000010 => RD:00000011 (esperado)
=== OK  [90] OP:8 RS1:fffffffe RS2:00000000 => RD:fffffffe (esperado)
=== OK  [91] OP:8 RS1:fffffffe RS2:ffffffff => RD:00000001 (esperado)
=== OK  [92] OP:8 RS1:fffffffe RS2:7fffffff => RD:80000001 (esperado)
=== OK  [93] OP:8 RS1:fffffffe RS2:80000000 => RD:7ffffffe (esperado)
=== OK  [94] OP:8 RS1:fffffffe RS2:00000001 => RD:ffffffff (esperado)
=== OK  [95] OP:8 RS1:fffffffe RS2:fffffffe => RD:00000000 (esperado)
=== OK  [96] OP:8 RS1:fffffffe RS2:00000002 => RD:fffffffc (esperado)
=== OK  [97] OP:8 RS1:fffffffe RS2:fffffffd => RD:00000003 (esperado)
=== OK  [98] OP:8 RS1:fffffffe RS2:00000003 => RD:fffffffd (esperado)
=== OK  [99] OP:8 RS1:fffffffe RS2:fffffffc => RD:00000002 (esperado)
=== OK  [100] OP:8 RS1:fffffffe RS2:a5a5a5a5 => RD:5a5a5a5b (esperado)
=== OK  [101] OP:8 RS1:fffffffe RS2:5a5a5a5a => RD:a5a5a5a4 (esperado)
=== OK  [102] OP:8 RS1:fffffffe RS2:12345678 => RD:edcba986 (esperado)
=== OK  [103] OP:8 RS1:fffffffe RS2:87654321 => RD:789abcdf (esperado)
=== OK  [104] OP:8 RS1:fffffffe RS2:0000000f => RD:fffffff1 (esperado)
=== OK  [105] OP:8 RS1:fffffffe RS2:000000f0 => RD:ffffff0e (esperado)
=== OK  [106] OP:8 RS1:fffffffe RS2:000000ff => RD:ffffff01 (esperado)
=== OK  [107] OP:8 RS1:fffffffe RS2:00000010 => RD:ffffffee (esperado)
=== OK  [108] OP:8 RS1:00000002 RS2:00000000 => RD:00000002 (esperado)
=== OK  [109] OP:8 RS1:00000002 RS2:ffffffff => RD:fffffffd (esperado)
=== OK  [110] OP:8 RS1:00000002 RS2:7fffffff => RD:7ffffffd (esperado)
=== OK  [111] OP:8 RS1:00000002 RS2:80000000 => RD:80000002 (esperado)
=== OK  [112] OP:8 RS1:00000002 RS2:00000001 => RD:00000003 (esperado)
=== OK  [113] OP:8 RS1:00000002 RS2:fffffffe => RD:fffffffc (esperado)
=== OK  [114] OP:8 RS1:00000002 RS2:00000002 => RD:00000000 (esperado)
=== OK  [115] OP:8 RS1:00000002 RS2:fffffffd => RD:ffffffff (esperado)
=== OK  [116] OP:8 RS1:00000002 RS2:00000003 => RD:00000001 (esperado)
=== OK  [117] OP:8 RS1:00000002 RS2:fffffffc => RD:fffffffe (esperado)
=== OK  [118] OP:8 RS1:00000002 RS2:a5a5a5a5 => RD:a5a5a5a7 (esperado)
=== OK  [119] OP:8 RS1:00000002 RS2:5a5a5a5a => RD:5a5a5a58 (esperado)
=== OK  [120] OP:8 RS1:00000002 RS2:12345678 => RD:1234567a (esperado)
=== OK  [121] OP:8 RS1:00000002 RS2:87654321 => RD:87654323 (esperado)
=== OK  [122] OP:8 RS1:00000002 RS2:0000000f => RD:0000000d (esperado)
=== OK  [123] OP:8 RS1:00000002 RS2:000000f0 => RD:000000f2 (esperado)
=== OK  [124] OP:8 RS1:00000002 RS2:000000ff => RD:000000fd (esperado)
=== OK  [125] OP:8 RS1:00000002 RS2:00000010 => RD:00000012 (esperado)
=== OK  [126] OP:8 RS1:fffffffd RS2:00000000 => RD:fffffffd (esperado)
=== OK  [127] OP:8 RS1:fffffffd RS2:ffffffff => RD:00000002 (esperado)
=== OK  [128] OP:8 RS1:fffffffd RS2:7fffffff => RD:80000002 (esperado)
=== OK  [129] OP:8 RS1:fffffffd RS2:80000000 => RD:7ffffffd (esperado)
=== OK  [130] OP:8 RS1:fffffffd RS2:00000001 => RD:fffffffc (esperado)
=== OK  [131] OP:8 RS1:fffffffd RS2:fffffffe => RD:00000003 (esperado)
=== OK  [132] OP:8 RS1:fffffffd RS2:00000002 => RD:ffffffff (esperado)
=== OK  [133] OP:8 RS1:fffffffd RS2:fffffffd => RD:00000000 (esperado)
=== OK  [134] OP:8 RS1:fffffffd RS2:00000003 => RD:fffffffe (esperado)
=== OK  [135] OP:8 RS1:fffffffd RS2:fffffffc => RD:00000001 (esperado)
=== OK  [136] OP:8 RS1:fffffffd RS2:a5a5a5a5 => RD:5a5a5a58 (esperado)
=== OK  [137] OP:8 RS1:fffffffd RS2:5a5a5a5a => RD:a5a5a5a7 (esperado)
=== OK  [138] OP:8 RS1:fffffffd RS2:12345678 => RD:edcba985 (esperado)
=== OK  [139] OP:8 RS1:fffffffd RS2:87654321 => RD:789abcdc (esperado)
=== OK  [140] OP:8 RS1:fffffffd RS2:0000000f => RD:fffffff2 (esperado)
=== OK  [141] OP:8 RS1:fffffffd RS2:000000f0 => RD:ffffff0d (esperado)
=== OK  [142] OP:8 RS1:fffffffd RS2:000000ff => RD:ffffff02 (esperado)
=== OK  [143] OP:8 RS1:fffffffd RS2:00000010 => RD:ffffffed (esperado)
=== OK  [144] OP:8 RS1:00000003 RS2:00000000 => RD:00000003 (esperado)
=== OK  [145] OP:8 RS1:00000003 RS2:ffffffff => RD:fffffffc (esperado)
=== OK  [146] OP:8 RS1:00000003 RS2:7fffffff => RD:7ffffffc (esperado)
=== OK  [147] OP:8 RS1:00000003 RS2:80000000 => RD:80000003 (esperado)
=== OK  [148] OP:8 RS1:00000003 RS2:00000001 => RD:00000002 (esperado)
=== OK  [149] OP:8 RS1:00000003 RS2:fffffffe => RD:fffffffd (esperado)
=== OK  [150] OP:8 RS1:00000003 RS2:00000002 => RD:00000001 (esperado)
=== OK  [151] OP:8 RS1:00000003 RS2:fffffffd => RD:fffffffe (esperado)
=== OK  [152] OP:8 RS1:00000003 RS2:00000003 => RD:00000000 (esperado)
=== OK  [153] OP:8 RS1:00000003 RS2:fffffffc => RD:ffffffff (esperado)
=== OK  [154] OP:8 RS1:00000003 RS2:a5a5a5a5 => RD:a5a5a5a6 (esperado)
=== OK  [155] OP:8 RS1:00000003 RS2:5a5a5a5a => RD:5a5a5a59 (esperado)
=== OK  [156] OP:8 RS1:00000003 RS2:12345678 => RD:1234567b (esperado)
=== OK  [157] OP:8 RS1:00000003 RS2:87654321 => RD:87654322 (esperado)
=== OK  [158] OP:8 RS1:00000003 RS2:0000000f => RD:0000000c (esperado)
=== OK  [159] OP:8 RS1:00000003 RS2:000000f0 => RD:000000f3 (esperado)
=== OK  [160] OP:8 RS1:00000003 RS2:000000ff => RD:000000fc (esperado)
=== OK  [161] OP:8 RS1:00000003 RS2:00000010 => RD:00000013 (esperado)
=== OK  [162] OP:8 RS1:fffffffc RS2:00000000 => RD:fffffffc (esperado)
=== OK  [163] OP:8 RS1:fffffffc RS2:ffffffff => RD:00000003 (esperado)
=== OK  [164] OP:8 RS1:fffffffc RS2:7fffffff => RD:80000003 (esperado)
=== OK  [165] OP:8 RS1:fffffffc RS2:80000000 => RD:7ffffffc (esperado)
=== OK  [166] OP:8 RS1:fffffffc RS2:00000001 => RD:fffffffd (esperado)
=== OK  [167] OP:8 RS1:fffffffc RS2:fffffffe => RD:00000002 (esperado)
=== OK  [168] OP:8 RS1:fffffffc RS2:00000002 => RD:fffffffe (esperado)
=== OK  [169] OP:8 RS1:fffffffc RS2:fffffffd => RD:00000001 (esperado)
=== OK  [170] OP:8 RS1:fffffffc RS2:00000003 => RD:ffffffff (esperado)
=== OK  [171] OP:8 RS1:fffffffc RS2:fffffffc => RD:00000000 (esperado)
=== OK  [172] OP:8 RS1:fffffffc RS2:a5a5a5a5 => RD:5a5a5a59 (esperado)
=== OK  [173] OP:8 RS1:fffffffc RS2:5a5a5a5a => RD:a5a5a5a6 (esperado)
=== OK  [174] OP:8 RS1:fffffffc RS2:12345678 => RD:edcba984 (esperado)
=== OK  [175] OP:8 RS1:fffffffc RS2:87654321 => RD:789abcdd (esperado)
=== OK  [176] OP:8 RS1:fffffffc RS2:0000000f => RD:fffffff3 (esperado)
=== OK  [177] OP:8 RS1:fffffffc RS2:000000f0 => RD:ffffff0c (esperado)
=== OK  [178] OP:8 RS1:fffffffc RS2:000000ff => RD:ffffff03 (esperado)
=== OK  [179] OP:8 RS1:fffffffc RS2:00000010 => RD:ffffffec (esperado)
=== OK  [180] OP:8 RS1:a5a5a5a5 RS2:00000000 => RD:a5a5a5a5 (esperado)
=== OK  [181] OP:8 RS1:a5a5a5a5 RS2:ffffffff => RD:5a5a5a5a (esperado)
=== OK  [182] OP:8 RS1:a5a5a5a5 RS2:7fffffff => RD:da5a5a5a (esperado)
=== OK  [183] OP:8 RS1:a5a5a5a5 RS2:80000000 => RD:25a5a5a5 (esperado)
=== OK  [184] OP:8 RS1:a5a5a5a5 RS2:00000001 => RD:a5a5a5a4 (esperado)
=== OK  [185] OP:8 RS1:a5a5a5a5 RS2:fffffffe => RD:5a5a5a5b (esperado)
=== OK  [186] OP:8 RS1:a5a5a5a5 RS2:00000002 => RD:a5a5a5a7 (esperado)
=== OK  [187] OP:8 RS1:a5a5a5a5 RS2:fffffffd => RD:5a5a5a58 (esperado)
=== OK  [188] OP:8 RS1:a5a5a5a5 RS2:00000003 => RD:a5a5a5a6 (esperado)
=== OK  [189] OP:8 RS1:a5a5a5a5 RS2:fffffffc => RD:5a5a5a59 (esperado)
=== OK  [190] OP:8 RS1:a5a5a5a5 RS2:a5a5a5a5 => RD:00000000 (esperado)
=== OK  [191] OP:8 RS1:a5a5a5a5 RS2:5a5a5a5a => RD:ffffffff (esperado)
=== OK  [192] OP:8 RS1:a5a5a5a5 RS2:12345678 => RD:b791f3dd (esperado)
=== OK  [193] OP:8 RS1:a5a5a5a5 RS2:87654321 => RD:22c0e684 (esperado)
=== OK  [194] OP:8 RS1:a5a5a5a5 RS2:0000000f => RD:a5a5a5aa (esperado)
=== OK  [195] OP:8 RS1:a5a5a5a5 RS2:000000f0 => RD:a5a5a555 (esperado)
=== OK  [196] OP:8 RS1:a5a5a5a5 RS2:000000ff => RD:a5a5a55a (esperado)
=== OK  [197] OP:8 RS1:a5a5a5a5 RS2:00000010 => RD:a5a5a5b5 (esperado)
=== OK  [198] OP:8 RS1:5a5a5a5a RS2:00000000 => RD:5a5a5a5a (esperado)
=== OK  [199] OP:8 RS1:5a5a5a5a RS2:ffffffff => RD:a5a5a5a5 (esperado)
=== OK  [200] OP:8 RS1:5a5a5a5a RS2:7fffffff => RD:25a5a5a5 (esperado)
=== OK  [201] OP:8 RS1:5a5a5a5a RS2:80000000 => RD:da5a5a5a (esperado)
=== OK  [202] OP:8 RS1:5a5a5a5a RS2:00000001 => RD:5a5a5a5b (esperado)
=== OK  [203] OP:8 RS1:5a5a5a5a RS2:fffffffe => RD:a5a5a5a4 (esperado)
=== OK  [204] OP:8 RS1:5a5a5a5a RS2:00000002 => RD:5a5a5a58 (esperado)
=== OK  [205] OP:8 RS1:5a5a5a5a RS2:fffffffd => RD:a5a5a5a7 (esperado)
=== OK  [206] OP:8 RS1:5a5a5a5a RS2:00000003 => RD:5a5a5a59 (esperado)
=== OK  [207] OP:8 RS1:5a5a5a5a RS2:fffffffc => RD:a5a5a5a6 (esperado)
=== OK  [208] OP:8 RS1:5a5a5a5a RS2:a5a5a5a5 => RD:ffffffff (esperado)
=== OK  [209] OP:8 RS1:5a5a5a5a RS2:5a5a5a5a => RD:00000000 (esperado)
=== OK  [210] OP:8 RS1:5a5a5a5a RS2:12345678 => RD:486e0c22 (esperado)
=== OK  [211] OP:8 RS1:5a5a5a5a RS2:87654321 => RD:dd3f197b (esperado)
=== OK  [212] OP:8 RS1:5a5a5a5a RS2:0000000f => RD:5a5a5a55 (esperado)
=== OK  [213] OP:8 RS1:5a5a5a5a RS2:000000f0 => RD:5a5a5aaa (esperado)
=== OK  [214] OP:8 RS1:5a5a5a5a RS2:000000ff => RD:5a5a5aa5 (esperado)
=== OK  [215] OP:8 RS1:5a5a5a5a RS2:00000010 => RD:5a5a5a4a (esperado)
=== OK  [216] OP:8 RS1:12345678 RS2:00000000 => RD:12345678 (esperado)
=== OK  [217] OP:8 RS1:12345678 RS2:ffffffff => RD:edcba987 (esperado)
=== OK  [218] OP:8 RS1:12345678 RS2:7fffffff => RD:6dcba987 (esperado)
=== OK  [219] OP:8 RS1:12345678 RS2:80000000 => RD:92345678 (esperado)
=== OK  [220] OP:8 RS1:12345678 RS2:00000001 => RD:12345679 (esperado)
=== OK  [221] OP:8 RS1:12345678 RS2:fffffffe => RD:edcba986 (esperado)
=== OK  [222] OP:8 RS1:12345678 RS2:00000002 => RD:1234567a (esperado)
=== OK  [223] OP:8 RS1:12345678 RS2:fffffffd => RD:edcba985 (esperado)
=== OK  [224] OP:8 RS1:12345678 RS2:00000003 => RD:1234567b (esperado)
=== OK  [225] OP:8 RS1:12345678 RS2:fffffffc => RD:edcba984 (esperado)
=== OK  [226] OP:8 RS1:12345678 RS2:a5a5a5a5 => RD:b791f3dd (esperado)
=== OK  [227] OP:8 RS1:12345678 RS2:5a5a5a5a => RD:486e0c22 (esperado)
=== OK  [228] OP:8 RS1:12345678 RS2:12345678 => RD:00000000 (esperado)
=== OK  [229] OP:8 RS1:12345678 RS2:87654321 => RD:95511559 (esperado)
=== OK  [230] OP:8 RS1:12345678 RS2:0000000f => RD:12345677 (esperado)
=== OK  [231] OP:8 RS1:12345678 RS2:000000f0 => RD:12345688 (esperado)
=== OK  [232] OP:8 RS1:12345678 RS2:000000ff => RD:12345687 (esperado)
=== OK  [233] OP:8 RS1:12345678 RS2:00000010 => RD:12345668 (esperado)
=== OK  [234] OP:8 RS1:87654321 RS2:00000000 => RD:87654321 (esperado)
=== OK  [235] OP:8 RS1:87654321 RS2:ffffffff => RD:789abcde (esperado)
=== OK  [236] OP:8 RS1:87654321 RS2:7fffffff => RD:f89abcde (esperado)
=== OK  [237] OP:8 RS1:87654321 RS2:80000000 => RD:07654321 (esperado)
=== OK  [238] OP:8 RS1:87654321 RS2:00000001 => RD:87654320 (esperado)
=== OK  [239] OP:8 RS1:87654321 RS2:fffffffe => RD:789abcdf (esperado)
=== OK  [240] OP:8 RS1:87654321 RS2:00000002 => RD:87654323 (esperado)
=== OK  [241] OP:8 RS1:87654321 RS2:fffffffd => RD:789abcdc (esperado)
=== OK  [242] OP:8 RS1:87654321 RS2:00000003 => RD:87654322 (esperado)
=== OK  [243] OP:8 RS1:87654321 RS2:fffffffc => RD:789abcdd (esperado)
=== OK  [244] OP:8 RS1:87654321 RS2:a5a5a5a5 => RD:22c0e684 (esperado)
=== OK  [245] OP:8 RS1:87654321 RS2:5a5a5a5a => RD:dd3f197b (esperado)
=== OK  [246] OP:8 RS1:87654321 RS2:12345678 => RD:95511559 (esperado)
=== OK  [247] OP:8 RS1:87654321 RS2:87654321 => RD:00000000 (esperado)
=== OK  [248] OP:8 RS1:87654321 RS2:0000000f => RD:8765432e (esperado)
=== OK  [249] OP:8 RS1:87654321 RS2:000000f0 => RD:876543d1 (esperado)
=== OK  [250] OP:8 RS1:87654321 RS2:000000ff => RD:876543de (esperado)
=== OK  [251] OP:8 RS1:87654321 RS2:00000010 => RD:87654331 (esperado)
=== OK  [252] OP:8 RS1:0000000f RS2:00000000 => RD:0000000f (esperado)
=== OK  [253] OP:8 RS1:0000000f RS2:ffffffff => RD:fffffff0 (esperado)
=== OK  [254] OP:8 RS1:0000000f RS2:7fffffff => RD:7ffffff0 (esperado)
=== OK  [255] OP:8 RS1:0000000f RS2:80000000 => RD:8000000f (esperado)
=== OK  [256] OP:8 RS1:0000000f RS2:00000001 => RD:0000000e (esperado)
=== OK  [257] OP:8 RS1:0000000f RS2:fffffffe => RD:fffffff1 (esperado)
=== OK  [258] OP:8 RS1:0000000f RS2:00000002 => RD:0000000d (esperado)
=== OK  [259] OP:8 RS1:0000000f RS2:fffffffd => RD:fffffff2 (esperado)
=== OK  [260] OP:8 RS1:0000000f RS2:00000003 => RD:0000000c (esperado)
=== OK  [261] OP:8 RS1:0000000f RS2:fffffffc => RD:fffffff3 (esperado)
=== OK  [262] OP:8 RS1:0000000f RS2:a5a5a5a5 => RD:a5a5a5aa (esperado)
=== OK  [263] OP:8 RS1:0000000f RS2:5a5a5a5a => RD:5a5a5a55 (esperado)
=== OK  [264] OP:8 RS1:0000000f RS2:12345678 => RD:12345677 (esperado)
=== OK  [265] OP:8 RS1:0000000f RS2:87654321 => RD:8765432e (esperado)
=== OK  [266] OP:8 RS1:0000000f RS2:0000000f => RD:00000000 (esperado)
=== OK  [267] OP:8 RS1:0000000f RS2:000000f0 => RD:000000ff (esperado)
=== OK  [268] OP:8 RS1:0000000f RS2:000000ff => RD:000000f0 (esperado)
=== OK  [269] OP:8 RS1:0000000f RS2:00000010 => RD:0000001f (esperado)
=== OK  [270] OP:8 RS1:000000f0 RS2:00000000 => RD:000000f0 (esperado)
=== OK  [271] OP:8 RS1:000000f0 RS2:ffffffff => RD:ffffff0f (esperado)
=== OK  [272] OP:8 RS1:000000f0 RS2:7fffffff => RD:7fffff0f (esperado)
=== OK  [273] OP:8 RS1:000000f0 RS2:80000000 => RD:800000f0 (esperado)
=== OK  [274] OP:8 RS1:000000f0 RS2:00000001 => RD:000000f1 (esperado)
=== OK  [275] OP:8 RS1:000000f0 RS2:fffffffe => RD:ffffff0e (esperado)
=== OK  [276] OP:8 RS1:000000f0 RS2:00000002 => RD:000000f2 (esperado)
=== OK  [277] OP:8 RS1:000000f0 RS2:fffffffd => RD:ffffff0d (esperado)
=== OK  [278] OP:8 RS1:000000f0 RS2:00000003 => RD:000000f3 (esperado)
=== OK  [279] OP:8 RS1:000000f0 RS2:fffffffc => RD:ffffff0c (esperado)
=== OK  [280] OP:8 RS1:000000f0 RS2:a5a5a5a5 => RD:a5a5a555 (esperado)
=== OK  [281] OP:8 RS1:000000f0 RS2:5a5a5a5a => RD:5a5a5aaa (esperado)
=== OK  [282] OP:8 RS1:000000f0 RS2:12345678 => RD:12345688 (esperado)
=== OK  [283] OP:8 RS1:000000f0 RS2:87654321 => RD:876543d1 (esperado)
=== OK  [284] OP:8 RS1:000000f0 RS2:0000000f => RD:000000ff (esperado)
=== OK  [285] OP:8 RS1:000000f0 RS2:000000f0 => RD:00000000 (esperado)
=== OK  [286] OP:8 RS1:000000f0 RS2:000000ff => RD:0000000f (esperado)
=== OK  [287] OP:8 RS1:000000f0 RS2:00000010 => RD:000000e0 (esperado)
=== OK  [288] OP:8 RS1:000000ff RS2:00000000 => RD:000000ff (esperado)
=== OK  [289] OP:8 RS1:000000ff RS2:ffffffff => RD:ffffff00 (esperado)
=== OK  [290] OP:8 RS1:000000ff RS2:7fffffff => RD:7fffff00 (esperado)
=== OK  [291] OP:8 RS1:000000ff RS2:80000000 => RD:800000ff (esperado)
=== OK  [292] OP:8 RS1:000000ff RS2:00000001 => RD:000000fe (esperado)
=== OK  [293] OP:8 RS1:000000ff RS2:fffffffe => RD:ffffff01 (esperado)
=== OK  [294] OP:8 RS1:000000ff RS2:00000002 => RD:000000fd (esperado)
=== OK  [295] OP:8 RS1:000000ff RS2:fffffffd => RD:ffffff02 (esperado)
=== OK  [296] OP:8 RS1:000000ff RS2:00000003 => RD:000000fc (esperado)
=== OK  [297] OP:8 RS1:000000ff RS2:fffffffc => RD:ffffff03 (esperado)
=== OK  [298] OP:8 RS1:000000ff RS2:a5a5a5a5 => RD:a5a5a55a (esperado)
=== OK  [299] OP:8 RS1:000000ff RS2:5a5a5a5a => RD:5a5a5aa5 (esperado)
=== OK  [300] OP:8 RS1:000000ff RS2:12345678 => RD:12345687 (esperado)
=== OK  [301] OP:8 RS1:000000ff RS2:87654321 => RD:876543de (esperado)
=== OK  [302] OP:8 RS1:000000ff RS2:0000000f => RD:000000f0 (esperado)
=== OK  [303] OP:8 RS1:000000ff RS2:000000f0 => RD:0000000f (esperado)
=== OK  [304] OP:8 RS1:000000ff RS2:000000ff => RD:00000000 (esperado)
=== OK  [305] OP:8 RS1:000000ff RS2:00000010 => RD:000000ef (esperado)
=== OK  [306] OP:8 RS1:00000010 RS2:00000000 => RD:00000010 (esperado)
=== OK  [307] OP:8 RS1:00000010 RS2:ffffffff => RD:ffffffef (esperado)
=== OK  [308] OP:8 RS1:00000010 RS2:7fffffff => RD:7fffffef (esperado)
=== OK  [309] OP:8 RS1:00000010 RS2:80000000 => RD:80000010 (esperado)
=== OK  [310] OP:8 RS1:00000010 RS2:00000001 => RD:00000011 (esperado)
=== OK  [311] OP:8 RS1:00000010 RS2:fffffffe => RD:ffffffee (esperado)
=== OK  [312] OP:8 RS1:00000010 RS2:00000002 => RD:00000012 (esperado)
=== OK  [313] OP:8 RS1:00000010 RS2:fffffffd => RD:ffffffed (esperado)
=== OK  [314] OP:8 RS1:00000010 RS2:00000003 => RD:00000013 (esperado)
=== OK  [315] OP:8 RS1:00000010 RS2:fffffffc => RD:ffffffec (esperado)
=== OK  [316] OP:8 RS1:00000010 RS2:a5a5a5a5 => RD:a5a5a5b5 (esperado)
=== OK  [317] OP:8 RS1:00000010 RS2:5a5a5a5a => RD:5a5a5a4a (esperado)
=== OK  [318] OP:8 RS1:00000010 RS2:12345678 => RD:12345668 (esperado)
=== OK  [319] OP:8 RS1:00000010 RS2:87654321 => RD:87654331 (esperado)
=== OK  [320] OP:8 RS1:00000010 RS2:0000000f => RD:0000001f (esperado)
=== OK  [321] OP:8 RS1:00000010 RS2:000000f0 => RD:000000e0 (esperado)
=== OK  [322] OP:8 RS1:00000010 RS2:000000ff => RD:000000ef (esperado)
=== OK  [323] OP:8 RS1:00000010 RS2:00000010 => RD:00000000 (esperado)
Testbench finalizado com sucesso.
