test/saida0.out
VCD info: dumpfile saida.vcd opened for output.
Iniciando Testbench...
WARNING: tb.v:32: $readmemh(teste.txt): Not enough words in the file for the requested range [0:512].
=== OK  [0] OP:0 RS1:00000000 RS2:00000000 => RD:00000000 (esperado)
=== OK  [1] OP:0 RS1:00000000 RS2:ffffffff => RD:00000000 (esperado)
=== OK  [2] OP:0 RS1:00000000 RS2:7fffffff => RD:00000000 (esperado)
=== OK  [3] OP:0 RS1:00000000 RS2:80000000 => RD:00000000 (esperado)
=== OK  [4] OP:0 RS1:00000000 RS2:00000001 => RD:00000000 (esperado)
=== OK  [5] OP:0 RS1:00000000 RS2:fffffffe => RD:00000000 (esperado)
=== OK  [6] OP:0 RS1:00000000 RS2:00000002 => RD:00000000 (esperado)
=== OK  [7] OP:0 RS1:00000000 RS2:fffffffd => RD:00000000 (esperado)
=== OK  [8] OP:0 RS1:00000000 RS2:00000003 => RD:00000000 (esperado)
=== OK  [9] OP:0 RS1:00000000 RS2:fffffffc => RD:00000000 (esperado)
=== OK  [10] OP:0 RS1:00000000 RS2:a5a5a5a5 => RD:00000000 (esperado)
=== OK  [11] OP:0 RS1:00000000 RS2:5a5a5a5a => RD:00000000 (esperado)
=== OK  [12] OP:0 RS1:00000000 RS2:12345678 => RD:00000000 (esperado)
=== OK  [13] OP:0 RS1:00000000 RS2:87654321 => RD:00000000 (esperado)
=== OK  [14] OP:0 RS1:00000000 RS2:0000000f => RD:00000000 (esperado)
=== OK  [15] OP:0 RS1:00000000 RS2:000000f0 => RD:00000000 (esperado)
=== OK  [16] OP:0 RS1:00000000 RS2:000000ff => RD:00000000 (esperado)
=== OK  [17] OP:0 RS1:00000000 RS2:00000010 => RD:00000000 (esperado)
=== OK  [18] OP:0 RS1:ffffffff RS2:00000000 => RD:00000000 (esperado)
=== OK  [19] OP:0 RS1:ffffffff RS2:ffffffff => RD:ffffffff (esperado)
=== OK  [20] OP:0 RS1:ffffffff RS2:7fffffff => RD:7fffffff (esperado)
=== OK  [21] OP:0 RS1:ffffffff RS2:80000000 => RD:80000000 (esperado)
=== OK  [22] OP:0 RS1:ffffffff RS2:00000001 => RD:00000001 (esperado)
=== OK  [23] OP:0 RS1:ffffffff RS2:fffffffe => RD:fffffffe (esperado)
=== OK  [24] OP:0 RS1:ffffffff RS2:00000002 => RD:00000002 (esperado)
=== OK  [25] OP:0 RS1:ffffffff RS2:fffffffd => RD:fffffffd (esperado)
=== OK  [26] OP:0 RS1:ffffffff RS2:00000003 => RD:00000003 (esperado)
=== OK  [27] OP:0 RS1:ffffffff RS2:fffffffc => RD:fffffffc (esperado)
=== OK  [28] OP:0 RS1:ffffffff RS2:a5a5a5a5 => RD:a5a5a5a5 (esperado)
=== OK  [29] OP:0 RS1:ffffffff RS2:5a5a5a5a => RD:5a5a5a5a (esperado)
=== OK  [30] OP:0 RS1:ffffffff RS2:12345678 => RD:12345678 (esperado)
=== OK  [31] OP:0 RS1:ffffffff RS2:87654321 => RD:87654321 (esperado)
=== OK  [32] OP:0 RS1:ffffffff RS2:0000000f => RD:0000000f (esperado)
=== OK  [33] OP:0 RS1:ffffffff RS2:000000f0 => RD:000000f0 (esperado)
=== OK  [34] OP:0 RS1:ffffffff RS2:000000ff => RD:000000ff (esperado)
=== OK  [35] OP:0 RS1:ffffffff RS2:00000010 => RD:00000010 (esperado)
=== OK  [36] OP:0 RS1:7fffffff RS2:00000000 => RD:00000000 (esperado)
=== OK  [37] OP:0 RS1:7fffffff RS2:ffffffff => RD:7fffffff (esperado)
=== OK  [38] OP:0 RS1:7fffffff RS2:7fffffff => RD:7fffffff (esperado)
=== OK  [39] OP:0 RS1:7fffffff RS2:80000000 => RD:00000000 (esperado)
=== OK  [40] OP:0 RS1:7fffffff RS2:00000001 => RD:00000001 (esperado)
=== OK  [41] OP:0 RS1:7fffffff RS2:fffffffe => RD:7ffffffe (esperado)
=== OK  [42] OP:0 RS1:7fffffff RS2:00000002 => RD:00000002 (esperado)
=== OK  [43] OP:0 RS1:7fffffff RS2:fffffffd => RD:7ffffffd (esperado)
=== OK  [44] OP:0 RS1:7fffffff RS2:00000003 => RD:00000003 (esperado)
=== OK  [45] OP:0 RS1:7fffffff RS2:fffffffc => RD:7ffffffc (esperado)
=== OK  [46] OP:0 RS1:7fffffff RS2:a5a5a5a5 => RD:25a5a5a5 (esperado)
=== OK  [47] OP:0 RS1:7fffffff RS2:5a5a5a5a => RD:5a5a5a5a (esperado)
=== OK  [48] OP:0 RS1:7fffffff RS2:12345678 => RD:12345678 (esperado)
=== OK  [49] OP:0 RS1:7fffffff RS2:87654321 => RD:07654321 (esperado)
=== OK  [50] OP:0 RS1:7fffffff RS2:0000000f => RD:0000000f (esperado)
=== OK  [51] OP:0 RS1:7fffffff RS2:000000f0 => RD:000000f0 (esperado)
=== OK  [52] OP:0 RS1:7fffffff RS2:000000ff => RD:000000ff (esperado)
=== OK  [53] OP:0 RS1:7fffffff RS2:00000010 => RD:00000010 (esperado)
=== OK  [54] OP:0 RS1:80000000 RS2:00000000 => RD:00000000 (esperado)
=== OK  [55] OP:0 RS1:80000000 RS2:ffffffff => RD:80000000 (esperado)
=== OK  [56] OP:0 RS1:80000000 RS2:7fffffff => RD:00000000 (esperado)
=== OK  [57] OP:0 RS1:80000000 RS2:80000000 => RD:80000000 (esperado)
=== OK  [58] OP:0 RS1:80000000 RS2:00000001 => RD:00000000 (esperado)
=== OK  [59] OP:0 RS1:80000000 RS2:fffffffe => RD:80000000 (esperado)
=== OK  [60] OP:0 RS1:80000000 RS2:00000002 => RD:00000000 (esperado)
=== OK  [61] OP:0 RS1:80000000 RS2:fffffffd => RD:80000000 (esperado)
=== OK  [62] OP:0 RS1:80000000 RS2:00000003 => RD:00000000 (esperado)
=== OK  [63] OP:0 RS1:80000000 RS2:fffffffc => RD:80000000 (esperado)
=== OK  [64] OP:0 RS1:80000000 RS2:a5a5a5a5 => RD:80000000 (esperado)
=== OK  [65] OP:0 RS1:80000000 RS2:5a5a5a5a => RD:00000000 (esperado)
=== OK  [66] OP:0 RS1:80000000 RS2:12345678 => RD:00000000 (esperado)
=== OK  [67] OP:0 RS1:80000000 RS2:87654321 => RD:80000000 (esperado)
=== OK  [68] OP:0 RS1:80000000 RS2:0000000f => RD:00000000 (esperado)
=== OK  [69] OP:0 RS1:80000000 RS2:000000f0 => RD:00000000 (esperado)
=== OK  [70] OP:0 RS1:80000000 RS2:000000ff => RD:00000000 (esperado)
=== OK  [71] OP:0 RS1:80000000 RS2:00000010 => RD:00000000 (esperado)
=== OK  [72] OP:0 RS1:00000001 RS2:00000000 => RD:00000000 (esperado)
=== OK  [73] OP:0 RS1:00000001 RS2:ffffffff => RD:00000001 (esperado)
=== OK  [74] OP:0 RS1:00000001 RS2:7fffffff => RD:00000001 (esperado)
=== OK  [75] OP:0 RS1:00000001 RS2:80000000 => RD:00000000 (esperado)
=== OK  [76] OP:0 RS1:00000001 RS2:00000001 => RD:00000001 (esperado)
=== OK  [77] OP:0 RS1:00000001 RS2:fffffffe => RD:00000000 (esperado)
=== OK  [78] OP:0 RS1:00000001 RS2:00000002 => RD:00000000 (esperado)
=== OK  [79] OP:0 RS1:00000001 RS2:fffffffd => RD:00000001 (esperado)
=== OK  [80] OP:0 RS1:00000001 RS2:00000003 => RD:00000001 (esperado)
=== OK  [81] OP:0 RS1:00000001 RS2:fffffffc => RD:00000000 (esperado)
=== OK  [82] OP:0 RS1:00000001 RS2:a5a5a5a5 => RD:00000001 (esperado)
=== OK  [83] OP:0 RS1:00000001 RS2:5a5a5a5a => RD:00000000 (esperado)
=== OK  [84] OP:0 RS1:00000001 RS2:12345678 => RD:00000000 (esperado)
=== OK  [85] OP:0 RS1:00000001 RS2:87654321 => RD:00000001 (esperado)
=== OK  [86] OP:0 RS1:00000001 RS2:0000000f => RD:00000001 (esperado)
=== OK  [87] OP:0 RS1:00000001 RS2:000000f0 => RD:00000000 (esperado)
=== OK  [88] OP:0 RS1:00000001 RS2:000000ff => RD:00000001 (esperado)
=== OK  [89] OP:0 RS1:00000001 RS2:00000010 => RD:00000000 (esperado)
=== OK  [90] OP:0 RS1:fffffffe RS2:00000000 => RD:00000000 (esperado)
=== OK  [91] OP:0 RS1:fffffffe RS2:ffffffff => RD:fffffffe (esperado)
=== OK  [92] OP:0 RS1:fffffffe RS2:7fffffff => RD:7ffffffe (esperado)
=== OK  [93] OP:0 RS1:fffffffe RS2:80000000 => RD:80000000 (esperado)
=== OK  [94] OP:0 RS1:fffffffe RS2:00000001 => RD:00000000 (esperado)
=== OK  [95] OP:0 RS1:fffffffe RS2:fffffffe => RD:fffffffe (esperado)
=== OK  [96] OP:0 RS1:fffffffe RS2:00000002 => RD:00000002 (esperado)
=== OK  [97] OP:0 RS1:fffffffe RS2:fffffffd => RD:fffffffc (esperado)
=== OK  [98] OP:0 RS1:fffffffe RS2:00000003 => RD:00000002 (esperado)
=== OK  [99] OP:0 RS1:fffffffe RS2:fffffffc => RD:fffffffc (esperado)
=== OK  [100] OP:0 RS1:fffffffe RS2:a5a5a5a5 => RD:a5a5a5a4 (esperado)
=== OK  [101] OP:0 RS1:fffffffe RS2:5a5a5a5a => RD:5a5a5a5a (esperado)
=== OK  [102] OP:0 RS1:fffffffe RS2:12345678 => RD:12345678 (esperado)
=== OK  [103] OP:0 RS1:fffffffe RS2:87654321 => RD:87654320 (esperado)
=== OK  [104] OP:0 RS1:fffffffe RS2:0000000f => RD:0000000e (esperado)
=== OK  [105] OP:0 RS1:fffffffe RS2:000000f0 => RD:000000f0 (esperado)
=== OK  [106] OP:0 RS1:fffffffe RS2:000000ff => RD:000000fe (esperado)
=== OK  [107] OP:0 RS1:fffffffe RS2:00000010 => RD:00000010 (esperado)
=== OK  [108] OP:0 RS1:00000002 RS2:00000000 => RD:00000000 (esperado)
=== OK  [109] OP:0 RS1:00000002 RS2:ffffffff => RD:00000002 (esperado)
=== OK  [110] OP:0 RS1:00000002 RS2:7fffffff => RD:00000002 (esperado)
=== OK  [111] OP:0 RS1:00000002 RS2:80000000 => RD:00000000 (esperado)
=== OK  [112] OP:0 RS1:00000002 RS2:00000001 => RD:00000000 (esperado)
=== OK  [113] OP:0 RS1:00000002 RS2:fffffffe => RD:00000002 (esperado)
=== OK  [114] OP:0 RS1:00000002 RS2:00000002 => RD:00000002 (esperado)
=== OK  [115] OP:0 RS1:00000002 RS2:fffffffd => RD:00000000 (esperado)
=== OK  [116] OP:0 RS1:00000002 RS2:00000003 => RD:00000002 (esperado)
=== OK  [117] OP:0 RS1:00000002 RS2:fffffffc => RD:00000000 (esperado)
=== OK  [118] OP:0 RS1:00000002 RS2:a5a5a5a5 => RD:00000000 (esperado)
=== OK  [119] OP:0 RS1:00000002 RS2:5a5a5a5a => RD:00000002 (esperado)
=== OK  [120] OP:0 RS1:00000002 RS2:12345678 => RD:00000000 (esperado)
=== OK  [121] OP:0 RS1:00000002 RS2:87654321 => RD:00000000 (esperado)
=== OK  [122] OP:0 RS1:00000002 RS2:0000000f => RD:00000002 (esperado)
=== OK  [123] OP:0 RS1:00000002 RS2:000000f0 => RD:00000000 (esperado)
=== OK  [124] OP:0 RS1:00000002 RS2:000000ff => RD:00000002 (esperado)
=== OK  [125] OP:0 RS1:00000002 RS2:00000010 => RD:00000000 (esperado)
=== OK  [126] OP:0 RS1:fffffffd RS2:00000000 => RD:00000000 (esperado)
=== OK  [127] OP:0 RS1:fffffffd RS2:ffffffff => RD:fffffffd (esperado)
=== OK  [128] OP:0 RS1:fffffffd RS2:7fffffff => RD:7ffffffd (esperado)
=== OK  [129] OP:0 RS1:fffffffd RS2:80000000 => RD:80000000 (esperado)
=== OK  [130] OP:0 RS1:fffffffd RS2:00000001 => RD:00000001 (esperado)
=== OK  [131] OP:0 RS1:fffffffd RS2:fffffffe => RD:fffffffc (esperado)
=== OK  [132] OP:0 RS1:fffffffd RS2:00000002 => RD:00000000 (esperado)
=== OK  [133] OP:0 RS1:fffffffd RS2:fffffffd => RD:fffffffd (esperado)
=== OK  [134] OP:0 RS1:fffffffd RS2:00000003 => RD:00000001 (esperado)
=== OK  [135] OP:0 RS1:fffffffd RS2:fffffffc => RD:fffffffc (esperado)
=== OK  [136] OP:0 RS1:fffffffd RS2:a5a5a5a5 => RD:a5a5a5a5 (esperado)
=== OK  [137] OP:0 RS1:fffffffd RS2:5a5a5a5a => RD:5a5a5a58 (esperado)
=== OK  [138] OP:0 RS1:fffffffd RS2:12345678 => RD:12345678 (esperado)
=== OK  [139] OP:0 RS1:fffffffd RS2:87654321 => RD:87654321 (esperado)
=== OK  [140] OP:0 RS1:fffffffd RS2:0000000f => RD:0000000d (esperado)
=== OK  [141] OP:0 RS1:fffffffd RS2:000000f0 => RD:000000f0 (esperado)
=== OK  [142] OP:0 RS1:fffffffd RS2:000000ff => RD:000000fd (esperado)
=== OK  [143] OP:0 RS1:fffffffd RS2:00000010 => RD:00000010 (esperado)
=== OK  [144] OP:0 RS1:00000003 RS2:00000000 => RD:00000000 (esperado)
=== OK  [145] OP:0 RS1:00000003 RS2:ffffffff => RD:00000003 (esperado)
=== OK  [146] OP:0 RS1:00000003 RS2:7fffffff => RD:00000003 (esperado)
=== OK  [147] OP:0 RS1:00000003 RS2:80000000 => RD:00000000 (esperado)
=== OK  [148] OP:0 RS1:00000003 RS2:00000001 => RD:00000001 (esperado)
=== OK  [149] OP:0 RS1:00000003 RS2:fffffffe => RD:00000002 (esperado)
=== OK  [150] OP:0 RS1:00000003 RS2:00000002 => RD:00000002 (esperado)
=== OK  [151] OP:0 RS1:00000003 RS2:fffffffd => RD:00000001 (esperado)
=== OK  [152] OP:0 RS1:00000003 RS2:00000003 => RD:00000003 (esperado)
=== OK  [153] OP:0 RS1:00000003 RS2:fffffffc => RD:00000000 (esperado)
=== OK  [154] OP:0 RS1:00000003 RS2:a5a5a5a5 => RD:00000001 (esperado)
=== OK  [155] OP:0 RS1:00000003 RS2:5a5a5a5a => RD:00000002 (esperado)
=== OK  [156] OP:0 RS1:00000003 RS2:12345678 => RD:00000000 (esperado)
=== OK  [157] OP:0 RS1:00000003 RS2:87654321 => RD:00000001 (esperado)
=== OK  [158] OP:0 RS1:00000003 RS2:0000000f => RD:00000003 (esperado)
=== OK  [159] OP:0 RS1:00000003 RS2:000000f0 => RD:00000000 (esperado)
=== OK  [160] OP:0 RS1:00000003 RS2:000000ff => RD:00000003 (esperado)
=== OK  [161] OP:0 RS1:00000003 RS2:00000010 => RD:00000000 (esperado)
=== OK  [162] OP:0 RS1:fffffffc RS2:00000000 => RD:00000000 (esperado)
=== OK  [163] OP:0 RS1:fffffffc RS2:ffffffff => RD:fffffffc (esperado)
=== OK  [164] OP:0 RS1:fffffffc RS2:7fffffff => RD:7ffffffc (esperado)
=== OK  [165] OP:0 RS1:fffffffc RS2:80000000 => RD:80000000 (esperado)
=== OK  [166] OP:0 RS1:fffffffc RS2:00000001 => RD:00000000 (esperado)
=== OK  [167] OP:0 RS1:fffffffc RS2:fffffffe => RD:fffffffc (esperado)
=== OK  [168] OP:0 RS1:fffffffc RS2:00000002 => RD:00000000 (esperado)
=== OK  [169] OP:0 RS1:fffffffc RS2:fffffffd => RD:fffffffc (esperado)
=== OK  [170] OP:0 RS1:fffffffc RS2:00000003 => RD:00000000 (esperado)
=== OK  [171] OP:0 RS1:fffffffc RS2:fffffffc => RD:fffffffc (esperado)
=== OK  [172] OP:0 RS1:fffffffc RS2:a5a5a5a5 => RD:a5a5a5a4 (esperado)
=== OK  [173] OP:0 RS1:fffffffc RS2:5a5a5a5a => RD:5a5a5a58 (esperado)
=== OK  [174] OP:0 RS1:fffffffc RS2:12345678 => RD:12345678 (esperado)
=== OK  [175] OP:0 RS1:fffffffc RS2:87654321 => RD:87654320 (esperado)
=== OK  [176] OP:0 RS1:fffffffc RS2:0000000f => RD:0000000c (esperado)
=== OK  [177] OP:0 RS1:fffffffc RS2:000000f0 => RD:000000f0 (esperado)
=== OK  [178] OP:0 RS1:fffffffc RS2:000000ff => RD:000000fc (esperado)
=== OK  [179] OP:0 RS1:fffffffc RS2:00000010 => RD:00000010 (esperado)
=== OK  [180] OP:0 RS1:a5a5a5a5 RS2:00000000 => RD:00000000 (esperado)
=== OK  [181] OP:0 RS1:a5a5a5a5 RS2:ffffffff => RD:a5a5a5a5 (esperado)
=== OK  [182] OP:0 RS1:a5a5a5a5 RS2:7fffffff => RD:25a5a5a5 (esperado)
=== OK  [183] OP:0 RS1:a5a5a5a5 RS2:80000000 => RD:80000000 (esperado)
=== OK  [184] OP:0 RS1:a5a5a5a5 RS2:00000001 => RD:00000001 (esperado)
=== OK  [185] OP:0 RS1:a5a5a5a5 RS2:fffffffe => RD:a5a5a5a4 (esperado)
=== OK  [186] OP:0 RS1:a5a5a5a5 RS2:00000002 => RD:00000000 (esperado)
=== OK  [187] OP:0 RS1:a5a5a5a5 RS2:fffffffd => RD:a5a5a5a5 (esperado)
=== OK  [188] OP:0 RS1:a5a5a5a5 RS2:00000003 => RD:00000001 (esperado)
=== OK  [189] OP:0 RS1:a5a5a5a5 RS2:fffffffc => RD:a5a5a5a4 (esperado)
=== OK  [190] OP:0 RS1:a5a5a5a5 RS2:a5a5a5a5 => RD:a5a5a5a5 (esperado)
=== OK  [191] OP:0 RS1:a5a5a5a5 RS2:5a5a5a5a => RD:00000000 (esperado)
=== OK  [192] OP:0 RS1:a5a5a5a5 RS2:12345678 => RD:00240420 (esperado)
=== OK  [193] OP:0 RS1:a5a5a5a5 RS2:87654321 => RD:85250121 (esperado)
=== OK  [194] OP:0 RS1:a5a5a5a5 RS2:0000000f => RD:00000005 (esperado)
=== OK  [195] OP:0 RS1:a5a5a5a5 RS2:000000f0 => RD:000000a0 (esperado)
=== OK  [196] OP:0 RS1:a5a5a5a5 RS2:000000ff => RD:000000a5 (esperado)
=== OK  [197] OP:0 RS1:a5a5a5a5 RS2:00000010 => RD:00000000 (esperado)
=== OK  [198] OP:0 RS1:5a5a5a5a RS2:00000000 => RD:00000000 (esperado)
=== OK  [199] OP:0 RS1:5a5a5a5a RS2:ffffffff => RD:5a5a5a5a (esperado)
=== OK  [200] OP:0 RS1:5a5a5a5a RS2:7fffffff => RD:5a5a5a5a (esperado)
=== OK  [201] OP:0 RS1:5a5a5a5a RS2:80000000 => RD:00000000 (esperado)
=== OK  [202] OP:0 RS1:5a5a5a5a RS2:00000001 => RD:00000000 (esperado)
=== OK  [203] OP:0 RS1:5a5a5a5a RS2:fffffffe => RD:5a5a5a5a (esperado)
=== OK  [204] OP:0 RS1:5a5a5a5a RS2:00000002 => RD:00000002 (esperado)
=== OK  [205] OP:0 RS1:5a5a5a5a RS2:fffffffd => RD:5a5a5a58 (esperado)
=== OK  [206] OP:0 RS1:5a5a5a5a RS2:00000003 => RD:00000002 (esperado)
=== OK  [207] OP:0 RS1:5a5a5a5a RS2:fffffffc => RD:5a5a5a58 (esperado)
=== OK  [208] OP:0 RS1:5a5a5a5a RS2:a5a5a5a5 => RD:00000000 (esperado)
=== OK  [209] OP:0 RS1:5a5a5a5a RS2:5a5a5a5a => RD:5a5a5a5a (esperado)
=== OK  [210] OP:0 RS1:5a5a5a5a RS2:12345678 => RD:12105258 (esperado)
=== OK  [211] OP:0 RS1:5a5a5a5a RS2:87654321 => RD:02404200 (esperado)
=== OK  [212] OP:0 RS1:5a5a5a5a RS2:0000000f => RD:0000000a (esperado)
=== OK  [213] OP:0 RS1:5a5a5a5a RS2:000000f0 => RD:00000050 (esperado)
=== OK  [214] OP:0 RS1:5a5a5a5a RS2:000000ff => RD:0000005a (esperado)
=== OK  [215] OP:0 RS1:5a5a5a5a RS2:00000010 => RD:00000010 (esperado)
=== OK  [216] OP:0 RS1:12345678 RS2:00000000 => RD:00000000 (esperado)
=== OK  [217] OP:0 RS1:12345678 RS2:ffffffff => RD:12345678 (esperado)
=== OK  [218] OP:0 RS1:12345678 RS2:7fffffff => RD:12345678 (esperado)
=== OK  [219] OP:0 RS1:12345678 RS2:80000000 => RD:00000000 (esperado)
=== OK  [220] OP:0 RS1:12345678 RS2:00000001 => RD:00000000 (esperado)
=== OK  [221] OP:0 RS1:12345678 RS2:fffffffe => RD:12345678 (esperado)
=== OK  [222] OP:0 RS1:12345678 RS2:00000002 => RD:00000000 (esperado)
=== OK  [223] OP:0 RS1:12345678 RS2:fffffffd => RD:12345678 (esperado)
=== OK  [224] OP:0 RS1:12345678 RS2:00000003 => RD:00000000 (esperado)
=== OK  [225] OP:0 RS1:12345678 RS2:fffffffc => RD:12345678 (esperado)
=== OK  [226] OP:0 RS1:12345678 RS2:a5a5a5a5 => RD:00240420 (esperado)
=== OK  [227] OP:0 RS1:12345678 RS2:5a5a5a5a => RD:12105258 (esperado)
=== OK  [228] OP:0 RS1:12345678 RS2:12345678 => RD:12345678 (esperado)
=== OK  [229] OP:0 RS1:12345678 RS2:87654321 => RD:02244220 (esperado)
=== OK  [230] OP:0 RS1:12345678 RS2:0000000f => RD:00000008 (esperado)
=== OK  [231] OP:0 RS1:12345678 RS2:000000f0 => RD:00000070 (esperado)
=== OK  [232] OP:0 RS1:12345678 RS2:000000ff => RD:00000078 (esperado)
=== OK  [233] OP:0 RS1:12345678 RS2:00000010 => RD:00000010 (esperado)
=== OK  [234] OP:0 RS1:87654321 RS2:00000000 => RD:00000000 (esperado)
=== OK  [235] OP:0 RS1:87654321 RS2:ffffffff => RD:87654321 (esperado)
=== OK  [236] OP:0 RS1:87654321 RS2:7fffffff => RD:07654321 (esperado)
=== OK  [237] OP:0 RS1:87654321 RS2:80000000 => RD:80000000 (esperado)
=== OK  [238] OP:0 RS1:87654321 RS2:00000001 => RD:00000001 (esperado)
=== OK  [239] OP:0 RS1:87654321 RS2:fffffffe => RD:87654320 (esperado)
=== OK  [240] OP:0 RS1:87654321 RS2:00000002 => RD:00000000 (esperado)
=== OK  [241] OP:0 RS1:87654321 RS2:fffffffd => RD:87654321 (esperado)
=== OK  [242] OP:0 RS1:87654321 RS2:00000003 => RD:00000001 (esperado)
=== OK  [243] OP:0 RS1:87654321 RS2:fffffffc => RD:87654320 (esperado)
=== OK  [244] OP:0 RS1:87654321 RS2:a5a5a5a5 => RD:85250121 (esperado)
=== OK  [245] OP:0 RS1:87654321 RS2:5a5a5a5a => RD:02404200 (esperado)
=== OK  [246] OP:0 RS1:87654321 RS2:12345678 => RD:02244220 (esperado)
=== OK  [247] OP:0 RS1:87654321 RS2:87654321 => RD:87654321 (esperado)
=== OK  [248] OP:0 RS1:87654321 RS2:0000000f => RD:00000001 (esperado)
=== OK  [249] OP:0 RS1:87654321 RS2:000000f0 => RD:00000020 (esperado)
=== OK  [250] OP:0 RS1:87654321 RS2:000000ff => RD:00000021 (esperado)
=== OK  [251] OP:0 RS1:87654321 RS2:00000010 => RD:00000000 (esperado)
=== OK  [252] OP:0 RS1:0000000f RS2:00000000 => RD:00000000 (esperado)
=== OK  [253] OP:0 RS1:0000000f RS2:ffffffff => RD:0000000f (esperado)
=== OK  [254] OP:0 RS1:0000000f RS2:7fffffff => RD:0000000f (esperado)
=== OK  [255] OP:0 RS1:0000000f RS2:80000000 => RD:00000000 (esperado)
=== OK  [256] OP:0 RS1:0000000f RS2:00000001 => RD:00000001 (esperado)
=== OK  [257] OP:0 RS1:0000000f RS2:fffffffe => RD:0000000e (esperado)
=== OK  [258] OP:0 RS1:0000000f RS2:00000002 => RD:00000002 (esperado)
=== OK  [259] OP:0 RS1:0000000f RS2:fffffffd => RD:0000000d (esperado)
=== OK  [260] OP:0 RS1:0000000f RS2:00000003 => RD:00000003 (esperado)
=== OK  [261] OP:0 RS1:0000000f RS2:fffffffc => RD:0000000c (esperado)
=== OK  [262] OP:0 RS1:0000000f RS2:a5a5a5a5 => RD:00000005 (esperado)
=== OK  [263] OP:0 RS1:0000000f RS2:5a5a5a5a => RD:0000000a (esperado)
=== OK  [264] OP:0 RS1:0000000f RS2:12345678 => RD:00000008 (esperado)
=== OK  [265] OP:0 RS1:0000000f RS2:87654321 => RD:00000001 (esperado)
=== OK  [266] OP:0 RS1:0000000f RS2:0000000f => RD:0000000f (esperado)
=== OK  [267] OP:0 RS1:0000000f RS2:000000f0 => RD:00000000 (esperado)
=== OK  [268] OP:0 RS1:0000000f RS2:000000ff => RD:0000000f (esperado)
=== OK  [269] OP:0 RS1:0000000f RS2:00000010 => RD:00000000 (esperado)
=== OK  [270] OP:0 RS1:000000f0 RS2:00000000 => RD:00000000 (esperado)
=== OK  [271] OP:0 RS1:000000f0 RS2:ffffffff => RD:000000f0 (esperado)
=== OK  [272] OP:0 RS1:000000f0 RS2:7fffffff => RD:000000f0 (esperado)
=== OK  [273] OP:0 RS1:000000f0 RS2:80000000 => RD:00000000 (esperado)
=== OK  [274] OP:0 RS1:000000f0 RS2:00000001 => RD:00000000 (esperado)
=== OK  [275] OP:0 RS1:000000f0 RS2:fffffffe => RD:000000f0 (esperado)
=== OK  [276] OP:0 RS1:000000f0 RS2:00000002 => RD:00000000 (esperado)
=== OK  [277] OP:0 RS1:000000f0 RS2:fffffffd => RD:000000f0 (esperado)
=== OK  [278] OP:0 RS1:000000f0 RS2:00000003 => RD:00000000 (esperado)
=== OK  [279] OP:0 RS1:000000f0 RS2:fffffffc => RD:000000f0 (esperado)
=== OK  [280] OP:0 RS1:000000f0 RS2:a5a5a5a5 => RD:000000a0 (esperado)
=== OK  [281] OP:0 RS1:000000f0 RS2:5a5a5a5a => RD:00000050 (esperado)
=== OK  [282] OP:0 RS1:000000f0 RS2:12345678 => RD:00000070 (esperado)
=== OK  [283] OP:0 RS1:000000f0 RS2:87654321 => RD:00000020 (esperado)
=== OK  [284] OP:0 RS1:000000f0 RS2:0000000f => RD:00000000 (esperado)
=== OK  [285] OP:0 RS1:000000f0 RS2:000000f0 => RD:000000f0 (esperado)
=== OK  [286] OP:0 RS1:000000f0 RS2:000000ff => RD:000000f0 (esperado)
=== OK  [287] OP:0 RS1:000000f0 RS2:00000010 => RD:00000010 (esperado)
=== OK  [288] OP:0 RS1:000000ff RS2:00000000 => RD:00000000 (esperado)
=== OK  [289] OP:0 RS1:000000ff RS2:ffffffff => RD:000000ff (esperado)
=== OK  [290] OP:0 RS1:000000ff RS2:7fffffff => RD:000000ff (esperado)
=== OK  [291] OP:0 RS1:000000ff RS2:80000000 => RD:00000000 (esperado)
=== OK  [292] OP:0 RS1:000000ff RS2:00000001 => RD:00000001 (esperado)
=== OK  [293] OP:0 RS1:000000ff RS2:fffffffe => RD:000000fe (esperado)
=== OK  [294] OP:0 RS1:000000ff RS2:00000002 => RD:00000002 (esperado)
=== OK  [295] OP:0 RS1:000000ff RS2:fffffffd => RD:000000fd (esperado)
=== OK  [296] OP:0 RS1:000000ff RS2:00000003 => RD:00000003 (esperado)
=== OK  [297] OP:0 RS1:000000ff RS2:fffffffc => RD:000000fc (esperado)
=== OK  [298] OP:0 RS1:000000ff RS2:a5a5a5a5 => RD:000000a5 (esperado)
=== OK  [299] OP:0 RS1:000000ff RS2:5a5a5a5a => RD:0000005a (esperado)
=== OK  [300] OP:0 RS1:000000ff RS2:12345678 => RD:00000078 (esperado)
=== OK  [301] OP:0 RS1:000000ff RS2:87654321 => RD:00000021 (esperado)
=== OK  [302] OP:0 RS1:000000ff RS2:0000000f => RD:0000000f (esperado)
=== OK  [303] OP:0 RS1:000000ff RS2:000000f0 => RD:000000f0 (esperado)
=== OK  [304] OP:0 RS1:000000ff RS2:000000ff => RD:000000ff (esperado)
=== OK  [305] OP:0 RS1:000000ff RS2:00000010 => RD:00000010 (esperado)
=== OK  [306] OP:0 RS1:00000010 RS2:00000000 => RD:00000000 (esperado)
=== OK  [307] OP:0 RS1:00000010 RS2:ffffffff => RD:00000010 (esperado)
=== OK  [308] OP:0 RS1:00000010 RS2:7fffffff => RD:00000010 (esperado)
=== OK  [309] OP:0 RS1:00000010 RS2:80000000 => RD:00000000 (esperado)
=== OK  [310] OP:0 RS1:00000010 RS2:00000001 => RD:00000000 (esperado)
=== OK  [311] OP:0 RS1:00000010 RS2:fffffffe => RD:00000010 (esperado)
=== OK  [312] OP:0 RS1:00000010 RS2:00000002 => RD:00000000 (esperado)
=== OK  [313] OP:0 RS1:00000010 RS2:fffffffd => RD:00000010 (esperado)
=== OK  [314] OP:0 RS1:00000010 RS2:00000003 => RD:00000000 (esperado)
=== OK  [315] OP:0 RS1:00000010 RS2:fffffffc => RD:00000010 (esperado)
=== OK  [316] OP:0 RS1:00000010 RS2:a5a5a5a5 => RD:00000000 (esperado)
=== OK  [317] OP:0 RS1:00000010 RS2:5a5a5a5a => RD:00000010 (esperado)
=== OK  [318] OP:0 RS1:00000010 RS2:12345678 => RD:00000010 (esperado)
=== OK  [319] OP:0 RS1:00000010 RS2:87654321 => RD:00000000 (esperado)
=== OK  [320] OP:0 RS1:00000010 RS2:0000000f => RD:00000000 (esperado)
=== OK  [321] OP:0 RS1:00000010 RS2:000000f0 => RD:00000010 (esperado)
=== OK  [322] OP:0 RS1:00000010 RS2:000000ff => RD:00000010 (esperado)
=== OK  [323] OP:0 RS1:00000010 RS2:00000010 => RD:00000010 (esperado)
Testbench finalizado com sucesso.
