test/saida2.out
VCD info: dumpfile saida.vcd opened for output.
Iniciando Testbench...
WARNING: tb.v:32: $readmemh(teste.txt): Not enough words in the file for the requested range [0:512].
=== OK  [0] OP:2 RS1:00000000 RS2:00000000 => RD:00000000 (esperado)
=== OK  [1] OP:2 RS1:00000000 RS2:ffffffff => RD:ffffffff (esperado)
=== OK  [2] OP:2 RS1:00000000 RS2:7fffffff => RD:7fffffff (esperado)
=== OK  [3] OP:2 RS1:00000000 RS2:80000000 => RD:80000000 (esperado)
=== OK  [4] OP:2 RS1:00000000 RS2:00000001 => RD:00000001 (esperado)
=== OK  [5] OP:2 RS1:00000000 RS2:fffffffe => RD:fffffffe (esperado)
=== OK  [6] OP:2 RS1:00000000 RS2:00000002 => RD:00000002 (esperado)
=== OK  [7] OP:2 RS1:00000000 RS2:fffffffd => RD:fffffffd (esperado)
=== OK  [8] OP:2 RS1:00000000 RS2:00000003 => RD:00000003 (esperado)
=== OK  [9] OP:2 RS1:00000000 RS2:fffffffc => RD:fffffffc (esperado)
=== OK  [10] OP:2 RS1:00000000 RS2:a5a5a5a5 => RD:a5a5a5a5 (esperado)
=== OK  [11] OP:2 RS1:00000000 RS2:5a5a5a5a => RD:5a5a5a5a (esperado)
=== OK  [12] OP:2 RS1:00000000 RS2:12345678 => RD:12345678 (esperado)
=== OK  [13] OP:2 RS1:00000000 RS2:87654321 => RD:87654321 (esperado)
=== OK  [14] OP:2 RS1:00000000 RS2:0000000f => RD:0000000f (esperado)
=== OK  [15] OP:2 RS1:00000000 RS2:000000f0 => RD:000000f0 (esperado)
=== OK  [16] OP:2 RS1:00000000 RS2:000000ff => RD:000000ff (esperado)
=== OK  [17] OP:2 RS1:00000000 RS2:00000010 => RD:00000010 (esperado)
=== OK  [18] OP:2 RS1:ffffffff RS2:00000000 => RD:ffffffff (esperado)
=== OK  [19] OP:2 RS1:ffffffff RS2:ffffffff => RD:fffffffe (esperado)
=== OK  [20] OP:2 RS1:ffffffff RS2:7fffffff => RD:7ffffffe (esperado)
=== OK  [21] OP:2 RS1:ffffffff RS2:80000000 => RD:7fffffff (esperado)
=== OK  [22] OP:2 RS1:ffffffff RS2:00000001 => RD:00000000 (esperado)
=== OK  [23] OP:2 RS1:ffffffff RS2:fffffffe => RD:fffffffd (esperado)
=== OK  [24] OP:2 RS1:ffffffff RS2:00000002 => RD:00000001 (esperado)
=== OK  [25] OP:2 RS1:ffffffff RS2:fffffffd => RD:fffffffc (esperado)
=== OK  [26] OP:2 RS1:ffffffff RS2:00000003 => RD:00000002 (esperado)
=== OK  [27] OP:2 RS1:ffffffff RS2:fffffffc => RD:fffffffb (esperado)
=== OK  [28] OP:2 RS1:ffffffff RS2:a5a5a5a5 => RD:a5a5a5a4 (esperado)
=== OK  [29] OP:2 RS1:ffffffff RS2:5a5a5a5a => RD:5a5a5a59 (esperado)
=== OK  [30] OP:2 RS1:ffffffff RS2:12345678 => RD:12345677 (esperado)
=== OK  [31] OP:2 RS1:ffffffff RS2:87654321 => RD:87654320 (esperado)
=== OK  [32] OP:2 RS1:ffffffff RS2:0000000f => RD:0000000e (esperado)
=== OK  [33] OP:2 RS1:ffffffff RS2:000000f0 => RD:000000ef (esperado)
=== OK  [34] OP:2 RS1:ffffffff RS2:000000ff => RD:000000fe (esperado)
=== OK  [35] OP:2 RS1:ffffffff RS2:00000010 => RD:0000000f (esperado)
=== OK  [36] OP:2 RS1:7fffffff RS2:00000000 => RD:7fffffff (esperado)
=== OK  [37] OP:2 RS1:7fffffff RS2:ffffffff => RD:7ffffffe (esperado)
=== OK  [38] OP:2 RS1:7fffffff RS2:7fffffff => RD:fffffffe (esperado)
=== OK  [39] OP:2 RS1:7fffffff RS2:80000000 => RD:ffffffff (esperado)
=== OK  [40] OP:2 RS1:7fffffff RS2:00000001 => RD:80000000 (esperado)
=== OK  [41] OP:2 RS1:7fffffff RS2:fffffffe => RD:7ffffffd (esperado)
=== OK  [42] OP:2 RS1:7fffffff RS2:00000002 => RD:80000001 (esperado)
=== OK  [43] OP:2 RS1:7fffffff RS2:fffffffd => RD:7ffffffc (esperado)
=== OK  [44] OP:2 RS1:7fffffff RS2:00000003 => RD:80000002 (esperado)
=== OK  [45] OP:2 RS1:7fffffff RS2:fffffffc => RD:7ffffffb (esperado)
=== OK  [46] OP:2 RS1:7fffffff RS2:a5a5a5a5 => RD:25a5a5a4 (esperado)
=== OK  [47] OP:2 RS1:7fffffff RS2:5a5a5a5a => RD:da5a5a59 (esperado)
=== OK  [48] OP:2 RS1:7fffffff RS2:12345678 => RD:92345677 (esperado)
=== OK  [49] OP:2 RS1:7fffffff RS2:87654321 => RD:07654320 (esperado)
=== OK  [50] OP:2 RS1:7fffffff RS2:0000000f => RD:8000000e (esperado)
=== OK  [51] OP:2 RS1:7fffffff RS2:000000f0 => RD:800000ef (esperado)
=== OK  [52] OP:2 RS1:7fffffff RS2:000000ff => RD:800000fe (esperado)
=== OK  [53] OP:2 RS1:7fffffff RS2:00000010 => RD:8000000f (esperado)
=== OK  [54] OP:2 RS1:80000000 RS2:00000000 => RD:80000000 (esperado)
=== OK  [55] OP:2 RS1:80000000 RS2:ffffffff => RD:7fffffff (esperado)
=== OK  [56] OP:2 RS1:80000000 RS2:7fffffff => RD:ffffffff (esperado)
=== OK  [57] OP:2 RS1:80000000 RS2:80000000 => RD:00000000 (esperado)
=== OK  [58] OP:2 RS1:80000000 RS2:00000001 => RD:80000001 (esperado)
=== OK  [59] OP:2 RS1:80000000 RS2:fffffffe => RD:7ffffffe (esperado)
=== OK  [60] OP:2 RS1:80000000 RS2:00000002 => RD:80000002 (esperado)
=== OK  [61] OP:2 RS1:80000000 RS2:fffffffd => RD:7ffffffd (esperado)
=== OK  [62] OP:2 RS1:80000000 RS2:00000003 => RD:80000003 (esperado)
=== OK  [63] OP:2 RS1:80000000 RS2:fffffffc => RD:7ffffffc (esperado)
=== OK  [64] OP:2 RS1:80000000 RS2:a5a5a5a5 => RD:25a5a5a5 (esperado)
=== OK  [65] OP:2 RS1:80000000 RS2:5a5a5a5a => RD:da5a5a5a (esperado)
=== OK  [66] OP:2 RS1:80000000 RS2:12345678 => RD:92345678 (esperado)
=== OK  [67] OP:2 RS1:80000000 RS2:87654321 => RD:07654321 (esperado)
=== OK  [68] OP:2 RS1:80000000 RS2:0000000f => RD:8000000f (esperado)
=== OK  [69] OP:2 RS1:80000000 RS2:000000f0 => RD:800000f0 (esperado)
=== OK  [70] OP:2 RS1:80000000 RS2:000000ff => RD:800000ff (esperado)
=== OK  [71] OP:2 RS1:80000000 RS2:00000010 => RD:80000010 (esperado)
=== OK  [72] OP:2 RS1:00000001 RS2:00000000 => RD:00000001 (esperado)
=== OK  [73] OP:2 RS1:00000001 RS2:ffffffff => RD:00000000 (esperado)
=== OK  [74] OP:2 RS1:00000001 RS2:7fffffff => RD:80000000 (esperado)
=== OK  [75] OP:2 RS1:00000001 RS2:80000000 => RD:80000001 (esperado)
=== OK  [76] OP:2 RS1:00000001 RS2:00000001 => RD:00000002 (esperado)
=== OK  [77] OP:2 RS1:00000001 RS2:fffffffe => RD:ffffffff (esperado)
=== OK  [78] OP:2 RS1:00000001 RS2:00000002 => RD:00000003 (esperado)
=== OK  [79] OP:2 RS1:00000001 RS2:fffffffd => RD:fffffffe (esperado)
=== OK  [80] OP:2 RS1:00000001 RS2:00000003 => RD:00000004 (esperado)
=== OK  [81] OP:2 RS1:00000001 RS2:fffffffc => RD:fffffffd (esperado)
=== OK  [82] OP:2 RS1:00000001 RS2:a5a5a5a5 => RD:a5a5a5a6 (esperado)
=== OK  [83] OP:2 RS1:00000001 RS2:5a5a5a5a => RD:5a5a5a5b (esperado)
=== OK  [84] OP:2 RS1:00000001 RS2:12345678 => RD:12345679 (esperado)
=== OK  [85] OP:2 RS1:00000001 RS2:87654321 => RD:87654322 (esperado)
=== OK  [86] OP:2 RS1:00000001 RS2:0000000f => RD:00000010 (esperado)
=== OK  [87] OP:2 RS1:00000001 RS2:000000f0 => RD:000000f1 (esperado)
=== OK  [88] OP:2 RS1:00000001 RS2:000000ff => RD:00000100 (esperado)
=== OK  [89] OP:2 RS1:00000001 RS2:00000010 => RD:00000011 (esperado)
=== OK  [90] OP:2 RS1:fffffffe RS2:00000000 => RD:fffffffe (esperado)
=== OK  [91] OP:2 RS1:fffffffe RS2:ffffffff => RD:fffffffd (esperado)
=== OK  [92] OP:2 RS1:fffffffe RS2:7fffffff => RD:7ffffffd (esperado)
=== OK  [93] OP:2 RS1:fffffffe RS2:80000000 => RD:7ffffffe (esperado)
=== OK  [94] OP:2 RS1:fffffffe RS2:00000001 => RD:ffffffff (esperado)
=== OK  [95] OP:2 RS1:fffffffe RS2:fffffffe => RD:fffffffc (esperado)
=== OK  [96] OP:2 RS1:fffffffe RS2:00000002 => RD:00000000 (esperado)
=== OK  [97] OP:2 RS1:fffffffe RS2:fffffffd => RD:fffffffb (esperado)
=== OK  [98] OP:2 RS1:fffffffe RS2:00000003 => RD:00000001 (esperado)
=== OK  [99] OP:2 RS1:fffffffe RS2:fffffffc => RD:fffffffa (esperado)
=== OK  [100] OP:2 RS1:fffffffe RS2:a5a5a5a5 => RD:a5a5a5a3 (esperado)
=== OK  [101] OP:2 RS1:fffffffe RS2:5a5a5a5a => RD:5a5a5a58 (esperado)
=== OK  [102] OP:2 RS1:fffffffe RS2:12345678 => RD:12345676 (esperado)
=== OK  [103] OP:2 RS1:fffffffe RS2:87654321 => RD:8765431f (esperado)
=== OK  [104] OP:2 RS1:fffffffe RS2:0000000f => RD:0000000d (esperado)
=== OK  [105] OP:2 RS1:fffffffe RS2:000000f0 => RD:000000ee (esperado)
=== OK  [106] OP:2 RS1:fffffffe RS2:000000ff => RD:000000fd (esperado)
=== OK  [107] OP:2 RS1:fffffffe RS2:00000010 => RD:0000000e (esperado)
=== OK  [108] OP:2 RS1:00000002 RS2:00000000 => RD:00000002 (esperado)
=== OK  [109] OP:2 RS1:00000002 RS2:ffffffff => RD:00000001 (esperado)
=== OK  [110] OP:2 RS1:00000002 RS2:7fffffff => RD:80000001 (esperado)
=== OK  [111] OP:2 RS1:00000002 RS2:80000000 => RD:80000002 (esperado)
=== OK  [112] OP:2 RS1:00000002 RS2:00000001 => RD:00000003 (esperado)
=== OK  [113] OP:2 RS1:00000002 RS2:fffffffe => RD:00000000 (esperado)
=== OK  [114] OP:2 RS1:00000002 RS2:00000002 => RD:00000004 (esperado)
=== OK  [115] OP:2 RS1:00000002 RS2:fffffffd => RD:ffffffff (esperado)
=== OK  [116] OP:2 RS1:00000002 RS2:00000003 => RD:00000005 (esperado)
=== OK  [117] OP:2 RS1:00000002 RS2:fffffffc => RD:fffffffe (esperado)
=== OK  [118] OP:2 RS1:00000002 RS2:a5a5a5a5 => RD:a5a5a5a7 (esperado)
=== OK  [119] OP:2 RS1:00000002 RS2:5a5a5a5a => RD:5a5a5a5c (esperado)
=== OK  [120] OP:2 RS1:00000002 RS2:12345678 => RD:1234567a (esperado)
=== OK  [121] OP:2 RS1:00000002 RS2:87654321 => RD:87654323 (esperado)
=== OK  [122] OP:2 RS1:00000002 RS2:0000000f => RD:00000011 (esperado)
=== OK  [123] OP:2 RS1:00000002 RS2:000000f0 => RD:000000f2 (esperado)
=== OK  [124] OP:2 RS1:00000002 RS2:000000ff => RD:00000101 (esperado)
=== OK  [125] OP:2 RS1:00000002 RS2:00000010 => RD:00000012 (esperado)
=== OK  [126] OP:2 RS1:fffffffd RS2:00000000 => RD:fffffffd (esperado)
=== OK  [127] OP:2 RS1:fffffffd RS2:ffffffff => RD:fffffffc (esperado)
=== OK  [128] OP:2 RS1:fffffffd RS2:7fffffff => RD:7ffffffc (esperado)
=== OK  [129] OP:2 RS1:fffffffd RS2:80000000 => RD:7ffffffd (esperado)
=== OK  [130] OP:2 RS1:fffffffd RS2:00000001 => RD:fffffffe (esperado)
=== OK  [131] OP:2 RS1:fffffffd RS2:fffffffe => RD:fffffffb (esperado)
=== OK  [132] OP:2 RS1:fffffffd RS2:00000002 => RD:ffffffff (esperado)
=== OK  [133] OP:2 RS1:fffffffd RS2:fffffffd => RD:fffffffa (esperado)
=== OK  [134] OP:2 RS1:fffffffd RS2:00000003 => RD:00000000 (esperado)
=== OK  [135] OP:2 RS1:fffffffd RS2:fffffffc => RD:fffffff9 (esperado)
=== OK  [136] OP:2 RS1:fffffffd RS2:a5a5a5a5 => RD:a5a5a5a2 (esperado)
=== OK  [137] OP:2 RS1:fffffffd RS2:5a5a5a5a => RD:5a5a5a57 (esperado)
=== OK  [138] OP:2 RS1:fffffffd RS2:12345678 => RD:12345675 (esperado)
=== OK  [139] OP:2 RS1:fffffffd RS2:87654321 => RD:8765431e (esperado)
=== OK  [140] OP:2 RS1:fffffffd RS2:0000000f => RD:0000000c (esperado)
=== OK  [141] OP:2 RS1:fffffffd RS2:000000f0 => RD:000000ed (esperado)
=== OK  [142] OP:2 RS1:fffffffd RS2:000000ff => RD:000000fc (esperado)
=== OK  [143] OP:2 RS1:fffffffd RS2:00000010 => RD:0000000d (esperado)
=== OK  [144] OP:2 RS1:00000003 RS2:00000000 => RD:00000003 (esperado)
=== OK  [145] OP:2 RS1:00000003 RS2:ffffffff => RD:00000002 (esperado)
=== OK  [146] OP:2 RS1:00000003 RS2:7fffffff => RD:80000002 (esperado)
=== OK  [147] OP:2 RS1:00000003 RS2:80000000 => RD:80000003 (esperado)
=== OK  [148] OP:2 RS1:00000003 RS2:00000001 => RD:00000004 (esperado)
=== OK  [149] OP:2 RS1:00000003 RS2:fffffffe => RD:00000001 (esperado)
=== OK  [150] OP:2 RS1:00000003 RS2:00000002 => RD:00000005 (esperado)
=== OK  [151] OP:2 RS1:00000003 RS2:fffffffd => RD:00000000 (esperado)
=== OK  [152] OP:2 RS1:00000003 RS2:00000003 => RD:00000006 (esperado)
=== OK  [153] OP:2 RS1:00000003 RS2:fffffffc => RD:ffffffff (esperado)
=== OK  [154] OP:2 RS1:00000003 RS2:a5a5a5a5 => RD:a5a5a5a8 (esperado)
=== OK  [155] OP:2 RS1:00000003 RS2:5a5a5a5a => RD:5a5a5a5d (esperado)
=== OK  [156] OP:2 RS1:00000003 RS2:12345678 => RD:1234567b (esperado)
=== OK  [157] OP:2 RS1:00000003 RS2:87654321 => RD:87654324 (esperado)
=== OK  [158] OP:2 RS1:00000003 RS2:0000000f => RD:00000012 (esperado)
=== OK  [159] OP:2 RS1:00000003 RS2:000000f0 => RD:000000f3 (esperado)
=== OK  [160] OP:2 RS1:00000003 RS2:000000ff => RD:00000102 (esperado)
=== OK  [161] OP:2 RS1:00000003 RS2:00000010 => RD:00000013 (esperado)
=== OK  [162] OP:2 RS1:fffffffc RS2:00000000 => RD:fffffffc (esperado)
=== OK  [163] OP:2 RS1:fffffffc RS2:ffffffff => RD:fffffffb (esperado)
=== OK  [164] OP:2 RS1:fffffffc RS2:7fffffff => RD:7ffffffb (esperado)
=== OK  [165] OP:2 RS1:fffffffc RS2:80000000 => RD:7ffffffc (esperado)
=== OK  [166] OP:2 RS1:fffffffc RS2:00000001 => RD:fffffffd (esperado)
=== OK  [167] OP:2 RS1:fffffffc RS2:fffffffe => RD:fffffffa (esperado)
=== OK  [168] OP:2 RS1:fffffffc RS2:00000002 => RD:fffffffe (esperado)
=== OK  [169] OP:2 RS1:fffffffc RS2:fffffffd => RD:fffffff9 (esperado)
=== OK  [170] OP:2 RS1:fffffffc RS2:00000003 => RD:ffffffff (esperado)
=== OK  [171] OP:2 RS1:fffffffc RS2:fffffffc => RD:fffffff8 (esperado)
=== OK  [172] OP:2 RS1:fffffffc RS2:a5a5a5a5 => RD:a5a5a5a1 (esperado)
=== OK  [173] OP:2 RS1:fffffffc RS2:5a5a5a5a => RD:5a5a5a56 (esperado)
=== OK  [174] OP:2 RS1:fffffffc RS2:12345678 => RD:12345674 (esperado)
=== OK  [175] OP:2 RS1:fffffffc RS2:87654321 => RD:8765431d (esperado)
=== OK  [176] OP:2 RS1:fffffffc RS2:0000000f => RD:0000000b (esperado)
=== OK  [177] OP:2 RS1:fffffffc RS2:000000f0 => RD:000000ec (esperado)
=== OK  [178] OP:2 RS1:fffffffc RS2:000000ff => RD:000000fb (esperado)
=== OK  [179] OP:2 RS1:fffffffc RS2:00000010 => RD:0000000c (esperado)
=== OK  [180] OP:2 RS1:a5a5a5a5 RS2:00000000 => RD:a5a5a5a5 (esperado)
=== OK  [181] OP:2 RS1:a5a5a5a5 RS2:ffffffff => RD:a5a5a5a4 (esperado)
=== OK  [182] OP:2 RS1:a5a5a5a5 RS2:7fffffff => RD:25a5a5a4 (esperado)
=== OK  [183] OP:2 RS1:a5a5a5a5 RS2:80000000 => RD:25a5a5a5 (esperado)
=== OK  [184] OP:2 RS1:a5a5a5a5 RS2:00000001 => RD:a5a5a5a6 (esperado)
=== OK  [185] OP:2 RS1:a5a5a5a5 RS2:fffffffe => RD:a5a5a5a3 (esperado)
=== OK  [186] OP:2 RS1:a5a5a5a5 RS2:00000002 => RD:a5a5a5a7 (esperado)
=== OK  [187] OP:2 RS1:a5a5a5a5 RS2:fffffffd => RD:a5a5a5a2 (esperado)
=== OK  [188] OP:2 RS1:a5a5a5a5 RS2:00000003 => RD:a5a5a5a8 (esperado)
=== OK  [189] OP:2 RS1:a5a5a5a5 RS2:fffffffc => RD:a5a5a5a1 (esperado)
=== OK  [190] OP:2 RS1:a5a5a5a5 RS2:a5a5a5a5 => RD:4b4b4b4a (esperado)
=== OK  [191] OP:2 RS1:a5a5a5a5 RS2:5a5a5a5a => RD:ffffffff (esperado)
=== OK  [192] OP:2 RS1:a5a5a5a5 RS2:12345678 => RD:b7d9fc1d (esperado)
=== OK  [193] OP:2 RS1:a5a5a5a5 RS2:87654321 => RD:2d0ae8c6 (esperado)
=== OK  [194] OP:2 RS1:a5a5a5a5 RS2:0000000f => RD:a5a5a5b4 (esperado)
=== OK  [195] OP:2 RS1:a5a5a5a5 RS2:000000f0 => RD:a5a5a695 (esperado)
=== OK  [196] OP:2 RS1:a5a5a5a5 RS2:000000ff => RD:a5a5a6a4 (esperado)
=== OK  [197] OP:2 RS1:a5a5a5a5 RS2:00000010 => RD:a5a5a5b5 (esperado)
=== OK  [198] OP:2 RS1:5a5a5a5a RS2:00000000 => RD:5a5a5a5a (esperado)
=== OK  [199] OP:2 RS1:5a5a5a5a RS2:ffffffff => RD:5a5a5a59 (esperado)
=== OK  [200] OP:2 RS1:5a5a5a5a RS2:7fffffff => RD:da5a5a59 (esperado)
=== OK  [201] OP:2 RS1:5a5a5a5a RS2:80000000 => RD:da5a5a5a (esperado)
=== OK  [202] OP:2 RS1:5a5a5a5a RS2:00000001 => RD:5a5a5a5b (esperado)
=== OK  [203] OP:2 RS1:5a5a5a5a RS2:fffffffe => RD:5a5a5a58 (esperado)
=== OK  [204] OP:2 RS1:5a5a5a5a RS2:00000002 => RD:5a5a5a5c (esperado)
=== OK  [205] OP:2 RS1:5a5a5a5a RS2:fffffffd => RD:5a5a5a57 (esperado)
=== OK  [206] OP:2 RS1:5a5a5a5a RS2:00000003 => RD:5a5a5a5d (esperado)
=== OK  [207] OP:2 RS1:5a5a5a5a RS2:fffffffc => RD:5a5a5a56 (esperado)
=== OK  [208] OP:2 RS1:5a5a5a5a RS2:a5a5a5a5 => RD:ffffffff (esperado)
=== OK  [209] OP:2 RS1:5a5a5a5a RS2:5a5a5a5a => RD:b4b4b4b4 (esperado)
=== OK  [210] OP:2 RS1:5a5a5a5a RS2:12345678 => RD:6c8eb0d2 (esperado)
=== OK  [211] OP:2 RS1:5a5a5a5a RS2:87654321 => RD:e1bf9d7b (esperado)
=== OK  [212] OP:2 RS1:5a5a5a5a RS2:0000000f => RD:5a5a5a69 (esperado)
=== OK  [213] OP:2 RS1:5a5a5a5a RS2:000000f0 => RD:5a5a5b4a (esperado)
=== OK  [214] OP:2 RS1:5a5a5a5a RS2:000000ff => RD:5a5a5b59 (esperado)
=== OK  [215] OP:2 RS1:5a5a5a5a RS2:00000010 => RD:5a5a5a6a (esperado)
=== OK  [216] OP:2 RS1:12345678 RS2:00000000 => RD:12345678 (esperado)
=== OK  [217] OP:2 RS1:12345678 RS2:ffffffff => RD:12345677 (esperado)
=== OK  [218] OP:2 RS1:12345678 RS2:7fffffff => RD:92345677 (esperado)
=== OK  [219] OP:2 RS1:12345678 RS2:80000000 => RD:92345678 (esperado)
=== OK  [220] OP:2 RS1:12345678 RS2:00000001 => RD:12345679 (esperado)
=== OK  [221] OP:2 RS1:12345678 RS2:fffffffe => RD:12345676 (esperado)
=== OK  [222] OP:2 RS1:12345678 RS2:00000002 => RD:1234567a (esperado)
=== OK  [223] OP:2 RS1:12345678 RS2:fffffffd => RD:12345675 (esperado)
=== OK  [224] OP:2 RS1:12345678 RS2:00000003 => RD:1234567b (esperado)
=== OK  [225] OP:2 RS1:12345678 RS2:fffffffc => RD:12345674 (esperado)
=== OK  [226] OP:2 RS1:12345678 RS2:a5a5a5a5 => RD:b7d9fc1d (esperado)
=== OK  [227] OP:2 RS1:12345678 RS2:5a5a5a5a => RD:6c8eb0d2 (esperado)
=== OK  [228] OP:2 RS1:12345678 RS2:12345678 => RD:2468acf0 (esperado)
=== OK  [229] OP:2 RS1:12345678 RS2:87654321 => RD:99999999 (esperado)
=== OK  [230] OP:2 RS1:12345678 RS2:0000000f => RD:12345687 (esperado)
=== OK  [231] OP:2 RS1:12345678 RS2:000000f0 => RD:12345768 (esperado)
=== OK  [232] OP:2 RS1:12345678 RS2:000000ff => RD:12345777 (esperado)
=== OK  [233] OP:2 RS1:12345678 RS2:00000010 => RD:12345688 (esperado)
=== OK  [234] OP:2 RS1:87654321 RS2:00000000 => RD:87654321 (esperado)
=== OK  [235] OP:2 RS1:87654321 RS2:ffffffff => RD:87654320 (esperado)
=== OK  [236] OP:2 RS1:87654321 RS2:7fffffff => RD:07654320 (esperado)
=== OK  [237] OP:2 RS1:87654321 RS2:80000000 => RD:07654321 (esperado)
=== OK  [238] OP:2 RS1:87654321 RS2:00000001 => RD:87654322 (esperado)
=== OK  [239] OP:2 RS1:87654321 RS2:fffffffe => RD:8765431f (esperado)
=== OK  [240] OP:2 RS1:87654321 RS2:00000002 => RD:87654323 (esperado)
=== OK  [241] OP:2 RS1:87654321 RS2:fffffffd => RD:8765431e (esperado)
=== OK  [242] OP:2 RS1:87654321 RS2:00000003 => RD:87654324 (esperado)
=== OK  [243] OP:2 RS1:87654321 RS2:fffffffc => RD:8765431d (esperado)
=== OK  [244] OP:2 RS1:87654321 RS2:a5a5a5a5 => RD:2d0ae8c6 (esperado)
=== OK  [245] OP:2 RS1:87654321 RS2:5a5a5a5a => RD:e1bf9d7b (esperado)
=== OK  [246] OP:2 RS1:87654321 RS2:12345678 => RD:99999999 (esperado)
=== OK  [247] OP:2 RS1:87654321 RS2:87654321 => RD:0eca8642 (esperado)
=== OK  [248] OP:2 RS1:87654321 RS2:0000000f => RD:87654330 (esperado)
=== OK  [249] OP:2 RS1:87654321 RS2:000000f0 => RD:87654411 (esperado)
=== OK  [250] OP:2 RS1:87654321 RS2:000000ff => RD:87654420 (esperado)
=== OK  [251] OP:2 RS1:87654321 RS2:00000010 => RD:87654331 (esperado)
=== OK  [252] OP:2 RS1:0000000f RS2:00000000 => RD:0000000f (esperado)
=== OK  [253] OP:2 RS1:0000000f RS2:ffffffff => RD:0000000e (esperado)
=== OK  [254] OP:2 RS1:0000000f RS2:7fffffff => RD:8000000e (esperado)
=== OK  [255] OP:2 RS1:0000000f RS2:80000000 => RD:8000000f (esperado)
=== OK  [256] OP:2 RS1:0000000f RS2:00000001 => RD:00000010 (esperado)
=== OK  [257] OP:2 RS1:0000000f RS2:fffffffe => RD:0000000d (esperado)
=== OK  [258] OP:2 RS1:0000000f RS2:00000002 => RD:00000011 (esperado)
=== OK  [259] OP:2 RS1:0000000f RS2:fffffffd => RD:0000000c (esperado)
=== OK  [260] OP:2 RS1:0000000f RS2:00000003 => RD:00000012 (esperado)
=== OK  [261] OP:2 RS1:0000000f RS2:fffffffc => RD:0000000b (esperado)
=== OK  [262] OP:2 RS1:0000000f RS2:a5a5a5a5 => RD:a5a5a5b4 (esperado)
=== OK  [263] OP:2 RS1:0000000f RS2:5a5a5a5a => RD:5a5a5a69 (esperado)
=== OK  [264] OP:2 RS1:0000000f RS2:12345678 => RD:12345687 (esperado)
=== OK  [265] OP:2 RS1:0000000f RS2:87654321 => RD:87654330 (esperado)
=== OK  [266] OP:2 RS1:0000000f RS2:0000000f => RD:0000001e (esperado)
=== OK  [267] OP:2 RS1:0000000f RS2:000000f0 => RD:000000ff (esperado)
=== OK  [268] OP:2 RS1:0000000f RS2:000000ff => RD:0000010e (esperado)
=== OK  [269] OP:2 RS1:0000000f RS2:00000010 => RD:0000001f (esperado)
=== OK  [270] OP:2 RS1:000000f0 RS2:00000000 => RD:000000f0 (esperado)
=== OK  [271] OP:2 RS1:000000f0 RS2:ffffffff => RD:000000ef (esperado)
=== OK  [272] OP:2 RS1:000000f0 RS2:7fffffff => RD:800000ef (esperado)
=== OK  [273] OP:2 RS1:000000f0 RS2:80000000 => RD:800000f0 (esperado)
=== OK  [274] OP:2 RS1:000000f0 RS2:00000001 => RD:000000f1 (esperado)
=== OK  [275] OP:2 RS1:000000f0 RS2:fffffffe => RD:000000ee (esperado)
=== OK  [276] OP:2 RS1:000000f0 RS2:00000002 => RD:000000f2 (esperado)
=== OK  [277] OP:2 RS1:000000f0 RS2:fffffffd => RD:000000ed (esperado)
=== OK  [278] OP:2 RS1:000000f0 RS2:00000003 => RD:000000f3 (esperado)
=== OK  [279] OP:2 RS1:000000f0 RS2:fffffffc => RD:000000ec (esperado)
=== OK  [280] OP:2 RS1:000000f0 RS2:a5a5a5a5 => RD:a5a5a695 (esperado)
=== OK  [281] OP:2 RS1:000000f0 RS2:5a5a5a5a => RD:5a5a5b4a (esperado)
=== OK  [282] OP:2 RS1:000000f0 RS2:12345678 => RD:12345768 (esperado)
=== OK  [283] OP:2 RS1:000000f0 RS2:87654321 => RD:87654411 (esperado)
=== OK  [284] OP:2 RS1:000000f0 RS2:0000000f => RD:000000ff (esperado)
=== OK  [285] OP:2 RS1:000000f0 RS2:000000f0 => RD:000001e0 (esperado)
=== OK  [286] OP:2 RS1:000000f0 RS2:000000ff => RD:000001ef (esperado)
=== OK  [287] OP:2 RS1:000000f0 RS2:00000010 => RD:00000100 (esperado)
=== OK  [288] OP:2 RS1:000000ff RS2:00000000 => RD:000000ff (esperado)
=== OK  [289] OP:2 RS1:000000ff RS2:ffffffff => RD:000000fe (esperado)
=== OK  [290] OP:2 RS1:000000ff RS2:7fffffff => RD:800000fe (esperado)
=== OK  [291] OP:2 RS1:000000ff RS2:80000000 => RD:800000ff (esperado)
=== OK  [292] OP:2 RS1:000000ff RS2:00000001 => RD:00000100 (esperado)
=== OK  [293] OP:2 RS1:000000ff RS2:fffffffe => RD:000000fd (esperado)
=== OK  [294] OP:2 RS1:000000ff RS2:00000002 => RD:00000101 (esperado)
=== OK  [295] OP:2 RS1:000000ff RS2:fffffffd => RD:000000fc (esperado)
=== OK  [296] OP:2 RS1:000000ff RS2:00000003 => RD:00000102 (esperado)
=== OK  [297] OP:2 RS1:000000ff RS2:fffffffc => RD:000000fb (esperado)
=== OK  [298] OP:2 RS1:000000ff RS2:a5a5a5a5 => RD:a5a5a6a4 (esperado)
=== OK  [299] OP:2 RS1:000000ff RS2:5a5a5a5a => RD:5a5a5b59 (esperado)
=== OK  [300] OP:2 RS1:000000ff RS2:12345678 => RD:12345777 (esperado)
=== OK  [301] OP:2 RS1:000000ff RS2:87654321 => RD:87654420 (esperado)
=== OK  [302] OP:2 RS1:000000ff RS2:0000000f => RD:0000010e (esperado)
=== OK  [303] OP:2 RS1:000000ff RS2:000000f0 => RD:000001ef (esperado)
=== OK  [304] OP:2 RS1:000000ff RS2:000000ff => RD:000001fe (esperado)
=== OK  [305] OP:2 RS1:000000ff RS2:00000010 => RD:0000010f (esperado)
=== OK  [306] OP:2 RS1:00000010 RS2:00000000 => RD:00000010 (esperado)
=== OK  [307] OP:2 RS1:00000010 RS2:ffffffff => RD:0000000f (esperado)
=== OK  [308] OP:2 RS1:00000010 RS2:7fffffff => RD:8000000f (esperado)
=== OK  [309] OP:2 RS1:00000010 RS2:80000000 => RD:80000010 (esperado)
=== OK  [310] OP:2 RS1:00000010 RS2:00000001 => RD:00000011 (esperado)
=== OK  [311] OP:2 RS1:00000010 RS2:fffffffe => RD:0000000e (esperado)
=== OK  [312] OP:2 RS1:00000010 RS2:00000002 => RD:00000012 (esperado)
=== OK  [313] OP:2 RS1:00000010 RS2:fffffffd => RD:0000000d (esperado)
=== OK  [314] OP:2 RS1:00000010 RS2:00000003 => RD:00000013 (esperado)
=== OK  [315] OP:2 RS1:00000010 RS2:fffffffc => RD:0000000c (esperado)
=== OK  [316] OP:2 RS1:00000010 RS2:a5a5a5a5 => RD:a5a5a5b5 (esperado)
=== OK  [317] OP:2 RS1:00000010 RS2:5a5a5a5a => RD:5a5a5a6a (esperado)
=== OK  [318] OP:2 RS1:00000010 RS2:12345678 => RD:12345688 (esperado)
=== OK  [319] OP:2 RS1:00000010 RS2:87654321 => RD:87654331 (esperado)
=== OK  [320] OP:2 RS1:00000010 RS2:0000000f => RD:0000001f (esperado)
=== OK  [321] OP:2 RS1:00000010 RS2:000000f0 => RD:00000100 (esperado)
=== OK  [322] OP:2 RS1:00000010 RS2:000000ff => RD:0000010f (esperado)
=== OK  [323] OP:2 RS1:00000010 RS2:00000010 => RD:00000020 (esperado)
Testbench finalizado com sucesso.
