test/saida13.out
VCD info: dumpfile saida.vcd opened for output.
Iniciando Testbench...
WARNING: tb.v:32: $readmemh(teste.txt): Not enough words in the file for the requested range [0:512].
=== OK  [0] OP:d RS1:00000000 RS2:00000000 => RD:00000001 (esperado)
=== OK  [1] OP:d RS1:00000000 RS2:ffffffff => RD:00000000 (esperado)
=== OK  [2] OP:d RS1:00000000 RS2:7fffffff => RD:00000000 (esperado)
=== OK  [3] OP:d RS1:00000000 RS2:80000000 => RD:00000000 (esperado)
=== OK  [4] OP:d RS1:00000000 RS2:00000001 => RD:00000000 (esperado)
=== OK  [5] OP:d RS1:00000000 RS2:fffffffe => RD:00000000 (esperado)
=== OK  [6] OP:d RS1:00000000 RS2:00000002 => RD:00000000 (esperado)
=== OK  [7] OP:d RS1:00000000 RS2:fffffffd => RD:00000000 (esperado)
=== OK  [8] OP:d RS1:00000000 RS2:00000003 => RD:00000000 (esperado)
=== OK  [9] OP:d RS1:00000000 RS2:fffffffc => RD:00000000 (esperado)
=== OK  [10] OP:d RS1:00000000 RS2:a5a5a5a5 => RD:00000000 (esperado)
=== OK  [11] OP:d RS1:00000000 RS2:5a5a5a5a => RD:00000000 (esperado)
=== OK  [12] OP:d RS1:00000000 RS2:12345678 => RD:00000000 (esperado)
=== OK  [13] OP:d RS1:00000000 RS2:87654321 => RD:00000000 (esperado)
=== OK  [14] OP:d RS1:00000000 RS2:0000000f => RD:00000000 (esperado)
=== OK  [15] OP:d RS1:00000000 RS2:000000f0 => RD:00000000 (esperado)
=== OK  [16] OP:d RS1:00000000 RS2:000000ff => RD:00000000 (esperado)
=== OK  [17] OP:d RS1:00000000 RS2:00000010 => RD:00000000 (esperado)
=== OK  [18] OP:d RS1:ffffffff RS2:00000000 => RD:00000001 (esperado)
=== OK  [19] OP:d RS1:ffffffff RS2:ffffffff => RD:00000001 (esperado)
=== OK  [20] OP:d RS1:ffffffff RS2:7fffffff => RD:00000001 (esperado)
=== OK  [21] OP:d RS1:ffffffff RS2:80000000 => RD:00000001 (esperado)
=== OK  [22] OP:d RS1:ffffffff RS2:00000001 => RD:00000001 (esperado)
=== OK  [23] OP:d RS1:ffffffff RS2:fffffffe => RD:00000001 (esperado)
=== OK  [24] OP:d RS1:ffffffff RS2:00000002 => RD:00000001 (esperado)
=== OK  [25] OP:d RS1:ffffffff RS2:fffffffd => RD:00000001 (esperado)
=== OK  [26] OP:d RS1:ffffffff RS2:00000003 => RD:00000001 (esperado)
=== OK  [27] OP:d RS1:ffffffff RS2:fffffffc => RD:00000001 (esperado)
=== OK  [28] OP:d RS1:ffffffff RS2:a5a5a5a5 => RD:00000001 (esperado)
=== OK  [29] OP:d RS1:ffffffff RS2:5a5a5a5a => RD:00000001 (esperado)
=== OK  [30] OP:d RS1:ffffffff RS2:12345678 => RD:00000001 (esperado)
=== OK  [31] OP:d RS1:ffffffff RS2:87654321 => RD:00000001 (esperado)
=== OK  [32] OP:d RS1:ffffffff RS2:0000000f => RD:00000001 (esperado)
=== OK  [33] OP:d RS1:ffffffff RS2:000000f0 => RD:00000001 (esperado)
=== OK  [34] OP:d RS1:ffffffff RS2:000000ff => RD:00000001 (esperado)
=== OK  [35] OP:d RS1:ffffffff RS2:00000010 => RD:00000001 (esperado)
=== OK  [36] OP:d RS1:7fffffff RS2:00000000 => RD:00000001 (esperado)
=== OK  [37] OP:d RS1:7fffffff RS2:ffffffff => RD:00000000 (esperado)
=== OK  [38] OP:d RS1:7fffffff RS2:7fffffff => RD:00000001 (esperado)
=== OK  [39] OP:d RS1:7fffffff RS2:80000000 => RD:00000000 (esperado)
=== OK  [40] OP:d RS1:7fffffff RS2:00000001 => RD:00000001 (esperado)
=== OK  [41] OP:d RS1:7fffffff RS2:fffffffe => RD:00000000 (esperado)
=== OK  [42] OP:d RS1:7fffffff RS2:00000002 => RD:00000001 (esperado)
=== OK  [43] OP:d RS1:7fffffff RS2:fffffffd => RD:00000000 (esperado)
=== OK  [44] OP:d RS1:7fffffff RS2:00000003 => RD:00000001 (esperado)
=== OK  [45] OP:d RS1:7fffffff RS2:fffffffc => RD:00000000 (esperado)
=== OK  [46] OP:d RS1:7fffffff RS2:a5a5a5a5 => RD:00000000 (esperado)
=== OK  [47] OP:d RS1:7fffffff RS2:5a5a5a5a => RD:00000001 (esperado)
=== OK  [48] OP:d RS1:7fffffff RS2:12345678 => RD:00000001 (esperado)
=== OK  [49] OP:d RS1:7fffffff RS2:87654321 => RD:00000000 (esperado)
=== OK  [50] OP:d RS1:7fffffff RS2:0000000f => RD:00000001 (esperado)
=== OK  [51] OP:d RS1:7fffffff RS2:000000f0 => RD:00000001 (esperado)
=== OK  [52] OP:d RS1:7fffffff RS2:000000ff => RD:00000001 (esperado)
=== OK  [53] OP:d RS1:7fffffff RS2:00000010 => RD:00000001 (esperado)
=== OK  [54] OP:d RS1:80000000 RS2:00000000 => RD:00000001 (esperado)
=== OK  [55] OP:d RS1:80000000 RS2:ffffffff => RD:00000000 (esperado)
=== OK  [56] OP:d RS1:80000000 RS2:7fffffff => RD:00000001 (esperado)
=== OK  [57] OP:d RS1:80000000 RS2:80000000 => RD:00000001 (esperado)
=== OK  [58] OP:d RS1:80000000 RS2:00000001 => RD:00000001 (esperado)
=== OK  [59] OP:d RS1:80000000 RS2:fffffffe => RD:00000000 (esperado)
=== OK  [60] OP:d RS1:80000000 RS2:00000002 => RD:00000001 (esperado)
=== OK  [61] OP:d RS1:80000000 RS2:fffffffd => RD:00000000 (esperado)
=== OK  [62] OP:d RS1:80000000 RS2:00000003 => RD:00000001 (esperado)
=== OK  [63] OP:d RS1:80000000 RS2:fffffffc => RD:00000000 (esperado)
=== OK  [64] OP:d RS1:80000000 RS2:a5a5a5a5 => RD:00000000 (esperado)
=== OK  [65] OP:d RS1:80000000 RS2:5a5a5a5a => RD:00000001 (esperado)
=== OK  [66] OP:d RS1:80000000 RS2:12345678 => RD:00000001 (esperado)
=== OK  [67] OP:d RS1:80000000 RS2:87654321 => RD:00000000 (esperado)
=== OK  [68] OP:d RS1:80000000 RS2:0000000f => RD:00000001 (esperado)
=== OK  [69] OP:d RS1:80000000 RS2:000000f0 => RD:00000001 (esperado)
=== OK  [70] OP:d RS1:80000000 RS2:000000ff => RD:00000001 (esperado)
=== OK  [71] OP:d RS1:80000000 RS2:00000010 => RD:00000001 (esperado)
=== OK  [72] OP:d RS1:00000001 RS2:00000000 => RD:00000001 (esperado)
=== OK  [73] OP:d RS1:00000001 RS2:ffffffff => RD:00000000 (esperado)
=== OK  [74] OP:d RS1:00000001 RS2:7fffffff => RD:00000000 (esperado)
=== OK  [75] OP:d RS1:00000001 RS2:80000000 => RD:00000000 (esperado)
=== OK  [76] OP:d RS1:00000001 RS2:00000001 => RD:00000001 (esperado)
=== OK  [77] OP:d RS1:00000001 RS2:fffffffe => RD:00000000 (esperado)
=== OK  [78] OP:d RS1:00000001 RS2:00000002 => RD:00000000 (esperado)
=== OK  [79] OP:d RS1:00000001 RS2:fffffffd => RD:00000000 (esperado)
=== OK  [80] OP:d RS1:00000001 RS2:00000003 => RD:00000000 (esperado)
=== OK  [81] OP:d RS1:00000001 RS2:fffffffc => RD:00000000 (esperado)
=== OK  [82] OP:d RS1:00000001 RS2:a5a5a5a5 => RD:00000000 (esperado)
=== OK  [83] OP:d RS1:00000001 RS2:5a5a5a5a => RD:00000000 (esperado)
=== OK  [84] OP:d RS1:00000001 RS2:12345678 => RD:00000000 (esperado)
=== OK  [85] OP:d RS1:00000001 RS2:87654321 => RD:00000000 (esperado)
=== OK  [86] OP:d RS1:00000001 RS2:0000000f => RD:00000000 (esperado)
=== OK  [87] OP:d RS1:00000001 RS2:000000f0 => RD:00000000 (esperado)
=== OK  [88] OP:d RS1:00000001 RS2:000000ff => RD:00000000 (esperado)
=== OK  [89] OP:d RS1:00000001 RS2:00000010 => RD:00000000 (esperado)
=== OK  [90] OP:d RS1:fffffffe RS2:00000000 => RD:00000001 (esperado)
=== OK  [91] OP:d RS1:fffffffe RS2:ffffffff => RD:00000000 (esperado)
=== OK  [92] OP:d RS1:fffffffe RS2:7fffffff => RD:00000001 (esperado)
=== OK  [93] OP:d RS1:fffffffe RS2:80000000 => RD:00000001 (esperado)
=== OK  [94] OP:d RS1:fffffffe RS2:00000001 => RD:00000001 (esperado)
=== OK  [95] OP:d RS1:fffffffe RS2:fffffffe => RD:00000001 (esperado)
=== OK  [96] OP:d RS1:fffffffe RS2:00000002 => RD:00000001 (esperado)
=== OK  [97] OP:d RS1:fffffffe RS2:fffffffd => RD:00000001 (esperado)
=== OK  [98] OP:d RS1:fffffffe RS2:00000003 => RD:00000001 (esperado)
=== OK  [99] OP:d RS1:fffffffe RS2:fffffffc => RD:00000001 (esperado)
=== OK  [100] OP:d RS1:fffffffe RS2:a5a5a5a5 => RD:00000001 (esperado)
=== OK  [101] OP:d RS1:fffffffe RS2:5a5a5a5a => RD:00000001 (esperado)
=== OK  [102] OP:d RS1:fffffffe RS2:12345678 => RD:00000001 (esperado)
=== OK  [103] OP:d RS1:fffffffe RS2:87654321 => RD:00000001 (esperado)
=== OK  [104] OP:d RS1:fffffffe RS2:0000000f => RD:00000001 (esperado)
=== OK  [105] OP:d RS1:fffffffe RS2:000000f0 => RD:00000001 (esperado)
=== OK  [106] OP:d RS1:fffffffe RS2:000000ff => RD:00000001 (esperado)
=== OK  [107] OP:d RS1:fffffffe RS2:00000010 => RD:00000001 (esperado)
=== OK  [108] OP:d RS1:00000002 RS2:00000000 => RD:00000001 (esperado)
=== OK  [109] OP:d RS1:00000002 RS2:ffffffff => RD:00000000 (esperado)
=== OK  [110] OP:d RS1:00000002 RS2:7fffffff => RD:00000000 (esperado)
=== OK  [111] OP:d RS1:00000002 RS2:80000000 => RD:00000000 (esperado)
=== OK  [112] OP:d RS1:00000002 RS2:00000001 => RD:00000001 (esperado)
=== OK  [113] OP:d RS1:00000002 RS2:fffffffe => RD:00000000 (esperado)
=== OK  [114] OP:d RS1:00000002 RS2:00000002 => RD:00000001 (esperado)
=== OK  [115] OP:d RS1:00000002 RS2:fffffffd => RD:00000000 (esperado)
=== OK  [116] OP:d RS1:00000002 RS2:00000003 => RD:00000000 (esperado)
=== OK  [117] OP:d RS1:00000002 RS2:fffffffc => RD:00000000 (esperado)
=== OK  [118] OP:d RS1:00000002 RS2:a5a5a5a5 => RD:00000000 (esperado)
=== OK  [119] OP:d RS1:00000002 RS2:5a5a5a5a => RD:00000000 (esperado)
=== OK  [120] OP:d RS1:00000002 RS2:12345678 => RD:00000000 (esperado)
=== OK  [121] OP:d RS1:00000002 RS2:87654321 => RD:00000000 (esperado)
=== OK  [122] OP:d RS1:00000002 RS2:0000000f => RD:00000000 (esperado)
=== OK  [123] OP:d RS1:00000002 RS2:000000f0 => RD:00000000 (esperado)
=== OK  [124] OP:d RS1:00000002 RS2:000000ff => RD:00000000 (esperado)
=== OK  [125] OP:d RS1:00000002 RS2:00000010 => RD:00000000 (esperado)
=== OK  [126] OP:d RS1:fffffffd RS2:00000000 => RD:00000001 (esperado)
=== OK  [127] OP:d RS1:fffffffd RS2:ffffffff => RD:00000000 (esperado)
=== OK  [128] OP:d RS1:fffffffd RS2:7fffffff => RD:00000001 (esperado)
=== OK  [129] OP:d RS1:fffffffd RS2:80000000 => RD:00000001 (esperado)
=== OK  [130] OP:d RS1:fffffffd RS2:00000001 => RD:00000001 (esperado)
=== OK  [131] OP:d RS1:fffffffd RS2:fffffffe => RD:00000000 (esperado)
=== OK  [132] OP:d RS1:fffffffd RS2:00000002 => RD:00000001 (esperado)
=== OK  [133] OP:d RS1:fffffffd RS2:fffffffd => RD:00000001 (esperado)
=== OK  [134] OP:d RS1:fffffffd RS2:00000003 => RD:00000001 (esperado)
=== OK  [135] OP:d RS1:fffffffd RS2:fffffffc => RD:00000001 (esperado)
=== OK  [136] OP:d RS1:fffffffd RS2:a5a5a5a5 => RD:00000001 (esperado)
=== OK  [137] OP:d RS1:fffffffd RS2:5a5a5a5a => RD:00000001 (esperado)
=== OK  [138] OP:d RS1:fffffffd RS2:12345678 => RD:00000001 (esperado)
=== OK  [139] OP:d RS1:fffffffd RS2:87654321 => RD:00000001 (esperado)
=== OK  [140] OP:d RS1:fffffffd RS2:0000000f => RD:00000001 (esperado)
=== OK  [141] OP:d RS1:fffffffd RS2:000000f0 => RD:00000001 (esperado)
=== OK  [142] OP:d RS1:fffffffd RS2:000000ff => RD:00000001 (esperado)
=== OK  [143] OP:d RS1:fffffffd RS2:00000010 => RD:00000001 (esperado)
=== OK  [144] OP:d RS1:00000003 RS2:00000000 => RD:00000001 (esperado)
=== OK  [145] OP:d RS1:00000003 RS2:ffffffff => RD:00000000 (esperado)
=== OK  [146] OP:d RS1:00000003 RS2:7fffffff => RD:00000000 (esperado)
=== OK  [147] OP:d RS1:00000003 RS2:80000000 => RD:00000000 (esperado)
=== OK  [148] OP:d RS1:00000003 RS2:00000001 => RD:00000001 (esperado)
=== OK  [149] OP:d RS1:00000003 RS2:fffffffe => RD:00000000 (esperado)
=== OK  [150] OP:d RS1:00000003 RS2:00000002 => RD:00000001 (esperado)
=== OK  [151] OP:d RS1:00000003 RS2:fffffffd => RD:00000000 (esperado)
=== OK  [152] OP:d RS1:00000003 RS2:00000003 => RD:00000001 (esperado)
=== OK  [153] OP:d RS1:00000003 RS2:fffffffc => RD:00000000 (esperado)
=== OK  [154] OP:d RS1:00000003 RS2:a5a5a5a5 => RD:00000000 (esperado)
=== OK  [155] OP:d RS1:00000003 RS2:5a5a5a5a => RD:00000000 (esperado)
=== OK  [156] OP:d RS1:00000003 RS2:12345678 => RD:00000000 (esperado)
=== OK  [157] OP:d RS1:00000003 RS2:87654321 => RD:00000000 (esperado)
=== OK  [158] OP:d RS1:00000003 RS2:0000000f => RD:00000000 (esperado)
=== OK  [159] OP:d RS1:00000003 RS2:000000f0 => RD:00000000 (esperado)
=== OK  [160] OP:d RS1:00000003 RS2:000000ff => RD:00000000 (esperado)
=== OK  [161] OP:d RS1:00000003 RS2:00000010 => RD:00000000 (esperado)
=== OK  [162] OP:d RS1:fffffffc RS2:00000000 => RD:00000001 (esperado)
=== OK  [163] OP:d RS1:fffffffc RS2:ffffffff => RD:00000000 (esperado)
=== OK  [164] OP:d RS1:fffffffc RS2:7fffffff => RD:00000001 (esperado)
=== OK  [165] OP:d RS1:fffffffc RS2:80000000 => RD:00000001 (esperado)
=== OK  [166] OP:d RS1:fffffffc RS2:00000001 => RD:00000001 (esperado)
=== OK  [167] OP:d RS1:fffffffc RS2:fffffffe => RD:00000000 (esperado)
=== OK  [168] OP:d RS1:fffffffc RS2:00000002 => RD:00000001 (esperado)
=== OK  [169] OP:d RS1:fffffffc RS2:fffffffd => RD:00000000 (esperado)
=== OK  [170] OP:d RS1:fffffffc RS2:00000003 => RD:00000001 (esperado)
=== OK  [171] OP:d RS1:fffffffc RS2:fffffffc => RD:00000001 (esperado)
=== OK  [172] OP:d RS1:fffffffc RS2:a5a5a5a5 => RD:00000001 (esperado)
=== OK  [173] OP:d RS1:fffffffc RS2:5a5a5a5a => RD:00000001 (esperado)
=== OK  [174] OP:d RS1:fffffffc RS2:12345678 => RD:00000001 (esperado)
=== OK  [175] OP:d RS1:fffffffc RS2:87654321 => RD:00000001 (esperado)
=== OK  [176] OP:d RS1:fffffffc RS2:0000000f => RD:00000001 (esperado)
=== OK  [177] OP:d RS1:fffffffc RS2:000000f0 => RD:00000001 (esperado)
=== OK  [178] OP:d RS1:fffffffc RS2:000000ff => RD:00000001 (esperado)
=== OK  [179] OP:d RS1:fffffffc RS2:00000010 => RD:00000001 (esperado)
=== OK  [180] OP:d RS1:a5a5a5a5 RS2:00000000 => RD:00000001 (esperado)
=== OK  [181] OP:d RS1:a5a5a5a5 RS2:ffffffff => RD:00000000 (esperado)
=== OK  [182] OP:d RS1:a5a5a5a5 RS2:7fffffff => RD:00000001 (esperado)
=== OK  [183] OP:d RS1:a5a5a5a5 RS2:80000000 => RD:00000001 (esperado)
=== OK  [184] OP:d RS1:a5a5a5a5 RS2:00000001 => RD:00000001 (esperado)
=== OK  [185] OP:d RS1:a5a5a5a5 RS2:fffffffe => RD:00000000 (esperado)
=== OK  [186] OP:d RS1:a5a5a5a5 RS2:00000002 => RD:00000001 (esperado)
=== OK  [187] OP:d RS1:a5a5a5a5 RS2:fffffffd => RD:00000000 (esperado)
=== OK  [188] OP:d RS1:a5a5a5a5 RS2:00000003 => RD:00000001 (esperado)
=== OK  [189] OP:d RS1:a5a5a5a5 RS2:fffffffc => RD:00000000 (esperado)
=== OK  [190] OP:d RS1:a5a5a5a5 RS2:a5a5a5a5 => RD:00000001 (esperado)
=== OK  [191] OP:d RS1:a5a5a5a5 RS2:5a5a5a5a => RD:00000001 (esperado)
=== OK  [192] OP:d RS1:a5a5a5a5 RS2:12345678 => RD:00000001 (esperado)
=== OK  [193] OP:d RS1:a5a5a5a5 RS2:87654321 => RD:00000001 (esperado)
=== OK  [194] OP:d RS1:a5a5a5a5 RS2:0000000f => RD:00000001 (esperado)
=== OK  [195] OP:d RS1:a5a5a5a5 RS2:000000f0 => RD:00000001 (esperado)
=== OK  [196] OP:d RS1:a5a5a5a5 RS2:000000ff => RD:00000001 (esperado)
=== OK  [197] OP:d RS1:a5a5a5a5 RS2:00000010 => RD:00000001 (esperado)
=== OK  [198] OP:d RS1:5a5a5a5a RS2:00000000 => RD:00000001 (esperado)
=== OK  [199] OP:d RS1:5a5a5a5a RS2:ffffffff => RD:00000000 (esperado)
=== OK  [200] OP:d RS1:5a5a5a5a RS2:7fffffff => RD:00000000 (esperado)
=== OK  [201] OP:d RS1:5a5a5a5a RS2:80000000 => RD:00000000 (esperado)
=== OK  [202] OP:d RS1:5a5a5a5a RS2:00000001 => RD:00000001 (esperado)
=== OK  [203] OP:d RS1:5a5a5a5a RS2:fffffffe => RD:00000000 (esperado)
=== OK  [204] OP:d RS1:5a5a5a5a RS2:00000002 => RD:00000001 (esperado)
=== OK  [205] OP:d RS1:5a5a5a5a RS2:fffffffd => RD:00000000 (esperado)
=== OK  [206] OP:d RS1:5a5a5a5a RS2:00000003 => RD:00000001 (esperado)
=== OK  [207] OP:d RS1:5a5a5a5a RS2:fffffffc => RD:00000000 (esperado)
=== OK  [208] OP:d RS1:5a5a5a5a RS2:a5a5a5a5 => RD:00000000 (esperado)
=== OK  [209] OP:d RS1:5a5a5a5a RS2:5a5a5a5a => RD:00000001 (esperado)
=== OK  [210] OP:d RS1:5a5a5a5a RS2:12345678 => RD:00000001 (esperado)
=== OK  [211] OP:d RS1:5a5a5a5a RS2:87654321 => RD:00000000 (esperado)
=== OK  [212] OP:d RS1:5a5a5a5a RS2:0000000f => RD:00000001 (esperado)
=== OK  [213] OP:d RS1:5a5a5a5a RS2:000000f0 => RD:00000001 (esperado)
=== OK  [214] OP:d RS1:5a5a5a5a RS2:000000ff => RD:00000001 (esperado)
=== OK  [215] OP:d RS1:5a5a5a5a RS2:00000010 => RD:00000001 (esperado)
=== OK  [216] OP:d RS1:12345678 RS2:00000000 => RD:00000001 (esperado)
=== OK  [217] OP:d RS1:12345678 RS2:ffffffff => RD:00000000 (esperado)
=== OK  [218] OP:d RS1:12345678 RS2:7fffffff => RD:00000000 (esperado)
=== OK  [219] OP:d RS1:12345678 RS2:80000000 => RD:00000000 (esperado)
=== OK  [220] OP:d RS1:12345678 RS2:00000001 => RD:00000001 (esperado)
=== OK  [221] OP:d RS1:12345678 RS2:fffffffe => RD:00000000 (esperado)
=== OK  [222] OP:d RS1:12345678 RS2:00000002 => RD:00000001 (esperado)
=== OK  [223] OP:d RS1:12345678 RS2:fffffffd => RD:00000000 (esperado)
=== OK  [224] OP:d RS1:12345678 RS2:00000003 => RD:00000001 (esperado)
=== OK  [225] OP:d RS1:12345678 RS2:fffffffc => RD:00000000 (esperado)
=== OK  [226] OP:d RS1:12345678 RS2:a5a5a5a5 => RD:00000000 (esperado)
=== OK  [227] OP:d RS1:12345678 RS2:5a5a5a5a => RD:00000000 (esperado)
=== OK  [228] OP:d RS1:12345678 RS2:12345678 => RD:00000001 (esperado)
=== OK  [229] OP:d RS1:12345678 RS2:87654321 => RD:00000000 (esperado)
=== OK  [230] OP:d RS1:12345678 RS2:0000000f => RD:00000001 (esperado)
=== OK  [231] OP:d RS1:12345678 RS2:000000f0 => RD:00000001 (esperado)
=== OK  [232] OP:d RS1:12345678 RS2:000000ff => RD:00000001 (esperado)
=== OK  [233] OP:d RS1:12345678 RS2:00000010 => RD:00000001 (esperado)
=== OK  [234] OP:d RS1:87654321 RS2:00000000 => RD:00000001 (esperado)
=== OK  [235] OP:d RS1:87654321 RS2:ffffffff => RD:00000000 (esperado)
=== OK  [236] OP:d RS1:87654321 RS2:7fffffff => RD:00000001 (esperado)
=== OK  [237] OP:d RS1:87654321 RS2:80000000 => RD:00000001 (esperado)
=== OK  [238] OP:d RS1:87654321 RS2:00000001 => RD:00000001 (esperado)
=== OK  [239] OP:d RS1:87654321 RS2:fffffffe => RD:00000000 (esperado)
=== OK  [240] OP:d RS1:87654321 RS2:00000002 => RD:00000001 (esperado)
=== OK  [241] OP:d RS1:87654321 RS2:fffffffd => RD:00000000 (esperado)
=== OK  [242] OP:d RS1:87654321 RS2:00000003 => RD:00000001 (esperado)
=== OK  [243] OP:d RS1:87654321 RS2:fffffffc => RD:00000000 (esperado)
=== OK  [244] OP:d RS1:87654321 RS2:a5a5a5a5 => RD:00000000 (esperado)
=== OK  [245] OP:d RS1:87654321 RS2:5a5a5a5a => RD:00000001 (esperado)
=== OK  [246] OP:d RS1:87654321 RS2:12345678 => RD:00000001 (esperado)
=== OK  [247] OP:d RS1:87654321 RS2:87654321 => RD:00000001 (esperado)
=== OK  [248] OP:d RS1:87654321 RS2:0000000f => RD:00000001 (esperado)
=== OK  [249] OP:d RS1:87654321 RS2:000000f0 => RD:00000001 (esperado)
=== OK  [250] OP:d RS1:87654321 RS2:000000ff => RD:00000001 (esperado)
=== OK  [251] OP:d RS1:87654321 RS2:00000010 => RD:00000001 (esperado)
=== OK  [252] OP:d RS1:0000000f RS2:00000000 => RD:00000001 (esperado)
=== OK  [253] OP:d RS1:0000000f RS2:ffffffff => RD:00000000 (esperado)
=== OK  [254] OP:d RS1:0000000f RS2:7fffffff => RD:00000000 (esperado)
=== OK  [255] OP:d RS1:0000000f RS2:80000000 => RD:00000000 (esperado)
=== OK  [256] OP:d RS1:0000000f RS2:00000001 => RD:00000001 (esperado)
=== OK  [257] OP:d RS1:0000000f RS2:fffffffe => RD:00000000 (esperado)
=== OK  [258] OP:d RS1:0000000f RS2:00000002 => RD:00000001 (esperado)
=== OK  [259] OP:d RS1:0000000f RS2:fffffffd => RD:00000000 (esperado)
=== OK  [260] OP:d RS1:0000000f RS2:00000003 => RD:00000001 (esperado)
=== OK  [261] OP:d RS1:0000000f RS2:fffffffc => RD:00000000 (esperado)
=== OK  [262] OP:d RS1:0000000f RS2:a5a5a5a5 => RD:00000000 (esperado)
=== OK  [263] OP:d RS1:0000000f RS2:5a5a5a5a => RD:00000000 (esperado)
=== OK  [264] OP:d RS1:0000000f RS2:12345678 => RD:00000000 (esperado)
=== OK  [265] OP:d RS1:0000000f RS2:87654321 => RD:00000000 (esperado)
=== OK  [266] OP:d RS1:0000000f RS2:0000000f => RD:00000001 (esperado)
=== OK  [267] OP:d RS1:0000000f RS2:000000f0 => RD:00000000 (esperado)
=== OK  [268] OP:d RS1:0000000f RS2:000000ff => RD:00000000 (esperado)
=== OK  [269] OP:d RS1:0000000f RS2:00000010 => RD:00000000 (esperado)
=== OK  [270] OP:d RS1:000000f0 RS2:00000000 => RD:00000001 (esperado)
=== OK  [271] OP:d RS1:000000f0 RS2:ffffffff => RD:00000000 (esperado)
=== OK  [272] OP:d RS1:000000f0 RS2:7fffffff => RD:00000000 (esperado)
=== OK  [273] OP:d RS1:000000f0 RS2:80000000 => RD:00000000 (esperado)
=== OK  [274] OP:d RS1:000000f0 RS2:00000001 => RD:00000001 (esperado)
=== OK  [275] OP:d RS1:000000f0 RS2:fffffffe => RD:00000000 (esperado)
=== OK  [276] OP:d RS1:000000f0 RS2:00000002 => RD:00000001 (esperado)
=== OK  [277] OP:d RS1:000000f0 RS2:fffffffd => RD:00000000 (esperado)
=== OK  [278] OP:d RS1:000000f0 RS2:00000003 => RD:00000001 (esperado)
=== OK  [279] OP:d RS1:000000f0 RS2:fffffffc => RD:00000000 (esperado)
=== OK  [280] OP:d RS1:000000f0 RS2:a5a5a5a5 => RD:00000000 (esperado)
=== OK  [281] OP:d RS1:000000f0 RS2:5a5a5a5a => RD:00000000 (esperado)
=== OK  [282] OP:d RS1:000000f0 RS2:12345678 => RD:00000000 (esperado)
=== OK  [283] OP:d RS1:000000f0 RS2:87654321 => RD:00000000 (esperado)
=== OK  [284] OP:d RS1:000000f0 RS2:0000000f => RD:00000001 (esperado)
=== OK  [285] OP:d RS1:000000f0 RS2:000000f0 => RD:00000001 (esperado)
=== OK  [286] OP:d RS1:000000f0 RS2:000000ff => RD:00000000 (esperado)
=== OK  [287] OP:d RS1:000000f0 RS2:00000010 => RD:00000001 (esperado)
=== OK  [288] OP:d RS1:000000ff RS2:00000000 => RD:00000001 (esperado)
=== OK  [289] OP:d RS1:000000ff RS2:ffffffff => RD:00000000 (esperado)
=== OK  [290] OP:d RS1:000000ff RS2:7fffffff => RD:00000000 (esperado)
=== OK  [291] OP:d RS1:000000ff RS2:80000000 => RD:00000000 (esperado)
=== OK  [292] OP:d RS1:000000ff RS2:00000001 => RD:00000001 (esperado)
=== OK  [293] OP:d RS1:000000ff RS2:fffffffe => RD:00000000 (esperado)
=== OK  [294] OP:d RS1:000000ff RS2:00000002 => RD:00000001 (esperado)
=== OK  [295] OP:d RS1:000000ff RS2:fffffffd => RD:00000000 (esperado)
=== OK  [296] OP:d RS1:000000ff RS2:00000003 => RD:00000001 (esperado)
=== OK  [297] OP:d RS1:000000ff RS2:fffffffc => RD:00000000 (esperado)
=== OK  [298] OP:d RS1:000000ff RS2:a5a5a5a5 => RD:00000000 (esperado)
=== OK  [299] OP:d RS1:000000ff RS2:5a5a5a5a => RD:00000000 (esperado)
=== OK  [300] OP:d RS1:000000ff RS2:12345678 => RD:00000000 (esperado)
=== OK  [301] OP:d RS1:000000ff RS2:87654321 => RD:00000000 (esperado)
=== OK  [302] OP:d RS1:000000ff RS2:0000000f => RD:00000001 (esperado)
=== OK  [303] OP:d RS1:000000ff RS2:000000f0 => RD:00000001 (esperado)
=== OK  [304] OP:d RS1:000000ff RS2:000000ff => RD:00000001 (esperado)
=== OK  [305] OP:d RS1:000000ff RS2:00000010 => RD:00000001 (esperado)
=== OK  [306] OP:d RS1:00000010 RS2:00000000 => RD:00000001 (esperado)
=== OK  [307] OP:d RS1:00000010 RS2:ffffffff => RD:00000000 (esperado)
=== OK  [308] OP:d RS1:00000010 RS2:7fffffff => RD:00000000 (esperado)
=== OK  [309] OP:d RS1:00000010 RS2:80000000 => RD:00000000 (esperado)
=== OK  [310] OP:d RS1:00000010 RS2:00000001 => RD:00000001 (esperado)
=== OK  [311] OP:d RS1:00000010 RS2:fffffffe => RD:00000000 (esperado)
=== OK  [312] OP:d RS1:00000010 RS2:00000002 => RD:00000001 (esperado)
=== OK  [313] OP:d RS1:00000010 RS2:fffffffd => RD:00000000 (esperado)
=== OK  [314] OP:d RS1:00000010 RS2:00000003 => RD:00000001 (esperado)
=== OK  [315] OP:d RS1:00000010 RS2:fffffffc => RD:00000000 (esperado)
=== OK  [316] OP:d RS1:00000010 RS2:a5a5a5a5 => RD:00000000 (esperado)
=== OK  [317] OP:d RS1:00000010 RS2:5a5a5a5a => RD:00000000 (esperado)
=== OK  [318] OP:d RS1:00000010 RS2:12345678 => RD:00000000 (esperado)
=== OK  [319] OP:d RS1:00000010 RS2:87654321 => RD:00000000 (esperado)
=== OK  [320] OP:d RS1:00000010 RS2:0000000f => RD:00000001 (esperado)
=== OK  [321] OP:d RS1:00000010 RS2:000000f0 => RD:00000000 (esperado)
=== OK  [322] OP:d RS1:00000010 RS2:000000ff => RD:00000000 (esperado)
=== OK  [323] OP:d RS1:00000010 RS2:00000010 => RD:00000001 (esperado)
Testbench finalizado com sucesso.
